                   MEM : 6.557
                   H_0 : 6.435
                   R_2 : 4.210
                   H_1 : 4.026
     bJets_Mass_jj_max : 3.220
            sphericity : 3.096
                   R_4 : 2.872
             jets_pt_6 : 2.753
                   H_5 : 2.612
                   R_3 : 2.559
       jets_bsort_pt_1 : 2.511
                   H_4 : 2.428
  selJets_DeltaR_jj_avg : 2.421
                   R_1 : 2.402
                   H_2 : 2.359
            aplanarity : 2.156
                   H_3 : 2.025
               Detaj_7 : 1.962
      jets_bsort_eta_1 : 1.694
  selJets_DeltaR_jj_max : 1.631
      jets_bsort_eta_0 : 1.541
