[WJetsToQQ_HT400to600_qc19_3j_TuneCP5_13TeV-madgraphMLM-pythia8]
root://t3dcachedb.psi.ch//pnfs/psi.ch/cms/trivcat/store/user/sleontsi/tth/LegacyRun2_2017_AH_v3/WJetsToQQ_HT400to600_qc19_3j_TuneCP5_13TeV-madgraphMLM-pythia8/LegacyRun2_2017_AH_v3/191028_150944/0000/tree_49.root = 21669
root://t3dcachedb.psi.ch//pnfs/psi.ch/cms/trivcat/store/user/sleontsi/tth/LegacyRun2_2017_AH_v3/WJetsToQQ_HT400to600_qc19_3j_TuneCP5_13TeV-madgraphMLM-pythia8/LegacyRun2_2017_AH_v3/191028_150944/0000/tree_31.root = 21920
root://t3dcachedb.psi.ch//pnfs/psi.ch/cms/trivcat/store/user/sleontsi/tth/LegacyRun2_2017_AH_v3/WJetsToQQ_HT400to600_qc19_3j_TuneCP5_13TeV-madgraphMLM-pythia8/LegacyRun2_2017_AH_v3/191028_150944/0000/tree_32.root = 21674
root://t3dcachedb.psi.ch//pnfs/psi.ch/cms/trivcat/store/user/sleontsi/tth/LegacyRun2_2017_AH_v3/WJetsToQQ_HT400to600_qc19_3j_TuneCP5_13TeV-madgraphMLM-pythia8/LegacyRun2_2017_AH_v3/191028_150944/0000/tree_48.root = 21995
root://t3dcachedb.psi.ch//pnfs/psi.ch/cms/trivcat/store/user/sleontsi/tth/LegacyRun2_2017_AH_v3/WJetsToQQ_HT400to600_qc19_3j_TuneCP5_13TeV-madgraphMLM-pythia8/LegacyRun2_2017_AH_v3/191028_150944/0000/tree_30.root = 21803
root://t3dcachedb.psi.ch//pnfs/psi.ch/cms/trivcat/store/user/sleontsi/tth/LegacyRun2_2017_AH_v3/WJetsToQQ_HT400to600_qc19_3j_TuneCP5_13TeV-madgraphMLM-pythia8/LegacyRun2_2017_AH_v3/191028_150944/0000/tree_34.root = 21653
root://t3dcachedb.psi.ch//pnfs/psi.ch/cms/trivcat/store/user/sleontsi/tth/LegacyRun2_2017_AH_v3/WJetsToQQ_HT400to600_qc19_3j_TuneCP5_13TeV-madgraphMLM-pythia8/LegacyRun2_2017_AH_v3/191028_150944/0000/tree_36.root = 21593
root://t3dcachedb.psi.ch//pnfs/psi.ch/cms/trivcat/store/user/sleontsi/tth/LegacyRun2_2017_AH_v3/WJetsToQQ_HT400to600_qc19_3j_TuneCP5_13TeV-madgraphMLM-pythia8/LegacyRun2_2017_AH_v3/191028_150944/0000/tree_33.root = 21390
root://t3dcachedb.psi.ch//pnfs/psi.ch/cms/trivcat/store/user/sleontsi/tth/LegacyRun2_2017_AH_v3/WJetsToQQ_HT400to600_qc19_3j_TuneCP5_13TeV-madgraphMLM-pythia8/LegacyRun2_2017_AH_v3/191028_150944/0000/tree_207.root = 21804
root://t3dcachedb.psi.ch//pnfs/psi.ch/cms/trivcat/store/user/sleontsi/tth/LegacyRun2_2017_AH_v3/WJetsToQQ_HT400to600_qc19_3j_TuneCP5_13TeV-madgraphMLM-pythia8/LegacyRun2_2017_AH_v3/191028_150944/0000/tree_200.root = 21746
root://t3dcachedb.psi.ch//pnfs/psi.ch/cms/trivcat/store/user/sleontsi/tth/LegacyRun2_2017_AH_v3/WJetsToQQ_HT400to600_qc19_3j_TuneCP5_13TeV-madgraphMLM-pythia8/LegacyRun2_2017_AH_v3/191028_150944/0000/tree_41.root = 21511
root://t3dcachedb.psi.ch//pnfs/psi.ch/cms/trivcat/store/user/sleontsi/tth/LegacyRun2_2017_AH_v3/WJetsToQQ_HT400to600_qc19_3j_TuneCP5_13TeV-madgraphMLM-pythia8/LegacyRun2_2017_AH_v3/191028_150944/0000/tree_39.root = 21855
root://t3dcachedb.psi.ch//pnfs/psi.ch/cms/trivcat/store/user/sleontsi/tth/LegacyRun2_2017_AH_v3/WJetsToQQ_HT400to600_qc19_3j_TuneCP5_13TeV-madgraphMLM-pythia8/LegacyRun2_2017_AH_v3/191028_150944/0000/tree_208.root = 21729
root://t3dcachedb.psi.ch//pnfs/psi.ch/cms/trivcat/store/user/sleontsi/tth/LegacyRun2_2017_AH_v3/WJetsToQQ_HT400to600_qc19_3j_TuneCP5_13TeV-madgraphMLM-pythia8/LegacyRun2_2017_AH_v3/191028_150944/0000/tree_84.root = 21839
root://t3dcachedb.psi.ch//pnfs/psi.ch/cms/trivcat/store/user/sleontsi/tth/LegacyRun2_2017_AH_v3/WJetsToQQ_HT400to600_qc19_3j_TuneCP5_13TeV-madgraphMLM-pythia8/LegacyRun2_2017_AH_v3/191028_150944/0000/tree_125.root = 21374
root://t3dcachedb.psi.ch//pnfs/psi.ch/cms/trivcat/store/user/sleontsi/tth/LegacyRun2_2017_AH_v3/WJetsToQQ_HT400to600_qc19_3j_TuneCP5_13TeV-madgraphMLM-pythia8/LegacyRun2_2017_AH_v3/191028_150944/0000/tree_37.root = 21588
root://t3dcachedb.psi.ch//pnfs/psi.ch/cms/trivcat/store/user/sleontsi/tth/LegacyRun2_2017_AH_v3/WJetsToQQ_HT400to600_qc19_3j_TuneCP5_13TeV-madgraphMLM-pythia8/LegacyRun2_2017_AH_v3/191028_150944/0000/tree_40.root = 21643
root://t3dcachedb.psi.ch//pnfs/psi.ch/cms/trivcat/store/user/sleontsi/tth/LegacyRun2_2017_AH_v3/WJetsToQQ_HT400to600_qc19_3j_TuneCP5_13TeV-madgraphMLM-pythia8/LegacyRun2_2017_AH_v3/191028_150944/0000/tree_96.root = 21693
root://t3dcachedb.psi.ch//pnfs/psi.ch/cms/trivcat/store/user/sleontsi/tth/LegacyRun2_2017_AH_v3/WJetsToQQ_HT400to600_qc19_3j_TuneCP5_13TeV-madgraphMLM-pythia8/LegacyRun2_2017_AH_v3/191028_150944/0000/tree_38.root = 21419
root://t3dcachedb.psi.ch//pnfs/psi.ch/cms/trivcat/store/user/sleontsi/tth/LegacyRun2_2017_AH_v3/WJetsToQQ_HT400to600_qc19_3j_TuneCP5_13TeV-madgraphMLM-pythia8/LegacyRun2_2017_AH_v3/191028_150944/0000/tree_44.root = 21652
root://t3dcachedb.psi.ch//pnfs/psi.ch/cms/trivcat/store/user/sleontsi/tth/LegacyRun2_2017_AH_v3/WJetsToQQ_HT400to600_qc19_3j_TuneCP5_13TeV-madgraphMLM-pythia8/LegacyRun2_2017_AH_v3/191028_150944/0000/tree_212.root = 21678
root://t3dcachedb.psi.ch//pnfs/psi.ch/cms/trivcat/store/user/sleontsi/tth/LegacyRun2_2017_AH_v3/WJetsToQQ_HT400to600_qc19_3j_TuneCP5_13TeV-madgraphMLM-pythia8/LegacyRun2_2017_AH_v3/191028_150944/0000/tree_94.root = 21775
root://t3dcachedb.psi.ch//pnfs/psi.ch/cms/trivcat/store/user/sleontsi/tth/LegacyRun2_2017_AH_v3/WJetsToQQ_HT400to600_qc19_3j_TuneCP5_13TeV-madgraphMLM-pythia8/LegacyRun2_2017_AH_v3/191028_150944/0000/tree_42.root = 21789
root://t3dcachedb.psi.ch//pnfs/psi.ch/cms/trivcat/store/user/sleontsi/tth/LegacyRun2_2017_AH_v3/WJetsToQQ_HT400to600_qc19_3j_TuneCP5_13TeV-madgraphMLM-pythia8/LegacyRun2_2017_AH_v3/191028_150944/0000/tree_93.root = 21711
root://t3dcachedb.psi.ch//pnfs/psi.ch/cms/trivcat/store/user/sleontsi/tth/LegacyRun2_2017_AH_v3/WJetsToQQ_HT400to600_qc19_3j_TuneCP5_13TeV-madgraphMLM-pythia8/LegacyRun2_2017_AH_v3/191028_150944/0000/tree_97.root = 21701
root://t3dcachedb.psi.ch//pnfs/psi.ch/cms/trivcat/store/user/sleontsi/tth/LegacyRun2_2017_AH_v3/WJetsToQQ_HT400to600_qc19_3j_TuneCP5_13TeV-madgraphMLM-pythia8/LegacyRun2_2017_AH_v3/191028_150944/0000/tree_113.root = 21797
root://t3dcachedb.psi.ch//pnfs/psi.ch/cms/trivcat/store/user/sleontsi/tth/LegacyRun2_2017_AH_v3/WJetsToQQ_HT400to600_qc19_3j_TuneCP5_13TeV-madgraphMLM-pythia8/LegacyRun2_2017_AH_v3/191028_150944/0000/tree_35.root = 21567
root://t3dcachedb.psi.ch//pnfs/psi.ch/cms/trivcat/store/user/sleontsi/tth/LegacyRun2_2017_AH_v3/WJetsToQQ_HT400to600_qc19_3j_TuneCP5_13TeV-madgraphMLM-pythia8/LegacyRun2_2017_AH_v3/191028_150944/0000/tree_217.root = 21688
root://t3dcachedb.psi.ch//pnfs/psi.ch/cms/trivcat/store/user/sleontsi/tth/LegacyRun2_2017_AH_v3/WJetsToQQ_HT400to600_qc19_3j_TuneCP5_13TeV-madgraphMLM-pythia8/LegacyRun2_2017_AH_v3/191028_150944/0000/tree_98.root = 21689
root://t3dcachedb.psi.ch//pnfs/psi.ch/cms/trivcat/store/user/sleontsi/tth/LegacyRun2_2017_AH_v3/WJetsToQQ_HT400to600_qc19_3j_TuneCP5_13TeV-madgraphMLM-pythia8/LegacyRun2_2017_AH_v3/191028_150944/0000/tree_131.root = 21502
root://t3dcachedb.psi.ch//pnfs/psi.ch/cms/trivcat/store/user/sleontsi/tth/LegacyRun2_2017_AH_v3/WJetsToQQ_HT400to600_qc19_3j_TuneCP5_13TeV-madgraphMLM-pythia8/LegacyRun2_2017_AH_v3/191028_150944/0000/tree_127.root = 21793
root://t3dcachedb.psi.ch//pnfs/psi.ch/cms/trivcat/store/user/sleontsi/tth/LegacyRun2_2017_AH_v3/WJetsToQQ_HT400to600_qc19_3j_TuneCP5_13TeV-madgraphMLM-pythia8/LegacyRun2_2017_AH_v3/191028_150944/0000/tree_260.root = 21727
root://t3dcachedb.psi.ch//pnfs/psi.ch/cms/trivcat/store/user/sleontsi/tth/LegacyRun2_2017_AH_v3/WJetsToQQ_HT400to600_qc19_3j_TuneCP5_13TeV-madgraphMLM-pythia8/LegacyRun2_2017_AH_v3/191028_150944/0000/tree_114.root = 21699
root://t3dcachedb.psi.ch//pnfs/psi.ch/cms/trivcat/store/user/sleontsi/tth/LegacyRun2_2017_AH_v3/WJetsToQQ_HT400to600_qc19_3j_TuneCP5_13TeV-madgraphMLM-pythia8/LegacyRun2_2017_AH_v3/191028_150944/0000/tree_218.root = 21835
root://t3dcachedb.psi.ch//pnfs/psi.ch/cms/trivcat/store/user/sleontsi/tth/LegacyRun2_2017_AH_v3/WJetsToQQ_HT400to600_qc19_3j_TuneCP5_13TeV-madgraphMLM-pythia8/LegacyRun2_2017_AH_v3/191028_150944/0000/tree_181.root = 21652
root://t3dcachedb.psi.ch//pnfs/psi.ch/cms/trivcat/store/user/sleontsi/tth/LegacyRun2_2017_AH_v3/WJetsToQQ_HT400to600_qc19_3j_TuneCP5_13TeV-madgraphMLM-pythia8/LegacyRun2_2017_AH_v3/191028_150944/0000/tree_210.root = 21672
root://t3dcachedb.psi.ch//pnfs/psi.ch/cms/trivcat/store/user/sleontsi/tth/LegacyRun2_2017_AH_v3/WJetsToQQ_HT400to600_qc19_3j_TuneCP5_13TeV-madgraphMLM-pythia8/LegacyRun2_2017_AH_v3/191028_150944/0000/tree_45.root = 21750
root://t3dcachedb.psi.ch//pnfs/psi.ch/cms/trivcat/store/user/sleontsi/tth/LegacyRun2_2017_AH_v3/WJetsToQQ_HT400to600_qc19_3j_TuneCP5_13TeV-madgraphMLM-pythia8/LegacyRun2_2017_AH_v3/191028_150944/0000/tree_126.root = 21877
root://t3dcachedb.psi.ch//pnfs/psi.ch/cms/trivcat/store/user/sleontsi/tth/LegacyRun2_2017_AH_v3/WJetsToQQ_HT400to600_qc19_3j_TuneCP5_13TeV-madgraphMLM-pythia8/LegacyRun2_2017_AH_v3/191028_150944/0000/tree_83.root = 21641
root://t3dcachedb.psi.ch//pnfs/psi.ch/cms/trivcat/store/user/sleontsi/tth/LegacyRun2_2017_AH_v3/WJetsToQQ_HT400to600_qc19_3j_TuneCP5_13TeV-madgraphMLM-pythia8/LegacyRun2_2017_AH_v3/191028_150944/0000/tree_80.root = 21874
root://t3dcachedb.psi.ch//pnfs/psi.ch/cms/trivcat/store/user/sleontsi/tth/LegacyRun2_2017_AH_v3/WJetsToQQ_HT400to600_qc19_3j_TuneCP5_13TeV-madgraphMLM-pythia8/LegacyRun2_2017_AH_v3/191028_150944/0000/tree_211.root = 21619
root://t3dcachedb.psi.ch//pnfs/psi.ch/cms/trivcat/store/user/sleontsi/tth/LegacyRun2_2017_AH_v3/WJetsToQQ_HT400to600_qc19_3j_TuneCP5_13TeV-madgraphMLM-pythia8/LegacyRun2_2017_AH_v3/191028_150944/0000/tree_136.root = 21707
root://t3dcachedb.psi.ch//pnfs/psi.ch/cms/trivcat/store/user/sleontsi/tth/LegacyRun2_2017_AH_v3/WJetsToQQ_HT400to600_qc19_3j_TuneCP5_13TeV-madgraphMLM-pythia8/LegacyRun2_2017_AH_v3/191028_150944/0000/tree_268.root = 21725
root://t3dcachedb.psi.ch//pnfs/psi.ch/cms/trivcat/store/user/sleontsi/tth/LegacyRun2_2017_AH_v3/WJetsToQQ_HT400to600_qc19_3j_TuneCP5_13TeV-madgraphMLM-pythia8/LegacyRun2_2017_AH_v3/191028_150944/0000/tree_264.root = 21333
root://t3dcachedb.psi.ch//pnfs/psi.ch/cms/trivcat/store/user/sleontsi/tth/LegacyRun2_2017_AH_v3/WJetsToQQ_HT400to600_qc19_3j_TuneCP5_13TeV-madgraphMLM-pythia8/LegacyRun2_2017_AH_v3/191028_150944/0000/tree_90.root = 21683
root://t3dcachedb.psi.ch//pnfs/psi.ch/cms/trivcat/store/user/sleontsi/tth/LegacyRun2_2017_AH_v3/WJetsToQQ_HT400to600_qc19_3j_TuneCP5_13TeV-madgraphMLM-pythia8/LegacyRun2_2017_AH_v3/191028_150944/0000/tree_266.root = 21803
root://t3dcachedb.psi.ch//pnfs/psi.ch/cms/trivcat/store/user/sleontsi/tth/LegacyRun2_2017_AH_v3/WJetsToQQ_HT400to600_qc19_3j_TuneCP5_13TeV-madgraphMLM-pythia8/LegacyRun2_2017_AH_v3/191028_150944/0000/tree_133.root = 21744
root://t3dcachedb.psi.ch//pnfs/psi.ch/cms/trivcat/store/user/sleontsi/tth/LegacyRun2_2017_AH_v3/WJetsToQQ_HT400to600_qc19_3j_TuneCP5_13TeV-madgraphMLM-pythia8/LegacyRun2_2017_AH_v3/191028_150944/0000/tree_162.root = 21748
root://t3dcachedb.psi.ch//pnfs/psi.ch/cms/trivcat/store/user/sleontsi/tth/LegacyRun2_2017_AH_v3/WJetsToQQ_HT400to600_qc19_3j_TuneCP5_13TeV-madgraphMLM-pythia8/LegacyRun2_2017_AH_v3/191028_150944/0000/tree_128.root = 21951
root://t3dcachedb.psi.ch//pnfs/psi.ch/cms/trivcat/store/user/sleontsi/tth/LegacyRun2_2017_AH_v3/WJetsToQQ_HT400to600_qc19_3j_TuneCP5_13TeV-madgraphMLM-pythia8/LegacyRun2_2017_AH_v3/191028_150944/0000/tree_179.root = 22042
root://t3dcachedb.psi.ch//pnfs/psi.ch/cms/trivcat/store/user/sleontsi/tth/LegacyRun2_2017_AH_v3/WJetsToQQ_HT400to600_qc19_3j_TuneCP5_13TeV-madgraphMLM-pythia8/LegacyRun2_2017_AH_v3/191028_150944/0000/tree_213.root = 21366
root://t3dcachedb.psi.ch//pnfs/psi.ch/cms/trivcat/store/user/sleontsi/tth/LegacyRun2_2017_AH_v3/WJetsToQQ_HT400to600_qc19_3j_TuneCP5_13TeV-madgraphMLM-pythia8/LegacyRun2_2017_AH_v3/191028_150944/0000/tree_173.root = 21576
root://t3dcachedb.psi.ch//pnfs/psi.ch/cms/trivcat/store/user/sleontsi/tth/LegacyRun2_2017_AH_v3/WJetsToQQ_HT400to600_qc19_3j_TuneCP5_13TeV-madgraphMLM-pythia8/LegacyRun2_2017_AH_v3/191028_150944/0000/tree_214.root = 21802
root://t3dcachedb.psi.ch//pnfs/psi.ch/cms/trivcat/store/user/sleontsi/tth/LegacyRun2_2017_AH_v3/WJetsToQQ_HT400to600_qc19_3j_TuneCP5_13TeV-madgraphMLM-pythia8/LegacyRun2_2017_AH_v3/191028_150944/0000/tree_91.root = 21728
root://t3dcachedb.psi.ch//pnfs/psi.ch/cms/trivcat/store/user/sleontsi/tth/LegacyRun2_2017_AH_v3/WJetsToQQ_HT400to600_qc19_3j_TuneCP5_13TeV-madgraphMLM-pythia8/LegacyRun2_2017_AH_v3/191028_150944/0000/tree_124.root = 21690
root://t3dcachedb.psi.ch//pnfs/psi.ch/cms/trivcat/store/user/sleontsi/tth/LegacyRun2_2017_AH_v3/WJetsToQQ_HT400to600_qc19_3j_TuneCP5_13TeV-madgraphMLM-pythia8/LegacyRun2_2017_AH_v3/191028_150944/0000/tree_88.root = 21750
root://t3dcachedb.psi.ch//pnfs/psi.ch/cms/trivcat/store/user/sleontsi/tth/LegacyRun2_2017_AH_v3/WJetsToQQ_HT400to600_qc19_3j_TuneCP5_13TeV-madgraphMLM-pythia8/LegacyRun2_2017_AH_v3/191028_150944/0000/tree_121.root = 21671
root://t3dcachedb.psi.ch//pnfs/psi.ch/cms/trivcat/store/user/sleontsi/tth/LegacyRun2_2017_AH_v3/WJetsToQQ_HT400to600_qc19_3j_TuneCP5_13TeV-madgraphMLM-pythia8/LegacyRun2_2017_AH_v3/191028_150944/0000/tree_50.root = 22053
root://t3dcachedb.psi.ch//pnfs/psi.ch/cms/trivcat/store/user/sleontsi/tth/LegacyRun2_2017_AH_v3/WJetsToQQ_HT400to600_qc19_3j_TuneCP5_13TeV-madgraphMLM-pythia8/LegacyRun2_2017_AH_v3/191028_150944/0000/tree_216.root = 21656
root://t3dcachedb.psi.ch//pnfs/psi.ch/cms/trivcat/store/user/sleontsi/tth/LegacyRun2_2017_AH_v3/WJetsToQQ_HT400to600_qc19_3j_TuneCP5_13TeV-madgraphMLM-pythia8/LegacyRun2_2017_AH_v3/191028_150944/0000/tree_178.root = 21518
root://t3dcachedb.psi.ch//pnfs/psi.ch/cms/trivcat/store/user/sleontsi/tth/LegacyRun2_2017_AH_v3/WJetsToQQ_HT400to600_qc19_3j_TuneCP5_13TeV-madgraphMLM-pythia8/LegacyRun2_2017_AH_v3/191028_150944/0000/tree_215.root = 21870
root://t3dcachedb.psi.ch//pnfs/psi.ch/cms/trivcat/store/user/sleontsi/tth/LegacyRun2_2017_AH_v3/WJetsToQQ_HT400to600_qc19_3j_TuneCP5_13TeV-madgraphMLM-pythia8/LegacyRun2_2017_AH_v3/191028_150944/0000/tree_81.root = 21803
root://t3dcachedb.psi.ch//pnfs/psi.ch/cms/trivcat/store/user/sleontsi/tth/LegacyRun2_2017_AH_v3/WJetsToQQ_HT400to600_qc19_3j_TuneCP5_13TeV-madgraphMLM-pythia8/LegacyRun2_2017_AH_v3/191028_150944/0000/tree_249.root = 21661
root://t3dcachedb.psi.ch//pnfs/psi.ch/cms/trivcat/store/user/sleontsi/tth/LegacyRun2_2017_AH_v3/WJetsToQQ_HT400to600_qc19_3j_TuneCP5_13TeV-madgraphMLM-pythia8/LegacyRun2_2017_AH_v3/191028_150944/0000/tree_246.root = 21651
root://t3dcachedb.psi.ch//pnfs/psi.ch/cms/trivcat/store/user/sleontsi/tth/LegacyRun2_2017_AH_v3/WJetsToQQ_HT400to600_qc19_3j_TuneCP5_13TeV-madgraphMLM-pythia8/LegacyRun2_2017_AH_v3/191028_150944/0000/tree_175.root = 21867
root://t3dcachedb.psi.ch//pnfs/psi.ch/cms/trivcat/store/user/sleontsi/tth/LegacyRun2_2017_AH_v3/WJetsToQQ_HT400to600_qc19_3j_TuneCP5_13TeV-madgraphMLM-pythia8/LegacyRun2_2017_AH_v3/191028_150944/0000/tree_206.root = 21508
root://t3dcachedb.psi.ch//pnfs/psi.ch/cms/trivcat/store/user/sleontsi/tth/LegacyRun2_2017_AH_v3/WJetsToQQ_HT400to600_qc19_3j_TuneCP5_13TeV-madgraphMLM-pythia8/LegacyRun2_2017_AH_v3/191028_150944/0000/tree_180.root = 21581
root://t3dcachedb.psi.ch//pnfs/psi.ch/cms/trivcat/store/user/sleontsi/tth/LegacyRun2_2017_AH_v3/WJetsToQQ_HT400to600_qc19_3j_TuneCP5_13TeV-madgraphMLM-pythia8/LegacyRun2_2017_AH_v3/191028_150944/0000/tree_293.root = 21558
root://t3dcachedb.psi.ch//pnfs/psi.ch/cms/trivcat/store/user/sleontsi/tth/LegacyRun2_2017_AH_v3/WJetsToQQ_HT400to600_qc19_3j_TuneCP5_13TeV-madgraphMLM-pythia8/LegacyRun2_2017_AH_v3/191028_150944/0000/tree_47.root = 21727
root://t3dcachedb.psi.ch//pnfs/psi.ch/cms/trivcat/store/user/sleontsi/tth/LegacyRun2_2017_AH_v3/WJetsToQQ_HT400to600_qc19_3j_TuneCP5_13TeV-madgraphMLM-pythia8/LegacyRun2_2017_AH_v3/191028_150944/0000/tree_294.root = 21639
root://t3dcachedb.psi.ch//pnfs/psi.ch/cms/trivcat/store/user/sleontsi/tth/LegacyRun2_2017_AH_v3/WJetsToQQ_HT400to600_qc19_3j_TuneCP5_13TeV-madgraphMLM-pythia8/LegacyRun2_2017_AH_v3/191028_150944/0000/tree_219.root = 22096
root://t3dcachedb.psi.ch//pnfs/psi.ch/cms/trivcat/store/user/sleontsi/tth/LegacyRun2_2017_AH_v3/WJetsToQQ_HT400to600_qc19_3j_TuneCP5_13TeV-madgraphMLM-pythia8/LegacyRun2_2017_AH_v3/191028_150944/0000/tree_254.root = 21664
root://t3dcachedb.psi.ch//pnfs/psi.ch/cms/trivcat/store/user/sleontsi/tth/LegacyRun2_2017_AH_v3/WJetsToQQ_HT400to600_qc19_3j_TuneCP5_13TeV-madgraphMLM-pythia8/LegacyRun2_2017_AH_v3/191028_150944/0000/tree_250.root = 21784
root://t3dcachedb.psi.ch//pnfs/psi.ch/cms/trivcat/store/user/sleontsi/tth/LegacyRun2_2017_AH_v3/WJetsToQQ_HT400to600_qc19_3j_TuneCP5_13TeV-madgraphMLM-pythia8/LegacyRun2_2017_AH_v3/191028_150944/0000/tree_86.root = 21429
root://t3dcachedb.psi.ch//pnfs/psi.ch/cms/trivcat/store/user/sleontsi/tth/LegacyRun2_2017_AH_v3/WJetsToQQ_HT400to600_qc19_3j_TuneCP5_13TeV-madgraphMLM-pythia8/LegacyRun2_2017_AH_v3/191028_150944/0000/tree_209.root = 21659
root://t3dcachedb.psi.ch//pnfs/psi.ch/cms/trivcat/store/user/sleontsi/tth/LegacyRun2_2017_AH_v3/WJetsToQQ_HT400to600_qc19_3j_TuneCP5_13TeV-madgraphMLM-pythia8/LegacyRun2_2017_AH_v3/191028_150944/0000/tree_297.root = 21731
root://t3dcachedb.psi.ch//pnfs/psi.ch/cms/trivcat/store/user/sleontsi/tth/LegacyRun2_2017_AH_v3/WJetsToQQ_HT400to600_qc19_3j_TuneCP5_13TeV-madgraphMLM-pythia8/LegacyRun2_2017_AH_v3/191028_150944/0000/tree_172.root = 21762
root://t3dcachedb.psi.ch//pnfs/psi.ch/cms/trivcat/store/user/sleontsi/tth/LegacyRun2_2017_AH_v3/WJetsToQQ_HT400to600_qc19_3j_TuneCP5_13TeV-madgraphMLM-pythia8/LegacyRun2_2017_AH_v3/191028_150944/0000/tree_95.root = 21417
root://t3dcachedb.psi.ch//pnfs/psi.ch/cms/trivcat/store/user/sleontsi/tth/LegacyRun2_2017_AH_v3/WJetsToQQ_HT400to600_qc19_3j_TuneCP5_13TeV-madgraphMLM-pythia8/LegacyRun2_2017_AH_v3/191028_150944/0000/tree_205.root = 8562
root://t3dcachedb.psi.ch//pnfs/psi.ch/cms/trivcat/store/user/sleontsi/tth/LegacyRun2_2017_AH_v3/WJetsToQQ_HT400to600_qc19_3j_TuneCP5_13TeV-madgraphMLM-pythia8/LegacyRun2_2017_AH_v3/191028_150944/0000/tree_160.root = 21639
root://t3dcachedb.psi.ch//pnfs/psi.ch/cms/trivcat/store/user/sleontsi/tth/LegacyRun2_2017_AH_v3/WJetsToQQ_HT400to600_qc19_3j_TuneCP5_13TeV-madgraphMLM-pythia8/LegacyRun2_2017_AH_v3/191028_150944/0000/tree_122.root = 21688
root://t3dcachedb.psi.ch//pnfs/psi.ch/cms/trivcat/store/user/sleontsi/tth/LegacyRun2_2017_AH_v3/WJetsToQQ_HT400to600_qc19_3j_TuneCP5_13TeV-madgraphMLM-pythia8/LegacyRun2_2017_AH_v3/191028_150944/0000/tree_161.root = 21781
root://t3dcachedb.psi.ch//pnfs/psi.ch/cms/trivcat/store/user/sleontsi/tth/LegacyRun2_2017_AH_v3/WJetsToQQ_HT400to600_qc19_3j_TuneCP5_13TeV-madgraphMLM-pythia8/LegacyRun2_2017_AH_v3/191028_150944/0000/tree_240.root = 21776
root://t3dcachedb.psi.ch//pnfs/psi.ch/cms/trivcat/store/user/sleontsi/tth/LegacyRun2_2017_AH_v3/WJetsToQQ_HT400to600_qc19_3j_TuneCP5_13TeV-madgraphMLM-pythia8/LegacyRun2_2017_AH_v3/191028_150944/0000/tree_85.root = 21856
root://t3dcachedb.psi.ch//pnfs/psi.ch/cms/trivcat/store/user/sleontsi/tth/LegacyRun2_2017_AH_v3/WJetsToQQ_HT400to600_qc19_3j_TuneCP5_13TeV-madgraphMLM-pythia8/LegacyRun2_2017_AH_v3/191028_150944/0000/tree_135.root = 21954
root://t3dcachedb.psi.ch//pnfs/psi.ch/cms/trivcat/store/user/sleontsi/tth/LegacyRun2_2017_AH_v3/WJetsToQQ_HT400to600_qc19_3j_TuneCP5_13TeV-madgraphMLM-pythia8/LegacyRun2_2017_AH_v3/191028_150944/0000/tree_243.root = 21786
root://t3dcachedb.psi.ch//pnfs/psi.ch/cms/trivcat/store/user/sleontsi/tth/LegacyRun2_2017_AH_v3/WJetsToQQ_HT400to600_qc19_3j_TuneCP5_13TeV-madgraphMLM-pythia8/LegacyRun2_2017_AH_v3/191028_150944/0000/tree_129.root = 21727
root://t3dcachedb.psi.ch//pnfs/psi.ch/cms/trivcat/store/user/sleontsi/tth/LegacyRun2_2017_AH_v3/WJetsToQQ_HT400to600_qc19_3j_TuneCP5_13TeV-madgraphMLM-pythia8/LegacyRun2_2017_AH_v3/191028_150944/0000/tree_123.root = 21789
root://t3dcachedb.psi.ch//pnfs/psi.ch/cms/trivcat/store/user/sleontsi/tth/LegacyRun2_2017_AH_v3/WJetsToQQ_HT400to600_qc19_3j_TuneCP5_13TeV-madgraphMLM-pythia8/LegacyRun2_2017_AH_v3/191028_150944/0000/tree_118.root = 21671
root://t3dcachedb.psi.ch//pnfs/psi.ch/cms/trivcat/store/user/sleontsi/tth/LegacyRun2_2017_AH_v3/WJetsToQQ_HT400to600_qc19_3j_TuneCP5_13TeV-madgraphMLM-pythia8/LegacyRun2_2017_AH_v3/191028_150944/0000/tree_176.root = 21683
root://t3dcachedb.psi.ch//pnfs/psi.ch/cms/trivcat/store/user/sleontsi/tth/LegacyRun2_2017_AH_v3/WJetsToQQ_HT400to600_qc19_3j_TuneCP5_13TeV-madgraphMLM-pythia8/LegacyRun2_2017_AH_v3/191028_150944/0000/tree_132.root = 21631
root://t3dcachedb.psi.ch//pnfs/psi.ch/cms/trivcat/store/user/sleontsi/tth/LegacyRun2_2017_AH_v3/WJetsToQQ_HT400to600_qc19_3j_TuneCP5_13TeV-madgraphMLM-pythia8/LegacyRun2_2017_AH_v3/191028_150944/0000/tree_166.root = 21686
root://t3dcachedb.psi.ch//pnfs/psi.ch/cms/trivcat/store/user/sleontsi/tth/LegacyRun2_2017_AH_v3/WJetsToQQ_HT400to600_qc19_3j_TuneCP5_13TeV-madgraphMLM-pythia8/LegacyRun2_2017_AH_v3/191028_150944/0000/tree_130.root = 21801
root://t3dcachedb.psi.ch//pnfs/psi.ch/cms/trivcat/store/user/sleontsi/tth/LegacyRun2_2017_AH_v3/WJetsToQQ_HT400to600_qc19_3j_TuneCP5_13TeV-madgraphMLM-pythia8/LegacyRun2_2017_AH_v3/191028_150944/0000/tree_120.root = 21870
root://t3dcachedb.psi.ch//pnfs/psi.ch/cms/trivcat/store/user/sleontsi/tth/LegacyRun2_2017_AH_v3/WJetsToQQ_HT400to600_qc19_3j_TuneCP5_13TeV-madgraphMLM-pythia8/LegacyRun2_2017_AH_v3/191028_150944/0000/tree_262.root = 21927
root://t3dcachedb.psi.ch//pnfs/psi.ch/cms/trivcat/store/user/sleontsi/tth/LegacyRun2_2017_AH_v3/WJetsToQQ_HT400to600_qc19_3j_TuneCP5_13TeV-madgraphMLM-pythia8/LegacyRun2_2017_AH_v3/191028_150944/0000/tree_169.root = 21402
root://t3dcachedb.psi.ch//pnfs/psi.ch/cms/trivcat/store/user/sleontsi/tth/LegacyRun2_2017_AH_v3/WJetsToQQ_HT400to600_qc19_3j_TuneCP5_13TeV-madgraphMLM-pythia8/LegacyRun2_2017_AH_v3/191028_150944/0000/tree_171.root = 21614
root://t3dcachedb.psi.ch//pnfs/psi.ch/cms/trivcat/store/user/sleontsi/tth/LegacyRun2_2017_AH_v3/WJetsToQQ_HT400to600_qc19_3j_TuneCP5_13TeV-madgraphMLM-pythia8/LegacyRun2_2017_AH_v3/191028_150944/0000/tree_134.root = 21492
root://t3dcachedb.psi.ch//pnfs/psi.ch/cms/trivcat/store/user/sleontsi/tth/LegacyRun2_2017_AH_v3/WJetsToQQ_HT400to600_qc19_3j_TuneCP5_13TeV-madgraphMLM-pythia8/LegacyRun2_2017_AH_v3/191028_150944/0000/tree_183.root = 21779
root://t3dcachedb.psi.ch//pnfs/psi.ch/cms/trivcat/store/user/sleontsi/tth/LegacyRun2_2017_AH_v3/WJetsToQQ_HT400to600_qc19_3j_TuneCP5_13TeV-madgraphMLM-pythia8/LegacyRun2_2017_AH_v3/191028_150944/0000/tree_201.root = 21803
root://t3dcachedb.psi.ch//pnfs/psi.ch/cms/trivcat/store/user/sleontsi/tth/LegacyRun2_2017_AH_v3/WJetsToQQ_HT400to600_qc19_3j_TuneCP5_13TeV-madgraphMLM-pythia8/LegacyRun2_2017_AH_v3/191028_150944/0000/tree_187.root = 21712
root://t3dcachedb.psi.ch//pnfs/psi.ch/cms/trivcat/store/user/sleontsi/tth/LegacyRun2_2017_AH_v3/WJetsToQQ_HT400to600_qc19_3j_TuneCP5_13TeV-madgraphMLM-pythia8/LegacyRun2_2017_AH_v3/191028_150944/0000/tree_168.root = 21784
root://t3dcachedb.psi.ch//pnfs/psi.ch/cms/trivcat/store/user/sleontsi/tth/LegacyRun2_2017_AH_v3/WJetsToQQ_HT400to600_qc19_3j_TuneCP5_13TeV-madgraphMLM-pythia8/LegacyRun2_2017_AH_v3/191028_150944/0000/tree_87.root = 21631
root://t3dcachedb.psi.ch//pnfs/psi.ch/cms/trivcat/store/user/sleontsi/tth/LegacyRun2_2017_AH_v3/WJetsToQQ_HT400to600_qc19_3j_TuneCP5_13TeV-madgraphMLM-pythia8/LegacyRun2_2017_AH_v3/191028_150944/0000/tree_241.root = 21718
root://t3dcachedb.psi.ch//pnfs/psi.ch/cms/trivcat/store/user/sleontsi/tth/LegacyRun2_2017_AH_v3/WJetsToQQ_HT400to600_qc19_3j_TuneCP5_13TeV-madgraphMLM-pythia8/LegacyRun2_2017_AH_v3/191028_150944/0000/tree_43.root = 21374
root://t3dcachedb.psi.ch//pnfs/psi.ch/cms/trivcat/store/user/sleontsi/tth/LegacyRun2_2017_AH_v3/WJetsToQQ_HT400to600_qc19_3j_TuneCP5_13TeV-madgraphMLM-pythia8/LegacyRun2_2017_AH_v3/191028_150944/0000/tree_177.root = 21651
root://t3dcachedb.psi.ch//pnfs/psi.ch/cms/trivcat/store/user/sleontsi/tth/LegacyRun2_2017_AH_v3/WJetsToQQ_HT400to600_qc19_3j_TuneCP5_13TeV-madgraphMLM-pythia8/LegacyRun2_2017_AH_v3/191028_150944/0000/tree_185.root = 21805
root://t3dcachedb.psi.ch//pnfs/psi.ch/cms/trivcat/store/user/sleontsi/tth/LegacyRun2_2017_AH_v3/WJetsToQQ_HT400to600_qc19_3j_TuneCP5_13TeV-madgraphMLM-pythia8/LegacyRun2_2017_AH_v3/191028_150944/0000/tree_267.root = 21639
root://t3dcachedb.psi.ch//pnfs/psi.ch/cms/trivcat/store/user/sleontsi/tth/LegacyRun2_2017_AH_v3/WJetsToQQ_HT400to600_qc19_3j_TuneCP5_13TeV-madgraphMLM-pythia8/LegacyRun2_2017_AH_v3/191028_150944/0000/tree_255.root = 21668
root://t3dcachedb.psi.ch//pnfs/psi.ch/cms/trivcat/store/user/sleontsi/tth/LegacyRun2_2017_AH_v3/WJetsToQQ_HT400to600_qc19_3j_TuneCP5_13TeV-madgraphMLM-pythia8/LegacyRun2_2017_AH_v3/191028_150944/0000/tree_163.root = 21702
root://t3dcachedb.psi.ch//pnfs/psi.ch/cms/trivcat/store/user/sleontsi/tth/LegacyRun2_2017_AH_v3/WJetsToQQ_HT400to600_qc19_3j_TuneCP5_13TeV-madgraphMLM-pythia8/LegacyRun2_2017_AH_v3/191028_150944/0000/tree_186.root = 21641
root://t3dcachedb.psi.ch//pnfs/psi.ch/cms/trivcat/store/user/sleontsi/tth/LegacyRun2_2017_AH_v3/WJetsToQQ_HT400to600_qc19_3j_TuneCP5_13TeV-madgraphMLM-pythia8/LegacyRun2_2017_AH_v3/191028_150944/0000/tree_253.root = 21438
root://t3dcachedb.psi.ch//pnfs/psi.ch/cms/trivcat/store/user/sleontsi/tth/LegacyRun2_2017_AH_v3/WJetsToQQ_HT400to600_qc19_3j_TuneCP5_13TeV-madgraphMLM-pythia8/LegacyRun2_2017_AH_v3/191028_150944/0000/tree_182.root = 21727
root://t3dcachedb.psi.ch//pnfs/psi.ch/cms/trivcat/store/user/sleontsi/tth/LegacyRun2_2017_AH_v3/WJetsToQQ_HT400to600_qc19_3j_TuneCP5_13TeV-madgraphMLM-pythia8/LegacyRun2_2017_AH_v3/191028_150944/0000/tree_167.root = 21797
root://t3dcachedb.psi.ch//pnfs/psi.ch/cms/trivcat/store/user/sleontsi/tth/LegacyRun2_2017_AH_v3/WJetsToQQ_HT400to600_qc19_3j_TuneCP5_13TeV-madgraphMLM-pythia8/LegacyRun2_2017_AH_v3/191028_150944/0000/tree_265.root = 21608
root://t3dcachedb.psi.ch//pnfs/psi.ch/cms/trivcat/store/user/sleontsi/tth/LegacyRun2_2017_AH_v3/WJetsToQQ_HT400to600_qc19_3j_TuneCP5_13TeV-madgraphMLM-pythia8/LegacyRun2_2017_AH_v3/191028_150944/0000/tree_251.root = 21390
root://t3dcachedb.psi.ch//pnfs/psi.ch/cms/trivcat/store/user/sleontsi/tth/LegacyRun2_2017_AH_v3/WJetsToQQ_HT400to600_qc19_3j_TuneCP5_13TeV-madgraphMLM-pythia8/LegacyRun2_2017_AH_v3/191028_150944/0000/tree_263.root = 21897
root://t3dcachedb.psi.ch//pnfs/psi.ch/cms/trivcat/store/user/sleontsi/tth/LegacyRun2_2017_AH_v3/WJetsToQQ_HT400to600_qc19_3j_TuneCP5_13TeV-madgraphMLM-pythia8/LegacyRun2_2017_AH_v3/191028_150944/0000/tree_256.root = 21745
root://t3dcachedb.psi.ch//pnfs/psi.ch/cms/trivcat/store/user/sleontsi/tth/LegacyRun2_2017_AH_v3/WJetsToQQ_HT400to600_qc19_3j_TuneCP5_13TeV-madgraphMLM-pythia8/LegacyRun2_2017_AH_v3/191028_150944/0000/tree_242.root = 21820
root://t3dcachedb.psi.ch//pnfs/psi.ch/cms/trivcat/store/user/sleontsi/tth/LegacyRun2_2017_AH_v3/WJetsToQQ_HT400to600_qc19_3j_TuneCP5_13TeV-madgraphMLM-pythia8/LegacyRun2_2017_AH_v3/191028_150944/0000/tree_82.root = 21786
root://t3dcachedb.psi.ch//pnfs/psi.ch/cms/trivcat/store/user/sleontsi/tth/LegacyRun2_2017_AH_v3/WJetsToQQ_HT400to600_qc19_3j_TuneCP5_13TeV-madgraphMLM-pythia8/LegacyRun2_2017_AH_v3/191028_150944/0000/tree_204.root = 21694
root://t3dcachedb.psi.ch//pnfs/psi.ch/cms/trivcat/store/user/sleontsi/tth/LegacyRun2_2017_AH_v3/WJetsToQQ_HT400to600_qc19_3j_TuneCP5_13TeV-madgraphMLM-pythia8/LegacyRun2_2017_AH_v3/191028_150944/0000/tree_174.root = 21712
root://t3dcachedb.psi.ch//pnfs/psi.ch/cms/trivcat/store/user/sleontsi/tth/LegacyRun2_2017_AH_v3/WJetsToQQ_HT400to600_qc19_3j_TuneCP5_13TeV-madgraphMLM-pythia8/LegacyRun2_2017_AH_v3/191028_150944/0000/tree_261.root = 21921
root://t3dcachedb.psi.ch//pnfs/psi.ch/cms/trivcat/store/user/sleontsi/tth/LegacyRun2_2017_AH_v3/WJetsToQQ_HT400to600_qc19_3j_TuneCP5_13TeV-madgraphMLM-pythia8/LegacyRun2_2017_AH_v3/191028_150944/0000/tree_119.root = 21827
root://t3dcachedb.psi.ch//pnfs/psi.ch/cms/trivcat/store/user/sleontsi/tth/LegacyRun2_2017_AH_v3/WJetsToQQ_HT400to600_qc19_3j_TuneCP5_13TeV-madgraphMLM-pythia8/LegacyRun2_2017_AH_v3/191028_150944/0000/tree_202.root = 21654
root://t3dcachedb.psi.ch//pnfs/psi.ch/cms/trivcat/store/user/sleontsi/tth/LegacyRun2_2017_AH_v3/WJetsToQQ_HT400to600_qc19_3j_TuneCP5_13TeV-madgraphMLM-pythia8/LegacyRun2_2017_AH_v3/191028_150944/0000/tree_188.root = 21698
root://t3dcachedb.psi.ch//pnfs/psi.ch/cms/trivcat/store/user/sleontsi/tth/LegacyRun2_2017_AH_v3/WJetsToQQ_HT400to600_qc19_3j_TuneCP5_13TeV-madgraphMLM-pythia8/LegacyRun2_2017_AH_v3/191028_150944/0000/tree_252.root = 21566
root://t3dcachedb.psi.ch//pnfs/psi.ch/cms/trivcat/store/user/sleontsi/tth/LegacyRun2_2017_AH_v3/WJetsToQQ_HT400to600_qc19_3j_TuneCP5_13TeV-madgraphMLM-pythia8/LegacyRun2_2017_AH_v3/191028_150944/0000/tree_323.root = 21757
root://t3dcachedb.psi.ch//pnfs/psi.ch/cms/trivcat/store/user/sleontsi/tth/LegacyRun2_2017_AH_v3/WJetsToQQ_HT400to600_qc19_3j_TuneCP5_13TeV-madgraphMLM-pythia8/LegacyRun2_2017_AH_v3/191028_150944/0000/tree_338.root = 21563
root://t3dcachedb.psi.ch//pnfs/psi.ch/cms/trivcat/store/user/sleontsi/tth/LegacyRun2_2017_AH_v3/WJetsToQQ_HT400to600_qc19_3j_TuneCP5_13TeV-madgraphMLM-pythia8/LegacyRun2_2017_AH_v3/191028_150944/0000/tree_244.root = 21743
root://t3dcachedb.psi.ch//pnfs/psi.ch/cms/trivcat/store/user/sleontsi/tth/LegacyRun2_2017_AH_v3/WJetsToQQ_HT400to600_qc19_3j_TuneCP5_13TeV-madgraphMLM-pythia8/LegacyRun2_2017_AH_v3/191028_150944/0000/tree_184.root = 21645
root://t3dcachedb.psi.ch//pnfs/psi.ch/cms/trivcat/store/user/sleontsi/tth/LegacyRun2_2017_AH_v3/WJetsToQQ_HT400to600_qc19_3j_TuneCP5_13TeV-madgraphMLM-pythia8/LegacyRun2_2017_AH_v3/191028_150944/0000/tree_257.root = 21518
root://t3dcachedb.psi.ch//pnfs/psi.ch/cms/trivcat/store/user/sleontsi/tth/LegacyRun2_2017_AH_v3/WJetsToQQ_HT400to600_qc19_3j_TuneCP5_13TeV-madgraphMLM-pythia8/LegacyRun2_2017_AH_v3/191028_150944/0000/tree_139.root = 21475
root://t3dcachedb.psi.ch//pnfs/psi.ch/cms/trivcat/store/user/sleontsi/tth/LegacyRun2_2017_AH_v3/WJetsToQQ_HT400to600_qc19_3j_TuneCP5_13TeV-madgraphMLM-pythia8/LegacyRun2_2017_AH_v3/191028_150944/0000/tree_269.root = 21689
root://t3dcachedb.psi.ch//pnfs/psi.ch/cms/trivcat/store/user/sleontsi/tth/LegacyRun2_2017_AH_v3/WJetsToQQ_HT400to600_qc19_3j_TuneCP5_13TeV-madgraphMLM-pythia8/LegacyRun2_2017_AH_v3/191028_150944/0000/tree_320.root = 21869
root://t3dcachedb.psi.ch//pnfs/psi.ch/cms/trivcat/store/user/sleontsi/tth/LegacyRun2_2017_AH_v3/WJetsToQQ_HT400to600_qc19_3j_TuneCP5_13TeV-madgraphMLM-pythia8/LegacyRun2_2017_AH_v3/191028_150944/0000/tree_247.root = 21680
root://t3dcachedb.psi.ch//pnfs/psi.ch/cms/trivcat/store/user/sleontsi/tth/LegacyRun2_2017_AH_v3/WJetsToQQ_HT400to600_qc19_3j_TuneCP5_13TeV-madgraphMLM-pythia8/LegacyRun2_2017_AH_v3/191028_150944/0000/tree_330.root = 21814
root://t3dcachedb.psi.ch//pnfs/psi.ch/cms/trivcat/store/user/sleontsi/tth/LegacyRun2_2017_AH_v3/WJetsToQQ_HT400to600_qc19_3j_TuneCP5_13TeV-madgraphMLM-pythia8/LegacyRun2_2017_AH_v3/191028_150944/0000/tree_331.root = 21625
root://t3dcachedb.psi.ch//pnfs/psi.ch/cms/trivcat/store/user/sleontsi/tth/LegacyRun2_2017_AH_v3/WJetsToQQ_HT400to600_qc19_3j_TuneCP5_13TeV-madgraphMLM-pythia8/LegacyRun2_2017_AH_v3/191028_150944/0000/tree_164.root = 21769
root://t3dcachedb.psi.ch//pnfs/psi.ch/cms/trivcat/store/user/sleontsi/tth/LegacyRun2_2017_AH_v3/WJetsToQQ_HT400to600_qc19_3j_TuneCP5_13TeV-madgraphMLM-pythia8/LegacyRun2_2017_AH_v3/191028_150944/0000/tree_259.root = 21680
root://t3dcachedb.psi.ch//pnfs/psi.ch/cms/trivcat/store/user/sleontsi/tth/LegacyRun2_2017_AH_v3/WJetsToQQ_HT400to600_qc19_3j_TuneCP5_13TeV-madgraphMLM-pythia8/LegacyRun2_2017_AH_v3/191028_150944/0000/tree_248.root = 21658
root://t3dcachedb.psi.ch//pnfs/psi.ch/cms/trivcat/store/user/sleontsi/tth/LegacyRun2_2017_AH_v3/WJetsToQQ_HT400to600_qc19_3j_TuneCP5_13TeV-madgraphMLM-pythia8/LegacyRun2_2017_AH_v3/191028_150944/0000/tree_117.root = 21558
root://t3dcachedb.psi.ch//pnfs/psi.ch/cms/trivcat/store/user/sleontsi/tth/LegacyRun2_2017_AH_v3/WJetsToQQ_HT400to600_qc19_3j_TuneCP5_13TeV-madgraphMLM-pythia8/LegacyRun2_2017_AH_v3/191028_150944/0000/tree_137.root = 21722
root://t3dcachedb.psi.ch//pnfs/psi.ch/cms/trivcat/store/user/sleontsi/tth/LegacyRun2_2017_AH_v3/WJetsToQQ_HT400to600_qc19_3j_TuneCP5_13TeV-madgraphMLM-pythia8/LegacyRun2_2017_AH_v3/191028_150944/0000/tree_115.root = 21846
root://t3dcachedb.psi.ch//pnfs/psi.ch/cms/trivcat/store/user/sleontsi/tth/LegacyRun2_2017_AH_v3/WJetsToQQ_HT400to600_qc19_3j_TuneCP5_13TeV-madgraphMLM-pythia8/LegacyRun2_2017_AH_v3/191028_150944/0000/tree_329.root = 21673
root://t3dcachedb.psi.ch//pnfs/psi.ch/cms/trivcat/store/user/sleontsi/tth/LegacyRun2_2017_AH_v3/WJetsToQQ_HT400to600_qc19_3j_TuneCP5_13TeV-madgraphMLM-pythia8/LegacyRun2_2017_AH_v3/191028_150944/0000/tree_291.root = 21659
root://t3dcachedb.psi.ch//pnfs/psi.ch/cms/trivcat/store/user/sleontsi/tth/LegacyRun2_2017_AH_v3/WJetsToQQ_HT400to600_qc19_3j_TuneCP5_13TeV-madgraphMLM-pythia8/LegacyRun2_2017_AH_v3/191028_150944/0000/tree_290.root = 21850
root://t3dcachedb.psi.ch//pnfs/psi.ch/cms/trivcat/store/user/sleontsi/tth/LegacyRun2_2017_AH_v3/WJetsToQQ_HT400to600_qc19_3j_TuneCP5_13TeV-madgraphMLM-pythia8/LegacyRun2_2017_AH_v3/191028_150944/0000/tree_46.root = 21926
root://t3dcachedb.psi.ch//pnfs/psi.ch/cms/trivcat/store/user/sleontsi/tth/LegacyRun2_2017_AH_v3/WJetsToQQ_HT400to600_qc19_3j_TuneCP5_13TeV-madgraphMLM-pythia8/LegacyRun2_2017_AH_v3/191028_150944/0000/tree_374.root = 21695
root://t3dcachedb.psi.ch//pnfs/psi.ch/cms/trivcat/store/user/sleontsi/tth/LegacyRun2_2017_AH_v3/WJetsToQQ_HT400to600_qc19_3j_TuneCP5_13TeV-madgraphMLM-pythia8/LegacyRun2_2017_AH_v3/191028_150944/0000/tree_322.root = 21739
root://t3dcachedb.psi.ch//pnfs/psi.ch/cms/trivcat/store/user/sleontsi/tth/LegacyRun2_2017_AH_v3/WJetsToQQ_HT400to600_qc19_3j_TuneCP5_13TeV-madgraphMLM-pythia8/LegacyRun2_2017_AH_v3/191028_150944/0000/tree_334.root = 21816
root://t3dcachedb.psi.ch//pnfs/psi.ch/cms/trivcat/store/user/sleontsi/tth/LegacyRun2_2017_AH_v3/WJetsToQQ_HT400to600_qc19_3j_TuneCP5_13TeV-madgraphMLM-pythia8/LegacyRun2_2017_AH_v3/191028_150944/0000/tree_333.root = 21574
root://t3dcachedb.psi.ch//pnfs/psi.ch/cms/trivcat/store/user/sleontsi/tth/LegacyRun2_2017_AH_v3/WJetsToQQ_HT400to600_qc19_3j_TuneCP5_13TeV-madgraphMLM-pythia8/LegacyRun2_2017_AH_v3/191028_150944/0000/tree_165.root = 21839
root://t3dcachedb.psi.ch//pnfs/psi.ch/cms/trivcat/store/user/sleontsi/tth/LegacyRun2_2017_AH_v3/WJetsToQQ_HT400to600_qc19_3j_TuneCP5_13TeV-madgraphMLM-pythia8/LegacyRun2_2017_AH_v3/191028_150944/0000/tree_340.root = 21632
root://t3dcachedb.psi.ch//pnfs/psi.ch/cms/trivcat/store/user/sleontsi/tth/LegacyRun2_2017_AH_v3/WJetsToQQ_HT400to600_qc19_3j_TuneCP5_13TeV-madgraphMLM-pythia8/LegacyRun2_2017_AH_v3/191028_150944/0000/tree_386.root = 21500
root://t3dcachedb.psi.ch//pnfs/psi.ch/cms/trivcat/store/user/sleontsi/tth/LegacyRun2_2017_AH_v3/WJetsToQQ_HT400to600_qc19_3j_TuneCP5_13TeV-madgraphMLM-pythia8/LegacyRun2_2017_AH_v3/191028_150944/0000/tree_299.root = 21596
root://t3dcachedb.psi.ch//pnfs/psi.ch/cms/trivcat/store/user/sleontsi/tth/LegacyRun2_2017_AH_v3/WJetsToQQ_HT400to600_qc19_3j_TuneCP5_13TeV-madgraphMLM-pythia8/LegacyRun2_2017_AH_v3/191028_150944/0000/tree_138.root = 21490
root://t3dcachedb.psi.ch//pnfs/psi.ch/cms/trivcat/store/user/sleontsi/tth/LegacyRun2_2017_AH_v3/WJetsToQQ_HT400to600_qc19_3j_TuneCP5_13TeV-madgraphMLM-pythia8/LegacyRun2_2017_AH_v3/191028_150944/0000/tree_392.root = 21504
root://t3dcachedb.psi.ch//pnfs/psi.ch/cms/trivcat/store/user/sleontsi/tth/LegacyRun2_2017_AH_v3/WJetsToQQ_HT400to600_qc19_3j_TuneCP5_13TeV-madgraphMLM-pythia8/LegacyRun2_2017_AH_v3/191028_150944/0000/tree_393.root = 21756
root://t3dcachedb.psi.ch//pnfs/psi.ch/cms/trivcat/store/user/sleontsi/tth/LegacyRun2_2017_AH_v3/WJetsToQQ_HT400to600_qc19_3j_TuneCP5_13TeV-madgraphMLM-pythia8/LegacyRun2_2017_AH_v3/191028_150944/0000/tree_327.root = 21785
root://t3dcachedb.psi.ch//pnfs/psi.ch/cms/trivcat/store/user/sleontsi/tth/LegacyRun2_2017_AH_v3/WJetsToQQ_HT400to600_qc19_3j_TuneCP5_13TeV-madgraphMLM-pythia8/LegacyRun2_2017_AH_v3/191028_150944/0000/tree_395.root = 21764
root://t3dcachedb.psi.ch//pnfs/psi.ch/cms/trivcat/store/user/sleontsi/tth/LegacyRun2_2017_AH_v3/WJetsToQQ_HT400to600_qc19_3j_TuneCP5_13TeV-madgraphMLM-pythia8/LegacyRun2_2017_AH_v3/191028_150944/0000/tree_325.root = 22044
root://t3dcachedb.psi.ch//pnfs/psi.ch/cms/trivcat/store/user/sleontsi/tth/LegacyRun2_2017_AH_v3/WJetsToQQ_HT400to600_qc19_3j_TuneCP5_13TeV-madgraphMLM-pythia8/LegacyRun2_2017_AH_v3/191028_150944/0000/tree_397.root = 21778
root://t3dcachedb.psi.ch//pnfs/psi.ch/cms/trivcat/store/user/sleontsi/tth/LegacyRun2_2017_AH_v3/WJetsToQQ_HT400to600_qc19_3j_TuneCP5_13TeV-madgraphMLM-pythia8/LegacyRun2_2017_AH_v3/191028_150944/0000/tree_92.root = 21785
root://t3dcachedb.psi.ch//pnfs/psi.ch/cms/trivcat/store/user/sleontsi/tth/LegacyRun2_2017_AH_v3/WJetsToQQ_HT400to600_qc19_3j_TuneCP5_13TeV-madgraphMLM-pythia8/LegacyRun2_2017_AH_v3/191028_150944/0000/tree_337.root = 21946
root://t3dcachedb.psi.ch//pnfs/psi.ch/cms/trivcat/store/user/sleontsi/tth/LegacyRun2_2017_AH_v3/WJetsToQQ_HT400to600_qc19_3j_TuneCP5_13TeV-madgraphMLM-pythia8/LegacyRun2_2017_AH_v3/191028_150944/0000/tree_343.root = 22007
root://t3dcachedb.psi.ch//pnfs/psi.ch/cms/trivcat/store/user/sleontsi/tth/LegacyRun2_2017_AH_v3/WJetsToQQ_HT400to600_qc19_3j_TuneCP5_13TeV-madgraphMLM-pythia8/LegacyRun2_2017_AH_v3/191028_150944/0000/tree_324.root = 21764
root://t3dcachedb.psi.ch//pnfs/psi.ch/cms/trivcat/store/user/sleontsi/tth/LegacyRun2_2017_AH_v3/WJetsToQQ_HT400to600_qc19_3j_TuneCP5_13TeV-madgraphMLM-pythia8/LegacyRun2_2017_AH_v3/191028_150944/0000/tree_335.root = 21897
root://t3dcachedb.psi.ch//pnfs/psi.ch/cms/trivcat/store/user/sleontsi/tth/LegacyRun2_2017_AH_v3/WJetsToQQ_HT400to600_qc19_3j_TuneCP5_13TeV-madgraphMLM-pythia8/LegacyRun2_2017_AH_v3/191028_150944/0000/tree_411.root = 21802
root://t3dcachedb.psi.ch//pnfs/psi.ch/cms/trivcat/store/user/sleontsi/tth/LegacyRun2_2017_AH_v3/WJetsToQQ_HT400to600_qc19_3j_TuneCP5_13TeV-madgraphMLM-pythia8/LegacyRun2_2017_AH_v3/191028_150944/0000/tree_203.root = 21844
root://t3dcachedb.psi.ch//pnfs/psi.ch/cms/trivcat/store/user/sleontsi/tth/LegacyRun2_2017_AH_v3/WJetsToQQ_HT400to600_qc19_3j_TuneCP5_13TeV-madgraphMLM-pythia8/LegacyRun2_2017_AH_v3/191028_150944/0000/tree_408.root = 21863
root://t3dcachedb.psi.ch//pnfs/psi.ch/cms/trivcat/store/user/sleontsi/tth/LegacyRun2_2017_AH_v3/WJetsToQQ_HT400to600_qc19_3j_TuneCP5_13TeV-madgraphMLM-pythia8/LegacyRun2_2017_AH_v3/191028_150944/0000/tree_415.root = 21567
root://t3dcachedb.psi.ch//pnfs/psi.ch/cms/trivcat/store/user/sleontsi/tth/LegacyRun2_2017_AH_v3/WJetsToQQ_HT400to600_qc19_3j_TuneCP5_13TeV-madgraphMLM-pythia8/LegacyRun2_2017_AH_v3/191028_150944/0000/tree_342.root = 21337
root://t3dcachedb.psi.ch//pnfs/psi.ch/cms/trivcat/store/user/sleontsi/tth/LegacyRun2_2017_AH_v3/WJetsToQQ_HT400to600_qc19_3j_TuneCP5_13TeV-madgraphMLM-pythia8/LegacyRun2_2017_AH_v3/191028_150944/0000/tree_390.root = 21650
root://t3dcachedb.psi.ch//pnfs/psi.ch/cms/trivcat/store/user/sleontsi/tth/LegacyRun2_2017_AH_v3/WJetsToQQ_HT400to600_qc19_3j_TuneCP5_13TeV-madgraphMLM-pythia8/LegacyRun2_2017_AH_v3/191028_150944/0000/tree_339.root = 21623
root://t3dcachedb.psi.ch//pnfs/psi.ch/cms/trivcat/store/user/sleontsi/tth/LegacyRun2_2017_AH_v3/WJetsToQQ_HT400to600_qc19_3j_TuneCP5_13TeV-madgraphMLM-pythia8/LegacyRun2_2017_AH_v3/191028_150944/0000/tree_298.root = 21639
root://t3dcachedb.psi.ch//pnfs/psi.ch/cms/trivcat/store/user/sleontsi/tth/LegacyRun2_2017_AH_v3/WJetsToQQ_HT400to600_qc19_3j_TuneCP5_13TeV-madgraphMLM-pythia8/LegacyRun2_2017_AH_v3/191028_150944/0000/tree_258.root = 21857
root://t3dcachedb.psi.ch//pnfs/psi.ch/cms/trivcat/store/user/sleontsi/tth/LegacyRun2_2017_AH_v3/WJetsToQQ_HT400to600_qc19_3j_TuneCP5_13TeV-madgraphMLM-pythia8/LegacyRun2_2017_AH_v3/191028_150944/0000/tree_116.root = 21465
root://t3dcachedb.psi.ch//pnfs/psi.ch/cms/trivcat/store/user/sleontsi/tth/LegacyRun2_2017_AH_v3/WJetsToQQ_HT400to600_qc19_3j_TuneCP5_13TeV-madgraphMLM-pythia8/LegacyRun2_2017_AH_v3/191028_150944/0000/tree_401.root = 21569
root://t3dcachedb.psi.ch//pnfs/psi.ch/cms/trivcat/store/user/sleontsi/tth/LegacyRun2_2017_AH_v3/WJetsToQQ_HT400to600_qc19_3j_TuneCP5_13TeV-madgraphMLM-pythia8/LegacyRun2_2017_AH_v3/191028_150944/0000/tree_407.root = 21732
root://t3dcachedb.psi.ch//pnfs/psi.ch/cms/trivcat/store/user/sleontsi/tth/LegacyRun2_2017_AH_v3/WJetsToQQ_HT400to600_qc19_3j_TuneCP5_13TeV-madgraphMLM-pythia8/LegacyRun2_2017_AH_v3/191028_150944/0000/tree_376.root = 21825
root://t3dcachedb.psi.ch//pnfs/psi.ch/cms/trivcat/store/user/sleontsi/tth/LegacyRun2_2017_AH_v3/WJetsToQQ_HT400to600_qc19_3j_TuneCP5_13TeV-madgraphMLM-pythia8/LegacyRun2_2017_AH_v3/191028_150944/0000/tree_344.root = 21818
root://t3dcachedb.psi.ch//pnfs/psi.ch/cms/trivcat/store/user/sleontsi/tth/LegacyRun2_2017_AH_v3/WJetsToQQ_HT400to600_qc19_3j_TuneCP5_13TeV-madgraphMLM-pythia8/LegacyRun2_2017_AH_v3/191028_150944/0000/tree_341.root = 21849
root://t3dcachedb.psi.ch//pnfs/psi.ch/cms/trivcat/store/user/sleontsi/tth/LegacyRun2_2017_AH_v3/WJetsToQQ_HT400to600_qc19_3j_TuneCP5_13TeV-madgraphMLM-pythia8/LegacyRun2_2017_AH_v3/191028_150944/0000/tree_332.root = 21961
root://t3dcachedb.psi.ch//pnfs/psi.ch/cms/trivcat/store/user/sleontsi/tth/LegacyRun2_2017_AH_v3/WJetsToQQ_HT400to600_qc19_3j_TuneCP5_13TeV-madgraphMLM-pythia8/LegacyRun2_2017_AH_v3/191028_150944/0000/tree_336.root = 21849
root://t3dcachedb.psi.ch//pnfs/psi.ch/cms/trivcat/store/user/sleontsi/tth/LegacyRun2_2017_AH_v3/WJetsToQQ_HT400to600_qc19_3j_TuneCP5_13TeV-madgraphMLM-pythia8/LegacyRun2_2017_AH_v3/191028_150944/0000/tree_296.root = 21785
root://t3dcachedb.psi.ch//pnfs/psi.ch/cms/trivcat/store/user/sleontsi/tth/LegacyRun2_2017_AH_v3/WJetsToQQ_HT400to600_qc19_3j_TuneCP5_13TeV-madgraphMLM-pythia8/LegacyRun2_2017_AH_v3/191028_150944/0000/tree_378.root = 21670
root://t3dcachedb.psi.ch//pnfs/psi.ch/cms/trivcat/store/user/sleontsi/tth/LegacyRun2_2017_AH_v3/WJetsToQQ_HT400to600_qc19_3j_TuneCP5_13TeV-madgraphMLM-pythia8/LegacyRun2_2017_AH_v3/191028_150944/0000/tree_99.root = 21788
root://t3dcachedb.psi.ch//pnfs/psi.ch/cms/trivcat/store/user/sleontsi/tth/LegacyRun2_2017_AH_v3/WJetsToQQ_HT400to600_qc19_3j_TuneCP5_13TeV-madgraphMLM-pythia8/LegacyRun2_2017_AH_v3/191028_150944/0000/tree_346.root = 21796
root://t3dcachedb.psi.ch//pnfs/psi.ch/cms/trivcat/store/user/sleontsi/tth/LegacyRun2_2017_AH_v3/WJetsToQQ_HT400to600_qc19_3j_TuneCP5_13TeV-madgraphMLM-pythia8/LegacyRun2_2017_AH_v3/191028_150944/0000/tree_349.root = 21666
root://t3dcachedb.psi.ch//pnfs/psi.ch/cms/trivcat/store/user/sleontsi/tth/LegacyRun2_2017_AH_v3/WJetsToQQ_HT400to600_qc19_3j_TuneCP5_13TeV-madgraphMLM-pythia8/LegacyRun2_2017_AH_v3/191028_150944/0000/tree_345.root = 21552
root://t3dcachedb.psi.ch//pnfs/psi.ch/cms/trivcat/store/user/sleontsi/tth/LegacyRun2_2017_AH_v3/WJetsToQQ_HT400to600_qc19_3j_TuneCP5_13TeV-madgraphMLM-pythia8/LegacyRun2_2017_AH_v3/191028_150944/0000/tree_347.root = 21611
root://t3dcachedb.psi.ch//pnfs/psi.ch/cms/trivcat/store/user/sleontsi/tth/LegacyRun2_2017_AH_v3/WJetsToQQ_HT400to600_qc19_3j_TuneCP5_13TeV-madgraphMLM-pythia8/LegacyRun2_2017_AH_v3/191028_150944/0000/tree_348.root = 21803
root://t3dcachedb.psi.ch//pnfs/psi.ch/cms/trivcat/store/user/sleontsi/tth/LegacyRun2_2017_AH_v3/WJetsToQQ_HT400to600_qc19_3j_TuneCP5_13TeV-madgraphMLM-pythia8/LegacyRun2_2017_AH_v3/191028_150944/0000/tree_372.root = 21749
root://t3dcachedb.psi.ch//pnfs/psi.ch/cms/trivcat/store/user/sleontsi/tth/LegacyRun2_2017_AH_v3/WJetsToQQ_HT400to600_qc19_3j_TuneCP5_13TeV-madgraphMLM-pythia8/LegacyRun2_2017_AH_v3/191028_150944/0000/tree_189.root = 21681
root://t3dcachedb.psi.ch//pnfs/psi.ch/cms/trivcat/store/user/sleontsi/tth/LegacyRun2_2017_AH_v3/WJetsToQQ_HT400to600_qc19_3j_TuneCP5_13TeV-madgraphMLM-pythia8/LegacyRun2_2017_AH_v3/191028_150944/0000/tree_379.root = 21917
root://t3dcachedb.psi.ch//pnfs/psi.ch/cms/trivcat/store/user/sleontsi/tth/LegacyRun2_2017_AH_v3/WJetsToQQ_HT400to600_qc19_3j_TuneCP5_13TeV-madgraphMLM-pythia8/LegacyRun2_2017_AH_v3/191028_150944/0000/tree_292.root = 21952
root://t3dcachedb.psi.ch//pnfs/psi.ch/cms/trivcat/store/user/sleontsi/tth/LegacyRun2_2017_AH_v3/WJetsToQQ_HT400to600_qc19_3j_TuneCP5_13TeV-madgraphMLM-pythia8/LegacyRun2_2017_AH_v3/191028_150944/0000/tree_380.root = 21606
root://t3dcachedb.psi.ch//pnfs/psi.ch/cms/trivcat/store/user/sleontsi/tth/LegacyRun2_2017_AH_v3/WJetsToQQ_HT400to600_qc19_3j_TuneCP5_13TeV-madgraphMLM-pythia8/LegacyRun2_2017_AH_v3/191028_150944/0000/tree_394.root = 21658
root://t3dcachedb.psi.ch//pnfs/psi.ch/cms/trivcat/store/user/sleontsi/tth/LegacyRun2_2017_AH_v3/WJetsToQQ_HT400to600_qc19_3j_TuneCP5_13TeV-madgraphMLM-pythia8/LegacyRun2_2017_AH_v3/191028_150944/0000/tree_385.root = 21547
root://t3dcachedb.psi.ch//pnfs/psi.ch/cms/trivcat/store/user/sleontsi/tth/LegacyRun2_2017_AH_v3/WJetsToQQ_HT400to600_qc19_3j_TuneCP5_13TeV-madgraphMLM-pythia8/LegacyRun2_2017_AH_v3/191028_150944/0000/tree_383.root = 21588
root://t3dcachedb.psi.ch//pnfs/psi.ch/cms/trivcat/store/user/sleontsi/tth/LegacyRun2_2017_AH_v3/WJetsToQQ_HT400to600_qc19_3j_TuneCP5_13TeV-madgraphMLM-pythia8/LegacyRun2_2017_AH_v3/191028_150944/0000/tree_328.root = 21675
root://t3dcachedb.psi.ch//pnfs/psi.ch/cms/trivcat/store/user/sleontsi/tth/LegacyRun2_2017_AH_v3/WJetsToQQ_HT400to600_qc19_3j_TuneCP5_13TeV-madgraphMLM-pythia8/LegacyRun2_2017_AH_v3/191028_150944/0000/tree_381.root = 21674
root://t3dcachedb.psi.ch//pnfs/psi.ch/cms/trivcat/store/user/sleontsi/tth/LegacyRun2_2017_AH_v3/WJetsToQQ_HT400to600_qc19_3j_TuneCP5_13TeV-madgraphMLM-pythia8/LegacyRun2_2017_AH_v3/191028_150944/0000/tree_416.root = 21932
root://t3dcachedb.psi.ch//pnfs/psi.ch/cms/trivcat/store/user/sleontsi/tth/LegacyRun2_2017_AH_v3/WJetsToQQ_HT400to600_qc19_3j_TuneCP5_13TeV-madgraphMLM-pythia8/LegacyRun2_2017_AH_v3/191028_150944/0000/tree_370.root = 21637
root://t3dcachedb.psi.ch//pnfs/psi.ch/cms/trivcat/store/user/sleontsi/tth/LegacyRun2_2017_AH_v3/WJetsToQQ_HT400to600_qc19_3j_TuneCP5_13TeV-madgraphMLM-pythia8/LegacyRun2_2017_AH_v3/191028_150944/0000/tree_396.root = 21604
root://t3dcachedb.psi.ch//pnfs/psi.ch/cms/trivcat/store/user/sleontsi/tth/LegacyRun2_2017_AH_v3/WJetsToQQ_HT400to600_qc19_3j_TuneCP5_13TeV-madgraphMLM-pythia8/LegacyRun2_2017_AH_v3/191028_150944/0000/tree_420.root = 21668
root://t3dcachedb.psi.ch//pnfs/psi.ch/cms/trivcat/store/user/sleontsi/tth/LegacyRun2_2017_AH_v3/WJetsToQQ_HT400to600_qc19_3j_TuneCP5_13TeV-madgraphMLM-pythia8/LegacyRun2_2017_AH_v3/191028_150944/0000/tree_389.root = 21901
root://t3dcachedb.psi.ch//pnfs/psi.ch/cms/trivcat/store/user/sleontsi/tth/LegacyRun2_2017_AH_v3/WJetsToQQ_HT400to600_qc19_3j_TuneCP5_13TeV-madgraphMLM-pythia8/LegacyRun2_2017_AH_v3/191028_150944/0000/tree_391.root = 21662
root://t3dcachedb.psi.ch//pnfs/psi.ch/cms/trivcat/store/user/sleontsi/tth/LegacyRun2_2017_AH_v3/WJetsToQQ_HT400to600_qc19_3j_TuneCP5_13TeV-madgraphMLM-pythia8/LegacyRun2_2017_AH_v3/191028_150944/0000/tree_419.root = 21823
root://t3dcachedb.psi.ch//pnfs/psi.ch/cms/trivcat/store/user/sleontsi/tth/LegacyRun2_2017_AH_v3/WJetsToQQ_HT400to600_qc19_3j_TuneCP5_13TeV-madgraphMLM-pythia8/LegacyRun2_2017_AH_v3/191028_150944/0000/tree_423.root = 21567
root://t3dcachedb.psi.ch//pnfs/psi.ch/cms/trivcat/store/user/sleontsi/tth/LegacyRun2_2017_AH_v3/WJetsToQQ_HT400to600_qc19_3j_TuneCP5_13TeV-madgraphMLM-pythia8/LegacyRun2_2017_AH_v3/191028_150944/0000/tree_414.root = 21714
root://t3dcachedb.psi.ch//pnfs/psi.ch/cms/trivcat/store/user/sleontsi/tth/LegacyRun2_2017_AH_v3/WJetsToQQ_HT400to600_qc19_3j_TuneCP5_13TeV-madgraphMLM-pythia8/LegacyRun2_2017_AH_v3/191028_150944/0000/tree_375.root = 21778
root://t3dcachedb.psi.ch//pnfs/psi.ch/cms/trivcat/store/user/sleontsi/tth/LegacyRun2_2017_AH_v3/WJetsToQQ_HT400to600_qc19_3j_TuneCP5_13TeV-madgraphMLM-pythia8/LegacyRun2_2017_AH_v3/191028_150944/0000/tree_417.root = 21618
root://t3dcachedb.psi.ch//pnfs/psi.ch/cms/trivcat/store/user/sleontsi/tth/LegacyRun2_2017_AH_v3/WJetsToQQ_HT400to600_qc19_3j_TuneCP5_13TeV-madgraphMLM-pythia8/LegacyRun2_2017_AH_v3/191028_150944/0000/tree_403.root = 21814
root://t3dcachedb.psi.ch//pnfs/psi.ch/cms/trivcat/store/user/sleontsi/tth/LegacyRun2_2017_AH_v3/WJetsToQQ_HT400to600_qc19_3j_TuneCP5_13TeV-madgraphMLM-pythia8/LegacyRun2_2017_AH_v3/191028_150944/0000/tree_382.root = 21554
root://t3dcachedb.psi.ch//pnfs/psi.ch/cms/trivcat/store/user/sleontsi/tth/LegacyRun2_2017_AH_v3/WJetsToQQ_HT400to600_qc19_3j_TuneCP5_13TeV-madgraphMLM-pythia8/LegacyRun2_2017_AH_v3/191028_150944/0000/tree_412.root = 21772
root://t3dcachedb.psi.ch//pnfs/psi.ch/cms/trivcat/store/user/sleontsi/tth/LegacyRun2_2017_AH_v3/WJetsToQQ_HT400to600_qc19_3j_TuneCP5_13TeV-madgraphMLM-pythia8/LegacyRun2_2017_AH_v3/191028_150944/0000/tree_421.root = 21800
root://t3dcachedb.psi.ch//pnfs/psi.ch/cms/trivcat/store/user/sleontsi/tth/LegacyRun2_2017_AH_v3/WJetsToQQ_HT400to600_qc19_3j_TuneCP5_13TeV-madgraphMLM-pythia8/LegacyRun2_2017_AH_v3/191028_150944/0000/tree_402.root = 21826
root://t3dcachedb.psi.ch//pnfs/psi.ch/cms/trivcat/store/user/sleontsi/tth/LegacyRun2_2017_AH_v3/WJetsToQQ_HT400to600_qc19_3j_TuneCP5_13TeV-madgraphMLM-pythia8/LegacyRun2_2017_AH_v3/191028_150944/0000/tree_295.root = 21763
root://t3dcachedb.psi.ch//pnfs/psi.ch/cms/trivcat/store/user/sleontsi/tth/LegacyRun2_2017_AH_v3/WJetsToQQ_HT400to600_qc19_3j_TuneCP5_13TeV-madgraphMLM-pythia8/LegacyRun2_2017_AH_v3/191028_150944/0000/tree_410.root = 21979
root://t3dcachedb.psi.ch//pnfs/psi.ch/cms/trivcat/store/user/sleontsi/tth/LegacyRun2_2017_AH_v3/WJetsToQQ_HT400to600_qc19_3j_TuneCP5_13TeV-madgraphMLM-pythia8/LegacyRun2_2017_AH_v3/191028_150944/0000/tree_404.root = 21699
root://t3dcachedb.psi.ch//pnfs/psi.ch/cms/trivcat/store/user/sleontsi/tth/LegacyRun2_2017_AH_v3/WJetsToQQ_HT400to600_qc19_3j_TuneCP5_13TeV-madgraphMLM-pythia8/LegacyRun2_2017_AH_v3/191028_150944/0000/tree_406.root = 21807
root://t3dcachedb.psi.ch//pnfs/psi.ch/cms/trivcat/store/user/sleontsi/tth/LegacyRun2_2017_AH_v3/WJetsToQQ_HT400to600_qc19_3j_TuneCP5_13TeV-madgraphMLM-pythia8/LegacyRun2_2017_AH_v3/191028_150944/0000/tree_424.root = 21674
root://t3dcachedb.psi.ch//pnfs/psi.ch/cms/trivcat/store/user/sleontsi/tth/LegacyRun2_2017_AH_v3/WJetsToQQ_HT400to600_qc19_3j_TuneCP5_13TeV-madgraphMLM-pythia8/LegacyRun2_2017_AH_v3/191028_150944/0000/tree_425.root = 21804
root://t3dcachedb.psi.ch//pnfs/psi.ch/cms/trivcat/store/user/sleontsi/tth/LegacyRun2_2017_AH_v3/WJetsToQQ_HT400to600_qc19_3j_TuneCP5_13TeV-madgraphMLM-pythia8/LegacyRun2_2017_AH_v3/191028_150944/0000/tree_450.root = 6411
root://t3dcachedb.psi.ch//pnfs/psi.ch/cms/trivcat/store/user/sleontsi/tth/LegacyRun2_2017_AH_v3/WJetsToQQ_HT400to600_qc19_3j_TuneCP5_13TeV-madgraphMLM-pythia8/LegacyRun2_2017_AH_v3/191028_150944/0000/tree_371.root = 21437
root://t3dcachedb.psi.ch//pnfs/psi.ch/cms/trivcat/store/user/sleontsi/tth/LegacyRun2_2017_AH_v3/WJetsToQQ_HT400to600_qc19_3j_TuneCP5_13TeV-madgraphMLM-pythia8/LegacyRun2_2017_AH_v3/191028_150944/0000/tree_413.root = 21730
root://t3dcachedb.psi.ch//pnfs/psi.ch/cms/trivcat/store/user/sleontsi/tth/LegacyRun2_2017_AH_v3/WJetsToQQ_HT400to600_qc19_3j_TuneCP5_13TeV-madgraphMLM-pythia8/LegacyRun2_2017_AH_v3/191028_150944/0000/tree_426.root = 21686
root://t3dcachedb.psi.ch//pnfs/psi.ch/cms/trivcat/store/user/sleontsi/tth/LegacyRun2_2017_AH_v3/WJetsToQQ_HT400to600_qc19_3j_TuneCP5_13TeV-madgraphMLM-pythia8/LegacyRun2_2017_AH_v3/191028_150944/0000/tree_409.root = 21582
root://t3dcachedb.psi.ch//pnfs/psi.ch/cms/trivcat/store/user/sleontsi/tth/LegacyRun2_2017_AH_v3/WJetsToQQ_HT400to600_qc19_3j_TuneCP5_13TeV-madgraphMLM-pythia8/LegacyRun2_2017_AH_v3/191028_150944/0000/tree_377.root = 21751
root://t3dcachedb.psi.ch//pnfs/psi.ch/cms/trivcat/store/user/sleontsi/tth/LegacyRun2_2017_AH_v3/WJetsToQQ_HT400to600_qc19_3j_TuneCP5_13TeV-madgraphMLM-pythia8/LegacyRun2_2017_AH_v3/191028_150944/0000/tree_405.root = 21571
root://t3dcachedb.psi.ch//pnfs/psi.ch/cms/trivcat/store/user/sleontsi/tth/LegacyRun2_2017_AH_v3/WJetsToQQ_HT400to600_qc19_3j_TuneCP5_13TeV-madgraphMLM-pythia8/LegacyRun2_2017_AH_v3/191028_150944/0000/tree_373.root = 21825
root://t3dcachedb.psi.ch//pnfs/psi.ch/cms/trivcat/store/user/sleontsi/tth/LegacyRun2_2017_AH_v3/WJetsToQQ_HT400to600_qc19_3j_TuneCP5_13TeV-madgraphMLM-pythia8/LegacyRun2_2017_AH_v3/191028_150944/0000/tree_428.root = 21816
root://t3dcachedb.psi.ch//pnfs/psi.ch/cms/trivcat/store/user/sleontsi/tth/LegacyRun2_2017_AH_v3/WJetsToQQ_HT400to600_qc19_3j_TuneCP5_13TeV-madgraphMLM-pythia8/LegacyRun2_2017_AH_v3/191028_150944/0000/tree_429.root = 21754
root://t3dcachedb.psi.ch//pnfs/psi.ch/cms/trivcat/store/user/sleontsi/tth/LegacyRun2_2017_AH_v3/WJetsToQQ_HT400to600_qc19_3j_TuneCP5_13TeV-madgraphMLM-pythia8/LegacyRun2_2017_AH_v3/191028_150944/0000/tree_384.root = 21695
root://t3dcachedb.psi.ch//pnfs/psi.ch/cms/trivcat/store/user/sleontsi/tth/LegacyRun2_2017_AH_v3/WJetsToQQ_HT400to600_qc19_3j_TuneCP5_13TeV-madgraphMLM-pythia8/LegacyRun2_2017_AH_v3/191028_150944/0000/tree_388.root = 21837
root://t3dcachedb.psi.ch//pnfs/psi.ch/cms/trivcat/store/user/sleontsi/tth/LegacyRun2_2017_AH_v3/WJetsToQQ_HT400to600_qc19_3j_TuneCP5_13TeV-madgraphMLM-pythia8/LegacyRun2_2017_AH_v3/191028_150944/0000/tree_422.root = 21887
root://t3dcachedb.psi.ch//pnfs/psi.ch/cms/trivcat/store/user/sleontsi/tth/LegacyRun2_2017_AH_v3/WJetsToQQ_HT400to600_qc19_3j_TuneCP5_13TeV-madgraphMLM-pythia8/LegacyRun2_2017_AH_v3/191028_150944/0000/tree_427.root = 21900
root://t3dcachedb.psi.ch//pnfs/psi.ch/cms/trivcat/store/user/sleontsi/tth/LegacyRun2_2017_AH_v3/WJetsToQQ_HT400to600_qc19_3j_TuneCP5_13TeV-madgraphMLM-pythia8/LegacyRun2_2017_AH_v3/191028_150944/0000/tree_89.root = 21887
root://t3dcachedb.psi.ch//pnfs/psi.ch/cms/trivcat/store/user/sleontsi/tth/LegacyRun2_2017_AH_v3/WJetsToQQ_HT400to600_qc19_3j_TuneCP5_13TeV-madgraphMLM-pythia8/LegacyRun2_2017_AH_v3/191028_150944/0000/tree_326.root = 21639
root://t3dcachedb.psi.ch//pnfs/psi.ch/cms/trivcat/store/user/sleontsi/tth/LegacyRun2_2017_AH_v3/WJetsToQQ_HT400to600_qc19_3j_TuneCP5_13TeV-madgraphMLM-pythia8/LegacyRun2_2017_AH_v3/191028_150944/0000/tree_387.root = 21561
root://t3dcachedb.psi.ch//pnfs/psi.ch/cms/trivcat/store/user/sleontsi/tth/LegacyRun2_2017_AH_v3/WJetsToQQ_HT400to600_qc19_3j_TuneCP5_13TeV-madgraphMLM-pythia8/LegacyRun2_2017_AH_v3/191028_150944/0000/tree_170.root = 21638
root://t3dcachedb.psi.ch//pnfs/psi.ch/cms/trivcat/store/user/sleontsi/tth/LegacyRun2_2017_AH_v3/WJetsToQQ_HT400to600_qc19_3j_TuneCP5_13TeV-madgraphMLM-pythia8/LegacyRun2_2017_AH_v3/191028_150944/0000/tree_245.root = 21605
root://t3dcachedb.psi.ch//pnfs/psi.ch/cms/trivcat/store/user/sleontsi/tth/LegacyRun2_2017_AH_v3/WJetsToQQ_HT400to600_qc19_3j_TuneCP5_13TeV-madgraphMLM-pythia8/LegacyRun2_2017_AH_v3/191028_150944/0000/tree_418.root = 21662
root://t3dcachedb.psi.ch//pnfs/psi.ch/cms/trivcat/store/user/sleontsi/tth/LegacyRun2_2017_AH_v3/WJetsToQQ_HT400to600_qc19_3j_TuneCP5_13TeV-madgraphMLM-pythia8/LegacyRun2_2017_AH_v3/191028_150944/0000/tree_321.root = 21770
root://t3dcachedb.psi.ch//pnfs/psi.ch/cms/trivcat/store/user/sleontsi/tth/LegacyRun2_2017_AH_v3/WJetsToQQ_HT400to600_qc19_3j_TuneCP5_13TeV-madgraphMLM-pythia8/LegacyRun2_2017_AH_v3/191028_150944/0000/tree_398.root = 21912
root://t3dcachedb.psi.ch//pnfs/psi.ch/cms/trivcat/store/user/sleontsi/tth/LegacyRun2_2017_AH_v3/WJetsToQQ_HT400to600_qc19_3j_TuneCP5_13TeV-madgraphMLM-pythia8/LegacyRun2_2017_AH_v3/191028_150944/0000/tree_51.root = 21793
root://t3dcachedb.psi.ch//pnfs/psi.ch/cms/trivcat/store/user/sleontsi/tth/LegacyRun2_2017_AH_v3/WJetsToQQ_HT400to600_qc19_3j_TuneCP5_13TeV-madgraphMLM-pythia8/LegacyRun2_2017_AH_v3/191028_150944/0000/tree_399.root = 21979
root://t3dcachedb.psi.ch//pnfs/psi.ch/cms/trivcat/store/user/sleontsi/tth/LegacyRun2_2017_AH_v3/WJetsToQQ_HT400to600_qc19_3j_TuneCP5_13TeV-madgraphMLM-pythia8/LegacyRun2_2017_AH_v3/191028_150944/0000/tree_52.root = 21896
root://t3dcachedb.psi.ch//pnfs/psi.ch/cms/trivcat/store/user/sleontsi/tth/LegacyRun2_2017_AH_v3/WJetsToQQ_HT400to600_qc19_3j_TuneCP5_13TeV-madgraphMLM-pythia8/LegacyRun2_2017_AH_v3/191028_150944/0000/tree_53.root = 21512
root://t3dcachedb.psi.ch//pnfs/psi.ch/cms/trivcat/store/user/sleontsi/tth/LegacyRun2_2017_AH_v3/WJetsToQQ_HT400to600_qc19_3j_TuneCP5_13TeV-madgraphMLM-pythia8/LegacyRun2_2017_AH_v3/191028_150944/0000/tree_54.root = 21741
root://t3dcachedb.psi.ch//pnfs/psi.ch/cms/trivcat/store/user/sleontsi/tth/LegacyRun2_2017_AH_v3/WJetsToQQ_HT400to600_qc19_3j_TuneCP5_13TeV-madgraphMLM-pythia8/LegacyRun2_2017_AH_v3/191028_150944/0000/tree_55.root = 21866
root://t3dcachedb.psi.ch//pnfs/psi.ch/cms/trivcat/store/user/sleontsi/tth/LegacyRun2_2017_AH_v3/WJetsToQQ_HT400to600_qc19_3j_TuneCP5_13TeV-madgraphMLM-pythia8/LegacyRun2_2017_AH_v3/191028_150944/0000/tree_56.root = 22002
root://t3dcachedb.psi.ch//pnfs/psi.ch/cms/trivcat/store/user/sleontsi/tth/LegacyRun2_2017_AH_v3/WJetsToQQ_HT400to600_qc19_3j_TuneCP5_13TeV-madgraphMLM-pythia8/LegacyRun2_2017_AH_v3/191028_150944/0000/tree_57.root = 21850
root://t3dcachedb.psi.ch//pnfs/psi.ch/cms/trivcat/store/user/sleontsi/tth/LegacyRun2_2017_AH_v3/WJetsToQQ_HT400to600_qc19_3j_TuneCP5_13TeV-madgraphMLM-pythia8/LegacyRun2_2017_AH_v3/191028_150944/0000/tree_58.root = 21805
root://t3dcachedb.psi.ch//pnfs/psi.ch/cms/trivcat/store/user/sleontsi/tth/LegacyRun2_2017_AH_v3/WJetsToQQ_HT400to600_qc19_3j_TuneCP5_13TeV-madgraphMLM-pythia8/LegacyRun2_2017_AH_v3/191028_150944/0000/tree_59.root = 21733
root://t3dcachedb.psi.ch//pnfs/psi.ch/cms/trivcat/store/user/sleontsi/tth/LegacyRun2_2017_AH_v3/WJetsToQQ_HT400to600_qc19_3j_TuneCP5_13TeV-madgraphMLM-pythia8/LegacyRun2_2017_AH_v3/191028_150944/0000/tree_300.root = 21682
root://t3dcachedb.psi.ch//pnfs/psi.ch/cms/trivcat/store/user/sleontsi/tth/LegacyRun2_2017_AH_v3/WJetsToQQ_HT400to600_qc19_3j_TuneCP5_13TeV-madgraphMLM-pythia8/LegacyRun2_2017_AH_v3/191028_150944/0000/tree_301.root = 21806
root://t3dcachedb.psi.ch//pnfs/psi.ch/cms/trivcat/store/user/sleontsi/tth/LegacyRun2_2017_AH_v3/WJetsToQQ_HT400to600_qc19_3j_TuneCP5_13TeV-madgraphMLM-pythia8/LegacyRun2_2017_AH_v3/191028_150944/0000/tree_220.root = 21822
root://t3dcachedb.psi.ch//pnfs/psi.ch/cms/trivcat/store/user/sleontsi/tth/LegacyRun2_2017_AH_v3/WJetsToQQ_HT400to600_qc19_3j_TuneCP5_13TeV-madgraphMLM-pythia8/LegacyRun2_2017_AH_v3/191028_150944/0000/tree_302.root = 21778
root://t3dcachedb.psi.ch//pnfs/psi.ch/cms/trivcat/store/user/sleontsi/tth/LegacyRun2_2017_AH_v3/WJetsToQQ_HT400to600_qc19_3j_TuneCP5_13TeV-madgraphMLM-pythia8/LegacyRun2_2017_AH_v3/191028_150944/0000/tree_221.root = 21659
root://t3dcachedb.psi.ch//pnfs/psi.ch/cms/trivcat/store/user/sleontsi/tth/LegacyRun2_2017_AH_v3/WJetsToQQ_HT400to600_qc19_3j_TuneCP5_13TeV-madgraphMLM-pythia8/LegacyRun2_2017_AH_v3/191028_150944/0000/tree_140.root = 21383
root://t3dcachedb.psi.ch//pnfs/psi.ch/cms/trivcat/store/user/sleontsi/tth/LegacyRun2_2017_AH_v3/WJetsToQQ_HT400to600_qc19_3j_TuneCP5_13TeV-madgraphMLM-pythia8/LegacyRun2_2017_AH_v3/191028_150944/0000/tree_303.root = 21803
root://t3dcachedb.psi.ch//pnfs/psi.ch/cms/trivcat/store/user/sleontsi/tth/LegacyRun2_2017_AH_v3/WJetsToQQ_HT400to600_qc19_3j_TuneCP5_13TeV-madgraphMLM-pythia8/LegacyRun2_2017_AH_v3/191028_150944/0000/tree_222.root = 21903
root://t3dcachedb.psi.ch//pnfs/psi.ch/cms/trivcat/store/user/sleontsi/tth/LegacyRun2_2017_AH_v3/WJetsToQQ_HT400to600_qc19_3j_TuneCP5_13TeV-madgraphMLM-pythia8/LegacyRun2_2017_AH_v3/191028_150944/0000/tree_141.root = 21885
root://t3dcachedb.psi.ch//pnfs/psi.ch/cms/trivcat/store/user/sleontsi/tth/LegacyRun2_2017_AH_v3/WJetsToQQ_HT400to600_qc19_3j_TuneCP5_13TeV-madgraphMLM-pythia8/LegacyRun2_2017_AH_v3/191028_150944/0000/tree_430.root = 21562
root://t3dcachedb.psi.ch//pnfs/psi.ch/cms/trivcat/store/user/sleontsi/tth/LegacyRun2_2017_AH_v3/WJetsToQQ_HT400to600_qc19_3j_TuneCP5_13TeV-madgraphMLM-pythia8/LegacyRun2_2017_AH_v3/191028_150944/0000/tree_304.root = 21875
root://t3dcachedb.psi.ch//pnfs/psi.ch/cms/trivcat/store/user/sleontsi/tth/LegacyRun2_2017_AH_v3/WJetsToQQ_HT400to600_qc19_3j_TuneCP5_13TeV-madgraphMLM-pythia8/LegacyRun2_2017_AH_v3/191028_150944/0000/tree_223.root = 21977
root://t3dcachedb.psi.ch//pnfs/psi.ch/cms/trivcat/store/user/sleontsi/tth/LegacyRun2_2017_AH_v3/WJetsToQQ_HT400to600_qc19_3j_TuneCP5_13TeV-madgraphMLM-pythia8/LegacyRun2_2017_AH_v3/191028_150944/0000/tree_142.root = 21610
root://t3dcachedb.psi.ch//pnfs/psi.ch/cms/trivcat/store/user/sleontsi/tth/LegacyRun2_2017_AH_v3/WJetsToQQ_HT400to600_qc19_3j_TuneCP5_13TeV-madgraphMLM-pythia8/LegacyRun2_2017_AH_v3/191028_150944/0000/tree_431.root = 21680
root://t3dcachedb.psi.ch//pnfs/psi.ch/cms/trivcat/store/user/sleontsi/tth/LegacyRun2_2017_AH_v3/WJetsToQQ_HT400to600_qc19_3j_TuneCP5_13TeV-madgraphMLM-pythia8/LegacyRun2_2017_AH_v3/191028_150944/0000/tree_350.root = 21819
root://t3dcachedb.psi.ch//pnfs/psi.ch/cms/trivcat/store/user/sleontsi/tth/LegacyRun2_2017_AH_v3/WJetsToQQ_HT400to600_qc19_3j_TuneCP5_13TeV-madgraphMLM-pythia8/LegacyRun2_2017_AH_v3/191028_150944/0000/tree_305.root = 21585
root://t3dcachedb.psi.ch//pnfs/psi.ch/cms/trivcat/store/user/sleontsi/tth/LegacyRun2_2017_AH_v3/WJetsToQQ_HT400to600_qc19_3j_TuneCP5_13TeV-madgraphMLM-pythia8/LegacyRun2_2017_AH_v3/191028_150944/0000/tree_224.root = 21882
root://t3dcachedb.psi.ch//pnfs/psi.ch/cms/trivcat/store/user/sleontsi/tth/LegacyRun2_2017_AH_v3/WJetsToQQ_HT400to600_qc19_3j_TuneCP5_13TeV-madgraphMLM-pythia8/LegacyRun2_2017_AH_v3/191028_150944/0000/tree_143.root = 21665
root://t3dcachedb.psi.ch//pnfs/psi.ch/cms/trivcat/store/user/sleontsi/tth/LegacyRun2_2017_AH_v3/WJetsToQQ_HT400to600_qc19_3j_TuneCP5_13TeV-madgraphMLM-pythia8/LegacyRun2_2017_AH_v3/191028_150944/0000/tree_432.root = 21742
root://t3dcachedb.psi.ch//pnfs/psi.ch/cms/trivcat/store/user/sleontsi/tth/LegacyRun2_2017_AH_v3/WJetsToQQ_HT400to600_qc19_3j_TuneCP5_13TeV-madgraphMLM-pythia8/LegacyRun2_2017_AH_v3/191028_150944/0000/tree_351.root = 21713
root://t3dcachedb.psi.ch//pnfs/psi.ch/cms/trivcat/store/user/sleontsi/tth/LegacyRun2_2017_AH_v3/WJetsToQQ_HT400to600_qc19_3j_TuneCP5_13TeV-madgraphMLM-pythia8/LegacyRun2_2017_AH_v3/191028_150944/0000/tree_306.root = 21754
root://t3dcachedb.psi.ch//pnfs/psi.ch/cms/trivcat/store/user/sleontsi/tth/LegacyRun2_2017_AH_v3/WJetsToQQ_HT400to600_qc19_3j_TuneCP5_13TeV-madgraphMLM-pythia8/LegacyRun2_2017_AH_v3/191028_150944/0000/tree_270.root = 21747
root://t3dcachedb.psi.ch//pnfs/psi.ch/cms/trivcat/store/user/sleontsi/tth/LegacyRun2_2017_AH_v3/WJetsToQQ_HT400to600_qc19_3j_TuneCP5_13TeV-madgraphMLM-pythia8/LegacyRun2_2017_AH_v3/191028_150944/0000/tree_225.root = 21790
root://t3dcachedb.psi.ch//pnfs/psi.ch/cms/trivcat/store/user/sleontsi/tth/LegacyRun2_2017_AH_v3/WJetsToQQ_HT400to600_qc19_3j_TuneCP5_13TeV-madgraphMLM-pythia8/LegacyRun2_2017_AH_v3/191028_150944/0000/tree_144.root = 21521
root://t3dcachedb.psi.ch//pnfs/psi.ch/cms/trivcat/store/user/sleontsi/tth/LegacyRun2_2017_AH_v3/WJetsToQQ_HT400to600_qc19_3j_TuneCP5_13TeV-madgraphMLM-pythia8/LegacyRun2_2017_AH_v3/191028_150944/0000/tree_433.root = 21671
root://t3dcachedb.psi.ch//pnfs/psi.ch/cms/trivcat/store/user/sleontsi/tth/LegacyRun2_2017_AH_v3/WJetsToQQ_HT400to600_qc19_3j_TuneCP5_13TeV-madgraphMLM-pythia8/LegacyRun2_2017_AH_v3/191028_150944/0000/tree_352.root = 21908
root://t3dcachedb.psi.ch//pnfs/psi.ch/cms/trivcat/store/user/sleontsi/tth/LegacyRun2_2017_AH_v3/WJetsToQQ_HT400to600_qc19_3j_TuneCP5_13TeV-madgraphMLM-pythia8/LegacyRun2_2017_AH_v3/191028_150944/0000/tree_307.root = 21782
root://t3dcachedb.psi.ch//pnfs/psi.ch/cms/trivcat/store/user/sleontsi/tth/LegacyRun2_2017_AH_v3/WJetsToQQ_HT400to600_qc19_3j_TuneCP5_13TeV-madgraphMLM-pythia8/LegacyRun2_2017_AH_v3/191028_150944/0000/tree_271.root = 21811
root://t3dcachedb.psi.ch//pnfs/psi.ch/cms/trivcat/store/user/sleontsi/tth/LegacyRun2_2017_AH_v3/WJetsToQQ_HT400to600_qc19_3j_TuneCP5_13TeV-madgraphMLM-pythia8/LegacyRun2_2017_AH_v3/191028_150944/0000/tree_226.root = 21692
root://t3dcachedb.psi.ch//pnfs/psi.ch/cms/trivcat/store/user/sleontsi/tth/LegacyRun2_2017_AH_v3/WJetsToQQ_HT400to600_qc19_3j_TuneCP5_13TeV-madgraphMLM-pythia8/LegacyRun2_2017_AH_v3/191028_150944/0000/tree_190.root = 21830
root://t3dcachedb.psi.ch//pnfs/psi.ch/cms/trivcat/store/user/sleontsi/tth/LegacyRun2_2017_AH_v3/WJetsToQQ_HT400to600_qc19_3j_TuneCP5_13TeV-madgraphMLM-pythia8/LegacyRun2_2017_AH_v3/191028_150944/0000/tree_145.root = 21821
root://t3dcachedb.psi.ch//pnfs/psi.ch/cms/trivcat/store/user/sleontsi/tth/LegacyRun2_2017_AH_v3/WJetsToQQ_HT400to600_qc19_3j_TuneCP5_13TeV-madgraphMLM-pythia8/LegacyRun2_2017_AH_v3/191028_150944/0000/tree_434.root = 21848
root://t3dcachedb.psi.ch//pnfs/psi.ch/cms/trivcat/store/user/sleontsi/tth/LegacyRun2_2017_AH_v3/WJetsToQQ_HT400to600_qc19_3j_TuneCP5_13TeV-madgraphMLM-pythia8/LegacyRun2_2017_AH_v3/191028_150944/0000/tree_353.root = 21776
root://t3dcachedb.psi.ch//pnfs/psi.ch/cms/trivcat/store/user/sleontsi/tth/LegacyRun2_2017_AH_v3/WJetsToQQ_HT400to600_qc19_3j_TuneCP5_13TeV-madgraphMLM-pythia8/LegacyRun2_2017_AH_v3/191028_150944/0000/tree_308.root = 21561
root://t3dcachedb.psi.ch//pnfs/psi.ch/cms/trivcat/store/user/sleontsi/tth/LegacyRun2_2017_AH_v3/WJetsToQQ_HT400to600_qc19_3j_TuneCP5_13TeV-madgraphMLM-pythia8/LegacyRun2_2017_AH_v3/191028_150944/0000/tree_272.root = 21792
root://t3dcachedb.psi.ch//pnfs/psi.ch/cms/trivcat/store/user/sleontsi/tth/LegacyRun2_2017_AH_v3/WJetsToQQ_HT400to600_qc19_3j_TuneCP5_13TeV-madgraphMLM-pythia8/LegacyRun2_2017_AH_v3/191028_150944/0000/tree_227.root = 21578
root://t3dcachedb.psi.ch//pnfs/psi.ch/cms/trivcat/store/user/sleontsi/tth/LegacyRun2_2017_AH_v3/WJetsToQQ_HT400to600_qc19_3j_TuneCP5_13TeV-madgraphMLM-pythia8/LegacyRun2_2017_AH_v3/191028_150944/0000/tree_191.root = 21746
root://t3dcachedb.psi.ch//pnfs/psi.ch/cms/trivcat/store/user/sleontsi/tth/LegacyRun2_2017_AH_v3/WJetsToQQ_HT400to600_qc19_3j_TuneCP5_13TeV-madgraphMLM-pythia8/LegacyRun2_2017_AH_v3/191028_150944/0000/tree_146.root = 21789
root://t3dcachedb.psi.ch//pnfs/psi.ch/cms/trivcat/store/user/sleontsi/tth/LegacyRun2_2017_AH_v3/WJetsToQQ_HT400to600_qc19_3j_TuneCP5_13TeV-madgraphMLM-pythia8/LegacyRun2_2017_AH_v3/191028_150944/0000/tree_435.root = 21574
root://t3dcachedb.psi.ch//pnfs/psi.ch/cms/trivcat/store/user/sleontsi/tth/LegacyRun2_2017_AH_v3/WJetsToQQ_HT400to600_qc19_3j_TuneCP5_13TeV-madgraphMLM-pythia8/LegacyRun2_2017_AH_v3/191028_150944/0000/tree_354.root = 21690
root://t3dcachedb.psi.ch//pnfs/psi.ch/cms/trivcat/store/user/sleontsi/tth/LegacyRun2_2017_AH_v3/WJetsToQQ_HT400to600_qc19_3j_TuneCP5_13TeV-madgraphMLM-pythia8/LegacyRun2_2017_AH_v3/191028_150944/0000/tree_309.root = 21757
root://t3dcachedb.psi.ch//pnfs/psi.ch/cms/trivcat/store/user/sleontsi/tth/LegacyRun2_2017_AH_v3/WJetsToQQ_HT400to600_qc19_3j_TuneCP5_13TeV-madgraphMLM-pythia8/LegacyRun2_2017_AH_v3/191028_150944/0000/tree_273.root = 21710
root://t3dcachedb.psi.ch//pnfs/psi.ch/cms/trivcat/store/user/sleontsi/tth/LegacyRun2_2017_AH_v3/WJetsToQQ_HT400to600_qc19_3j_TuneCP5_13TeV-madgraphMLM-pythia8/LegacyRun2_2017_AH_v3/191028_150944/0000/tree_228.root = 21736
root://t3dcachedb.psi.ch//pnfs/psi.ch/cms/trivcat/store/user/sleontsi/tth/LegacyRun2_2017_AH_v3/WJetsToQQ_HT400to600_qc19_3j_TuneCP5_13TeV-madgraphMLM-pythia8/LegacyRun2_2017_AH_v3/191028_150944/0000/tree_192.root = 21485
root://t3dcachedb.psi.ch//pnfs/psi.ch/cms/trivcat/store/user/sleontsi/tth/LegacyRun2_2017_AH_v3/WJetsToQQ_HT400to600_qc19_3j_TuneCP5_13TeV-madgraphMLM-pythia8/LegacyRun2_2017_AH_v3/191028_150944/0000/tree_147.root = 21817
root://t3dcachedb.psi.ch//pnfs/psi.ch/cms/trivcat/store/user/sleontsi/tth/LegacyRun2_2017_AH_v3/WJetsToQQ_HT400to600_qc19_3j_TuneCP5_13TeV-madgraphMLM-pythia8/LegacyRun2_2017_AH_v3/191028_150944/0000/tree_436.root = 21797
root://t3dcachedb.psi.ch//pnfs/psi.ch/cms/trivcat/store/user/sleontsi/tth/LegacyRun2_2017_AH_v3/WJetsToQQ_HT400to600_qc19_3j_TuneCP5_13TeV-madgraphMLM-pythia8/LegacyRun2_2017_AH_v3/191028_150944/0000/tree_355.root = 21694
root://t3dcachedb.psi.ch//pnfs/psi.ch/cms/trivcat/store/user/sleontsi/tth/LegacyRun2_2017_AH_v3/WJetsToQQ_HT400to600_qc19_3j_TuneCP5_13TeV-madgraphMLM-pythia8/LegacyRun2_2017_AH_v3/191028_150944/0000/tree_274.root = 21824
root://t3dcachedb.psi.ch//pnfs/psi.ch/cms/trivcat/store/user/sleontsi/tth/LegacyRun2_2017_AH_v3/WJetsToQQ_HT400to600_qc19_3j_TuneCP5_13TeV-madgraphMLM-pythia8/LegacyRun2_2017_AH_v3/191028_150944/0000/tree_229.root = 21900
root://t3dcachedb.psi.ch//pnfs/psi.ch/cms/trivcat/store/user/sleontsi/tth/LegacyRun2_2017_AH_v3/WJetsToQQ_HT400to600_qc19_3j_TuneCP5_13TeV-madgraphMLM-pythia8/LegacyRun2_2017_AH_v3/191028_150944/0000/tree_193.root = 21568
root://t3dcachedb.psi.ch//pnfs/psi.ch/cms/trivcat/store/user/sleontsi/tth/LegacyRun2_2017_AH_v3/WJetsToQQ_HT400to600_qc19_3j_TuneCP5_13TeV-madgraphMLM-pythia8/LegacyRun2_2017_AH_v3/191028_150944/0000/tree_148.root = 21603
root://t3dcachedb.psi.ch//pnfs/psi.ch/cms/trivcat/store/user/sleontsi/tth/LegacyRun2_2017_AH_v3/WJetsToQQ_HT400to600_qc19_3j_TuneCP5_13TeV-madgraphMLM-pythia8/LegacyRun2_2017_AH_v3/191028_150944/0000/tree_437.root = 21761
root://t3dcachedb.psi.ch//pnfs/psi.ch/cms/trivcat/store/user/sleontsi/tth/LegacyRun2_2017_AH_v3/WJetsToQQ_HT400to600_qc19_3j_TuneCP5_13TeV-madgraphMLM-pythia8/LegacyRun2_2017_AH_v3/191028_150944/0000/tree_356.root = 21780
root://t3dcachedb.psi.ch//pnfs/psi.ch/cms/trivcat/store/user/sleontsi/tth/LegacyRun2_2017_AH_v3/WJetsToQQ_HT400to600_qc19_3j_TuneCP5_13TeV-madgraphMLM-pythia8/LegacyRun2_2017_AH_v3/191028_150944/0000/tree_275.root = 21449
root://t3dcachedb.psi.ch//pnfs/psi.ch/cms/trivcat/store/user/sleontsi/tth/LegacyRun2_2017_AH_v3/WJetsToQQ_HT400to600_qc19_3j_TuneCP5_13TeV-madgraphMLM-pythia8/LegacyRun2_2017_AH_v3/191028_150944/0000/tree_194.root = 21686
root://t3dcachedb.psi.ch//pnfs/psi.ch/cms/trivcat/store/user/sleontsi/tth/LegacyRun2_2017_AH_v3/WJetsToQQ_HT400to600_qc19_3j_TuneCP5_13TeV-madgraphMLM-pythia8/LegacyRun2_2017_AH_v3/191028_150944/0000/tree_149.root = 21813
root://t3dcachedb.psi.ch//pnfs/psi.ch/cms/trivcat/store/user/sleontsi/tth/LegacyRun2_2017_AH_v3/WJetsToQQ_HT400to600_qc19_3j_TuneCP5_13TeV-madgraphMLM-pythia8/LegacyRun2_2017_AH_v3/191028_150944/0000/tree_438.root = 21861
root://t3dcachedb.psi.ch//pnfs/psi.ch/cms/trivcat/store/user/sleontsi/tth/LegacyRun2_2017_AH_v3/WJetsToQQ_HT400to600_qc19_3j_TuneCP5_13TeV-madgraphMLM-pythia8/LegacyRun2_2017_AH_v3/191028_150944/0000/tree_357.root = 21729
root://t3dcachedb.psi.ch//pnfs/psi.ch/cms/trivcat/store/user/sleontsi/tth/LegacyRun2_2017_AH_v3/WJetsToQQ_HT400to600_qc19_3j_TuneCP5_13TeV-madgraphMLM-pythia8/LegacyRun2_2017_AH_v3/191028_150944/0000/tree_276.root = 21575
root://t3dcachedb.psi.ch//pnfs/psi.ch/cms/trivcat/store/user/sleontsi/tth/LegacyRun2_2017_AH_v3/WJetsToQQ_HT400to600_qc19_3j_TuneCP5_13TeV-madgraphMLM-pythia8/LegacyRun2_2017_AH_v3/191028_150944/0000/tree_10.root = 21807
root://t3dcachedb.psi.ch//pnfs/psi.ch/cms/trivcat/store/user/sleontsi/tth/LegacyRun2_2017_AH_v3/WJetsToQQ_HT400to600_qc19_3j_TuneCP5_13TeV-madgraphMLM-pythia8/LegacyRun2_2017_AH_v3/191028_150944/0000/tree_195.root = 21712
root://t3dcachedb.psi.ch//pnfs/psi.ch/cms/trivcat/store/user/sleontsi/tth/LegacyRun2_2017_AH_v3/WJetsToQQ_HT400to600_qc19_3j_TuneCP5_13TeV-madgraphMLM-pythia8/LegacyRun2_2017_AH_v3/191028_150944/0000/tree_439.root = 21749
root://t3dcachedb.psi.ch//pnfs/psi.ch/cms/trivcat/store/user/sleontsi/tth/LegacyRun2_2017_AH_v3/WJetsToQQ_HT400to600_qc19_3j_TuneCP5_13TeV-madgraphMLM-pythia8/LegacyRun2_2017_AH_v3/191028_150944/0000/tree_358.root = 21705
root://t3dcachedb.psi.ch//pnfs/psi.ch/cms/trivcat/store/user/sleontsi/tth/LegacyRun2_2017_AH_v3/WJetsToQQ_HT400to600_qc19_3j_TuneCP5_13TeV-madgraphMLM-pythia8/LegacyRun2_2017_AH_v3/191028_150944/0000/tree_277.root = 21800
root://t3dcachedb.psi.ch//pnfs/psi.ch/cms/trivcat/store/user/sleontsi/tth/LegacyRun2_2017_AH_v3/WJetsToQQ_HT400to600_qc19_3j_TuneCP5_13TeV-madgraphMLM-pythia8/LegacyRun2_2017_AH_v3/191028_150944/0000/tree_11.root = 21867
root://t3dcachedb.psi.ch//pnfs/psi.ch/cms/trivcat/store/user/sleontsi/tth/LegacyRun2_2017_AH_v3/WJetsToQQ_HT400to600_qc19_3j_TuneCP5_13TeV-madgraphMLM-pythia8/LegacyRun2_2017_AH_v3/191028_150944/0000/tree_196.root = 21778
root://t3dcachedb.psi.ch//pnfs/psi.ch/cms/trivcat/store/user/sleontsi/tth/LegacyRun2_2017_AH_v3/WJetsToQQ_HT400to600_qc19_3j_TuneCP5_13TeV-madgraphMLM-pythia8/LegacyRun2_2017_AH_v3/191028_150944/0000/tree_359.root = 21767
root://t3dcachedb.psi.ch//pnfs/psi.ch/cms/trivcat/store/user/sleontsi/tth/LegacyRun2_2017_AH_v3/WJetsToQQ_HT400to600_qc19_3j_TuneCP5_13TeV-madgraphMLM-pythia8/LegacyRun2_2017_AH_v3/191028_150944/0000/tree_278.root = 21993
root://t3dcachedb.psi.ch//pnfs/psi.ch/cms/trivcat/store/user/sleontsi/tth/LegacyRun2_2017_AH_v3/WJetsToQQ_HT400to600_qc19_3j_TuneCP5_13TeV-madgraphMLM-pythia8/LegacyRun2_2017_AH_v3/191028_150944/0000/tree_12.root = 21860
root://t3dcachedb.psi.ch//pnfs/psi.ch/cms/trivcat/store/user/sleontsi/tth/LegacyRun2_2017_AH_v3/WJetsToQQ_HT400to600_qc19_3j_TuneCP5_13TeV-madgraphMLM-pythia8/LegacyRun2_2017_AH_v3/191028_150944/0000/tree_197.root = 21856
root://t3dcachedb.psi.ch//pnfs/psi.ch/cms/trivcat/store/user/sleontsi/tth/LegacyRun2_2017_AH_v3/WJetsToQQ_HT400to600_qc19_3j_TuneCP5_13TeV-madgraphMLM-pythia8/LegacyRun2_2017_AH_v3/191028_150944/0000/tree_279.root = 21621
root://t3dcachedb.psi.ch//pnfs/psi.ch/cms/trivcat/store/user/sleontsi/tth/LegacyRun2_2017_AH_v3/WJetsToQQ_HT400to600_qc19_3j_TuneCP5_13TeV-madgraphMLM-pythia8/LegacyRun2_2017_AH_v3/191028_150944/0000/tree_13.root = 21567
root://t3dcachedb.psi.ch//pnfs/psi.ch/cms/trivcat/store/user/sleontsi/tth/LegacyRun2_2017_AH_v3/WJetsToQQ_HT400to600_qc19_3j_TuneCP5_13TeV-madgraphMLM-pythia8/LegacyRun2_2017_AH_v3/191028_150944/0000/tree_198.root = 21659
root://t3dcachedb.psi.ch//pnfs/psi.ch/cms/trivcat/store/user/sleontsi/tth/LegacyRun2_2017_AH_v3/WJetsToQQ_HT400to600_qc19_3j_TuneCP5_13TeV-madgraphMLM-pythia8/LegacyRun2_2017_AH_v3/191028_150944/0000/tree_14.root = 21638
root://t3dcachedb.psi.ch//pnfs/psi.ch/cms/trivcat/store/user/sleontsi/tth/LegacyRun2_2017_AH_v3/WJetsToQQ_HT400to600_qc19_3j_TuneCP5_13TeV-madgraphMLM-pythia8/LegacyRun2_2017_AH_v3/191028_150944/0000/tree_199.root = 21591
root://t3dcachedb.psi.ch//pnfs/psi.ch/cms/trivcat/store/user/sleontsi/tth/LegacyRun2_2017_AH_v3/WJetsToQQ_HT400to600_qc19_3j_TuneCP5_13TeV-madgraphMLM-pythia8/LegacyRun2_2017_AH_v3/191028_150944/0000/tree_1.root = 21656
root://t3dcachedb.psi.ch//pnfs/psi.ch/cms/trivcat/store/user/sleontsi/tth/LegacyRun2_2017_AH_v3/WJetsToQQ_HT400to600_qc19_3j_TuneCP5_13TeV-madgraphMLM-pythia8/LegacyRun2_2017_AH_v3/191028_150944/0000/tree_60.root = 21796
root://t3dcachedb.psi.ch//pnfs/psi.ch/cms/trivcat/store/user/sleontsi/tth/LegacyRun2_2017_AH_v3/WJetsToQQ_HT400to600_qc19_3j_TuneCP5_13TeV-madgraphMLM-pythia8/LegacyRun2_2017_AH_v3/191028_150944/0000/tree_15.root = 21816
root://t3dcachedb.psi.ch//pnfs/psi.ch/cms/trivcat/store/user/sleontsi/tth/LegacyRun2_2017_AH_v3/WJetsToQQ_HT400to600_qc19_3j_TuneCP5_13TeV-madgraphMLM-pythia8/LegacyRun2_2017_AH_v3/191028_150944/0000/tree_2.root = 21495
root://t3dcachedb.psi.ch//pnfs/psi.ch/cms/trivcat/store/user/sleontsi/tth/LegacyRun2_2017_AH_v3/WJetsToQQ_HT400to600_qc19_3j_TuneCP5_13TeV-madgraphMLM-pythia8/LegacyRun2_2017_AH_v3/191028_150944/0000/tree_61.root = 21843
root://t3dcachedb.psi.ch//pnfs/psi.ch/cms/trivcat/store/user/sleontsi/tth/LegacyRun2_2017_AH_v3/WJetsToQQ_HT400to600_qc19_3j_TuneCP5_13TeV-madgraphMLM-pythia8/LegacyRun2_2017_AH_v3/191028_150944/0000/tree_16.root = 21825
root://t3dcachedb.psi.ch//pnfs/psi.ch/cms/trivcat/store/user/sleontsi/tth/LegacyRun2_2017_AH_v3/WJetsToQQ_HT400to600_qc19_3j_TuneCP5_13TeV-madgraphMLM-pythia8/LegacyRun2_2017_AH_v3/191028_150944/0000/tree_3.root = 21820
root://t3dcachedb.psi.ch//pnfs/psi.ch/cms/trivcat/store/user/sleontsi/tth/LegacyRun2_2017_AH_v3/WJetsToQQ_HT400to600_qc19_3j_TuneCP5_13TeV-madgraphMLM-pythia8/LegacyRun2_2017_AH_v3/191028_150944/0000/tree_62.root = 21803
root://t3dcachedb.psi.ch//pnfs/psi.ch/cms/trivcat/store/user/sleontsi/tth/LegacyRun2_2017_AH_v3/WJetsToQQ_HT400to600_qc19_3j_TuneCP5_13TeV-madgraphMLM-pythia8/LegacyRun2_2017_AH_v3/191028_150944/0000/tree_17.root = 21728
root://t3dcachedb.psi.ch//pnfs/psi.ch/cms/trivcat/store/user/sleontsi/tth/LegacyRun2_2017_AH_v3/WJetsToQQ_HT400to600_qc19_3j_TuneCP5_13TeV-madgraphMLM-pythia8/LegacyRun2_2017_AH_v3/191028_150944/0000/tree_4.root = 21619
root://t3dcachedb.psi.ch//pnfs/psi.ch/cms/trivcat/store/user/sleontsi/tth/LegacyRun2_2017_AH_v3/WJetsToQQ_HT400to600_qc19_3j_TuneCP5_13TeV-madgraphMLM-pythia8/LegacyRun2_2017_AH_v3/191028_150944/0000/tree_63.root = 21538
root://t3dcachedb.psi.ch//pnfs/psi.ch/cms/trivcat/store/user/sleontsi/tth/LegacyRun2_2017_AH_v3/WJetsToQQ_HT400to600_qc19_3j_TuneCP5_13TeV-madgraphMLM-pythia8/LegacyRun2_2017_AH_v3/191028_150944/0000/tree_18.root = 21740
root://t3dcachedb.psi.ch//pnfs/psi.ch/cms/trivcat/store/user/sleontsi/tth/LegacyRun2_2017_AH_v3/WJetsToQQ_HT400to600_qc19_3j_TuneCP5_13TeV-madgraphMLM-pythia8/LegacyRun2_2017_AH_v3/191028_150944/0000/tree_5.root = 21776
root://t3dcachedb.psi.ch//pnfs/psi.ch/cms/trivcat/store/user/sleontsi/tth/LegacyRun2_2017_AH_v3/WJetsToQQ_HT400to600_qc19_3j_TuneCP5_13TeV-madgraphMLM-pythia8/LegacyRun2_2017_AH_v3/191028_150944/0000/tree_64.root = 21923
root://t3dcachedb.psi.ch//pnfs/psi.ch/cms/trivcat/store/user/sleontsi/tth/LegacyRun2_2017_AH_v3/WJetsToQQ_HT400to600_qc19_3j_TuneCP5_13TeV-madgraphMLM-pythia8/LegacyRun2_2017_AH_v3/191028_150944/0000/tree_19.root = 21711
root://t3dcachedb.psi.ch//pnfs/psi.ch/cms/trivcat/store/user/sleontsi/tth/LegacyRun2_2017_AH_v3/WJetsToQQ_HT400to600_qc19_3j_TuneCP5_13TeV-madgraphMLM-pythia8/LegacyRun2_2017_AH_v3/191028_150944/0000/tree_6.root = 21663
root://t3dcachedb.psi.ch//pnfs/psi.ch/cms/trivcat/store/user/sleontsi/tth/LegacyRun2_2017_AH_v3/WJetsToQQ_HT400to600_qc19_3j_TuneCP5_13TeV-madgraphMLM-pythia8/LegacyRun2_2017_AH_v3/191028_150944/0000/tree_65.root = 21817
root://t3dcachedb.psi.ch//pnfs/psi.ch/cms/trivcat/store/user/sleontsi/tth/LegacyRun2_2017_AH_v3/WJetsToQQ_HT400to600_qc19_3j_TuneCP5_13TeV-madgraphMLM-pythia8/LegacyRun2_2017_AH_v3/191028_150944/0000/tree_7.root = 21658
root://t3dcachedb.psi.ch//pnfs/psi.ch/cms/trivcat/store/user/sleontsi/tth/LegacyRun2_2017_AH_v3/WJetsToQQ_HT400to600_qc19_3j_TuneCP5_13TeV-madgraphMLM-pythia8/LegacyRun2_2017_AH_v3/191028_150944/0000/tree_66.root = 21987
root://t3dcachedb.psi.ch//pnfs/psi.ch/cms/trivcat/store/user/sleontsi/tth/LegacyRun2_2017_AH_v3/WJetsToQQ_HT400to600_qc19_3j_TuneCP5_13TeV-madgraphMLM-pythia8/LegacyRun2_2017_AH_v3/191028_150944/0000/tree_8.root = 21677
root://t3dcachedb.psi.ch//pnfs/psi.ch/cms/trivcat/store/user/sleontsi/tth/LegacyRun2_2017_AH_v3/WJetsToQQ_HT400to600_qc19_3j_TuneCP5_13TeV-madgraphMLM-pythia8/LegacyRun2_2017_AH_v3/191028_150944/0000/tree_67.root = 21775
root://t3dcachedb.psi.ch//pnfs/psi.ch/cms/trivcat/store/user/sleontsi/tth/LegacyRun2_2017_AH_v3/WJetsToQQ_HT400to600_qc19_3j_TuneCP5_13TeV-madgraphMLM-pythia8/LegacyRun2_2017_AH_v3/191028_150944/0000/tree_9.root = 21675
root://t3dcachedb.psi.ch//pnfs/psi.ch/cms/trivcat/store/user/sleontsi/tth/LegacyRun2_2017_AH_v3/WJetsToQQ_HT400to600_qc19_3j_TuneCP5_13TeV-madgraphMLM-pythia8/LegacyRun2_2017_AH_v3/191028_150944/0000/tree_68.root = 21658
root://t3dcachedb.psi.ch//pnfs/psi.ch/cms/trivcat/store/user/sleontsi/tth/LegacyRun2_2017_AH_v3/WJetsToQQ_HT400to600_qc19_3j_TuneCP5_13TeV-madgraphMLM-pythia8/LegacyRun2_2017_AH_v3/191028_150944/0000/tree_69.root = 21694
root://t3dcachedb.psi.ch//pnfs/psi.ch/cms/trivcat/store/user/sleontsi/tth/LegacyRun2_2017_AH_v3/WJetsToQQ_HT400to600_qc19_3j_TuneCP5_13TeV-madgraphMLM-pythia8/LegacyRun2_2017_AH_v3/191028_150944/0000/tree_100.root = 21489
root://t3dcachedb.psi.ch//pnfs/psi.ch/cms/trivcat/store/user/sleontsi/tth/LegacyRun2_2017_AH_v3/WJetsToQQ_HT400to600_qc19_3j_TuneCP5_13TeV-madgraphMLM-pythia8/LegacyRun2_2017_AH_v3/191028_150944/0000/tree_101.root = 21791
root://t3dcachedb.psi.ch//pnfs/psi.ch/cms/trivcat/store/user/sleontsi/tth/LegacyRun2_2017_AH_v3/WJetsToQQ_HT400to600_qc19_3j_TuneCP5_13TeV-madgraphMLM-pythia8/LegacyRun2_2017_AH_v3/191028_150944/0000/tree_102.root = 21295
root://t3dcachedb.psi.ch//pnfs/psi.ch/cms/trivcat/store/user/sleontsi/tth/LegacyRun2_2017_AH_v3/WJetsToQQ_HT400to600_qc19_3j_TuneCP5_13TeV-madgraphMLM-pythia8/LegacyRun2_2017_AH_v3/191028_150944/0000/tree_310.root = 21772
root://t3dcachedb.psi.ch//pnfs/psi.ch/cms/trivcat/store/user/sleontsi/tth/LegacyRun2_2017_AH_v3/WJetsToQQ_HT400to600_qc19_3j_TuneCP5_13TeV-madgraphMLM-pythia8/LegacyRun2_2017_AH_v3/191028_150944/0000/tree_103.root = 21715
root://t3dcachedb.psi.ch//pnfs/psi.ch/cms/trivcat/store/user/sleontsi/tth/LegacyRun2_2017_AH_v3/WJetsToQQ_HT400to600_qc19_3j_TuneCP5_13TeV-madgraphMLM-pythia8/LegacyRun2_2017_AH_v3/191028_150944/0000/tree_311.root = 21639
root://t3dcachedb.psi.ch//pnfs/psi.ch/cms/trivcat/store/user/sleontsi/tth/LegacyRun2_2017_AH_v3/WJetsToQQ_HT400to600_qc19_3j_TuneCP5_13TeV-madgraphMLM-pythia8/LegacyRun2_2017_AH_v3/191028_150944/0000/tree_230.root = 21889
root://t3dcachedb.psi.ch//pnfs/psi.ch/cms/trivcat/store/user/sleontsi/tth/LegacyRun2_2017_AH_v3/WJetsToQQ_HT400to600_qc19_3j_TuneCP5_13TeV-madgraphMLM-pythia8/LegacyRun2_2017_AH_v3/191028_150944/0000/tree_104.root = 21778
root://t3dcachedb.psi.ch//pnfs/psi.ch/cms/trivcat/store/user/sleontsi/tth/LegacyRun2_2017_AH_v3/WJetsToQQ_HT400to600_qc19_3j_TuneCP5_13TeV-madgraphMLM-pythia8/LegacyRun2_2017_AH_v3/191028_150944/0000/tree_312.root = 22002
root://t3dcachedb.psi.ch//pnfs/psi.ch/cms/trivcat/store/user/sleontsi/tth/LegacyRun2_2017_AH_v3/WJetsToQQ_HT400to600_qc19_3j_TuneCP5_13TeV-madgraphMLM-pythia8/LegacyRun2_2017_AH_v3/191028_150944/0000/tree_231.root = 21814
root://t3dcachedb.psi.ch//pnfs/psi.ch/cms/trivcat/store/user/sleontsi/tth/LegacyRun2_2017_AH_v3/WJetsToQQ_HT400to600_qc19_3j_TuneCP5_13TeV-madgraphMLM-pythia8/LegacyRun2_2017_AH_v3/191028_150944/0000/tree_150.root = 21565
root://t3dcachedb.psi.ch//pnfs/psi.ch/cms/trivcat/store/user/sleontsi/tth/LegacyRun2_2017_AH_v3/WJetsToQQ_HT400to600_qc19_3j_TuneCP5_13TeV-madgraphMLM-pythia8/LegacyRun2_2017_AH_v3/191028_150944/0000/tree_105.root = 21691
root://t3dcachedb.psi.ch//pnfs/psi.ch/cms/trivcat/store/user/sleontsi/tth/LegacyRun2_2017_AH_v3/WJetsToQQ_HT400to600_qc19_3j_TuneCP5_13TeV-madgraphMLM-pythia8/LegacyRun2_2017_AH_v3/191028_150944/0000/tree_313.root = 21769
root://t3dcachedb.psi.ch//pnfs/psi.ch/cms/trivcat/store/user/sleontsi/tth/LegacyRun2_2017_AH_v3/WJetsToQQ_HT400to600_qc19_3j_TuneCP5_13TeV-madgraphMLM-pythia8/LegacyRun2_2017_AH_v3/191028_150944/0000/tree_232.root = 21756
root://t3dcachedb.psi.ch//pnfs/psi.ch/cms/trivcat/store/user/sleontsi/tth/LegacyRun2_2017_AH_v3/WJetsToQQ_HT400to600_qc19_3j_TuneCP5_13TeV-madgraphMLM-pythia8/LegacyRun2_2017_AH_v3/191028_150944/0000/tree_151.root = 21617
root://t3dcachedb.psi.ch//pnfs/psi.ch/cms/trivcat/store/user/sleontsi/tth/LegacyRun2_2017_AH_v3/WJetsToQQ_HT400to600_qc19_3j_TuneCP5_13TeV-madgraphMLM-pythia8/LegacyRun2_2017_AH_v3/191028_150944/0000/tree_106.root = 21575
root://t3dcachedb.psi.ch//pnfs/psi.ch/cms/trivcat/store/user/sleontsi/tth/LegacyRun2_2017_AH_v3/WJetsToQQ_HT400to600_qc19_3j_TuneCP5_13TeV-madgraphMLM-pythia8/LegacyRun2_2017_AH_v3/191028_150944/0000/tree_440.root = 21822
root://t3dcachedb.psi.ch//pnfs/psi.ch/cms/trivcat/store/user/sleontsi/tth/LegacyRun2_2017_AH_v3/WJetsToQQ_HT400to600_qc19_3j_TuneCP5_13TeV-madgraphMLM-pythia8/LegacyRun2_2017_AH_v3/191028_150944/0000/tree_314.root = 21717
root://t3dcachedb.psi.ch//pnfs/psi.ch/cms/trivcat/store/user/sleontsi/tth/LegacyRun2_2017_AH_v3/WJetsToQQ_HT400to600_qc19_3j_TuneCP5_13TeV-madgraphMLM-pythia8/LegacyRun2_2017_AH_v3/191028_150944/0000/tree_233.root = 21934
root://t3dcachedb.psi.ch//pnfs/psi.ch/cms/trivcat/store/user/sleontsi/tth/LegacyRun2_2017_AH_v3/WJetsToQQ_HT400to600_qc19_3j_TuneCP5_13TeV-madgraphMLM-pythia8/LegacyRun2_2017_AH_v3/191028_150944/0000/tree_152.root = 21557
root://t3dcachedb.psi.ch//pnfs/psi.ch/cms/trivcat/store/user/sleontsi/tth/LegacyRun2_2017_AH_v3/WJetsToQQ_HT400to600_qc19_3j_TuneCP5_13TeV-madgraphMLM-pythia8/LegacyRun2_2017_AH_v3/191028_150944/0000/tree_107.root = 21946
root://t3dcachedb.psi.ch//pnfs/psi.ch/cms/trivcat/store/user/sleontsi/tth/LegacyRun2_2017_AH_v3/WJetsToQQ_HT400to600_qc19_3j_TuneCP5_13TeV-madgraphMLM-pythia8/LegacyRun2_2017_AH_v3/191028_150944/0000/tree_441.root = 21767
root://t3dcachedb.psi.ch//pnfs/psi.ch/cms/trivcat/store/user/sleontsi/tth/LegacyRun2_2017_AH_v3/WJetsToQQ_HT400to600_qc19_3j_TuneCP5_13TeV-madgraphMLM-pythia8/LegacyRun2_2017_AH_v3/191028_150944/0000/tree_360.root = 21743
root://t3dcachedb.psi.ch//pnfs/psi.ch/cms/trivcat/store/user/sleontsi/tth/LegacyRun2_2017_AH_v3/WJetsToQQ_HT400to600_qc19_3j_TuneCP5_13TeV-madgraphMLM-pythia8/LegacyRun2_2017_AH_v3/191028_150944/0000/tree_315.root = 21819
root://t3dcachedb.psi.ch//pnfs/psi.ch/cms/trivcat/store/user/sleontsi/tth/LegacyRun2_2017_AH_v3/WJetsToQQ_HT400to600_qc19_3j_TuneCP5_13TeV-madgraphMLM-pythia8/LegacyRun2_2017_AH_v3/191028_150944/0000/tree_234.root = 21767
root://t3dcachedb.psi.ch//pnfs/psi.ch/cms/trivcat/store/user/sleontsi/tth/LegacyRun2_2017_AH_v3/WJetsToQQ_HT400to600_qc19_3j_TuneCP5_13TeV-madgraphMLM-pythia8/LegacyRun2_2017_AH_v3/191028_150944/0000/tree_153.root = 21667
root://t3dcachedb.psi.ch//pnfs/psi.ch/cms/trivcat/store/user/sleontsi/tth/LegacyRun2_2017_AH_v3/WJetsToQQ_HT400to600_qc19_3j_TuneCP5_13TeV-madgraphMLM-pythia8/LegacyRun2_2017_AH_v3/191028_150944/0000/tree_108.root = 21761
root://t3dcachedb.psi.ch//pnfs/psi.ch/cms/trivcat/store/user/sleontsi/tth/LegacyRun2_2017_AH_v3/WJetsToQQ_HT400to600_qc19_3j_TuneCP5_13TeV-madgraphMLM-pythia8/LegacyRun2_2017_AH_v3/191028_150944/0000/tree_442.root = 21497
root://t3dcachedb.psi.ch//pnfs/psi.ch/cms/trivcat/store/user/sleontsi/tth/LegacyRun2_2017_AH_v3/WJetsToQQ_HT400to600_qc19_3j_TuneCP5_13TeV-madgraphMLM-pythia8/LegacyRun2_2017_AH_v3/191028_150944/0000/tree_361.root = 21792
root://t3dcachedb.psi.ch//pnfs/psi.ch/cms/trivcat/store/user/sleontsi/tth/LegacyRun2_2017_AH_v3/WJetsToQQ_HT400to600_qc19_3j_TuneCP5_13TeV-madgraphMLM-pythia8/LegacyRun2_2017_AH_v3/191028_150944/0000/tree_316.root = 21847
root://t3dcachedb.psi.ch//pnfs/psi.ch/cms/trivcat/store/user/sleontsi/tth/LegacyRun2_2017_AH_v3/WJetsToQQ_HT400to600_qc19_3j_TuneCP5_13TeV-madgraphMLM-pythia8/LegacyRun2_2017_AH_v3/191028_150944/0000/tree_280.root = 21697
root://t3dcachedb.psi.ch//pnfs/psi.ch/cms/trivcat/store/user/sleontsi/tth/LegacyRun2_2017_AH_v3/WJetsToQQ_HT400to600_qc19_3j_TuneCP5_13TeV-madgraphMLM-pythia8/LegacyRun2_2017_AH_v3/191028_150944/0000/tree_235.root = 21916
root://t3dcachedb.psi.ch//pnfs/psi.ch/cms/trivcat/store/user/sleontsi/tth/LegacyRun2_2017_AH_v3/WJetsToQQ_HT400to600_qc19_3j_TuneCP5_13TeV-madgraphMLM-pythia8/LegacyRun2_2017_AH_v3/191028_150944/0000/tree_154.root = 21443
root://t3dcachedb.psi.ch//pnfs/psi.ch/cms/trivcat/store/user/sleontsi/tth/LegacyRun2_2017_AH_v3/WJetsToQQ_HT400to600_qc19_3j_TuneCP5_13TeV-madgraphMLM-pythia8/LegacyRun2_2017_AH_v3/191028_150944/0000/tree_109.root = 21788
root://t3dcachedb.psi.ch//pnfs/psi.ch/cms/trivcat/store/user/sleontsi/tth/LegacyRun2_2017_AH_v3/WJetsToQQ_HT400to600_qc19_3j_TuneCP5_13TeV-madgraphMLM-pythia8/LegacyRun2_2017_AH_v3/191028_150944/0000/tree_443.root = 21697
root://t3dcachedb.psi.ch//pnfs/psi.ch/cms/trivcat/store/user/sleontsi/tth/LegacyRun2_2017_AH_v3/WJetsToQQ_HT400to600_qc19_3j_TuneCP5_13TeV-madgraphMLM-pythia8/LegacyRun2_2017_AH_v3/191028_150944/0000/tree_362.root = 21613
root://t3dcachedb.psi.ch//pnfs/psi.ch/cms/trivcat/store/user/sleontsi/tth/LegacyRun2_2017_AH_v3/WJetsToQQ_HT400to600_qc19_3j_TuneCP5_13TeV-madgraphMLM-pythia8/LegacyRun2_2017_AH_v3/191028_150944/0000/tree_317.root = 21678
root://t3dcachedb.psi.ch//pnfs/psi.ch/cms/trivcat/store/user/sleontsi/tth/LegacyRun2_2017_AH_v3/WJetsToQQ_HT400to600_qc19_3j_TuneCP5_13TeV-madgraphMLM-pythia8/LegacyRun2_2017_AH_v3/191028_150944/0000/tree_281.root = 21786
root://t3dcachedb.psi.ch//pnfs/psi.ch/cms/trivcat/store/user/sleontsi/tth/LegacyRun2_2017_AH_v3/WJetsToQQ_HT400to600_qc19_3j_TuneCP5_13TeV-madgraphMLM-pythia8/LegacyRun2_2017_AH_v3/191028_150944/0000/tree_236.root = 21843
root://t3dcachedb.psi.ch//pnfs/psi.ch/cms/trivcat/store/user/sleontsi/tth/LegacyRun2_2017_AH_v3/WJetsToQQ_HT400to600_qc19_3j_TuneCP5_13TeV-madgraphMLM-pythia8/LegacyRun2_2017_AH_v3/191028_150944/0000/tree_155.root = 21705
root://t3dcachedb.psi.ch//pnfs/psi.ch/cms/trivcat/store/user/sleontsi/tth/LegacyRun2_2017_AH_v3/WJetsToQQ_HT400to600_qc19_3j_TuneCP5_13TeV-madgraphMLM-pythia8/LegacyRun2_2017_AH_v3/191028_150944/0000/tree_444.root = 21413
root://t3dcachedb.psi.ch//pnfs/psi.ch/cms/trivcat/store/user/sleontsi/tth/LegacyRun2_2017_AH_v3/WJetsToQQ_HT400to600_qc19_3j_TuneCP5_13TeV-madgraphMLM-pythia8/LegacyRun2_2017_AH_v3/191028_150944/0000/tree_363.root = 21533
root://t3dcachedb.psi.ch//pnfs/psi.ch/cms/trivcat/store/user/sleontsi/tth/LegacyRun2_2017_AH_v3/WJetsToQQ_HT400to600_qc19_3j_TuneCP5_13TeV-madgraphMLM-pythia8/LegacyRun2_2017_AH_v3/191028_150944/0000/tree_318.root = 21690
root://t3dcachedb.psi.ch//pnfs/psi.ch/cms/trivcat/store/user/sleontsi/tth/LegacyRun2_2017_AH_v3/WJetsToQQ_HT400to600_qc19_3j_TuneCP5_13TeV-madgraphMLM-pythia8/LegacyRun2_2017_AH_v3/191028_150944/0000/tree_282.root = 21855
root://t3dcachedb.psi.ch//pnfs/psi.ch/cms/trivcat/store/user/sleontsi/tth/LegacyRun2_2017_AH_v3/WJetsToQQ_HT400to600_qc19_3j_TuneCP5_13TeV-madgraphMLM-pythia8/LegacyRun2_2017_AH_v3/191028_150944/0000/tree_237.root = 21687
root://t3dcachedb.psi.ch//pnfs/psi.ch/cms/trivcat/store/user/sleontsi/tth/LegacyRun2_2017_AH_v3/WJetsToQQ_HT400to600_qc19_3j_TuneCP5_13TeV-madgraphMLM-pythia8/LegacyRun2_2017_AH_v3/191028_150944/0000/tree_156.root = 21724
root://t3dcachedb.psi.ch//pnfs/psi.ch/cms/trivcat/store/user/sleontsi/tth/LegacyRun2_2017_AH_v3/WJetsToQQ_HT400to600_qc19_3j_TuneCP5_13TeV-madgraphMLM-pythia8/LegacyRun2_2017_AH_v3/191028_150944/0000/tree_445.root = 21665
root://t3dcachedb.psi.ch//pnfs/psi.ch/cms/trivcat/store/user/sleontsi/tth/LegacyRun2_2017_AH_v3/WJetsToQQ_HT400to600_qc19_3j_TuneCP5_13TeV-madgraphMLM-pythia8/LegacyRun2_2017_AH_v3/191028_150944/0000/tree_364.root = 21721
root://t3dcachedb.psi.ch//pnfs/psi.ch/cms/trivcat/store/user/sleontsi/tth/LegacyRun2_2017_AH_v3/WJetsToQQ_HT400to600_qc19_3j_TuneCP5_13TeV-madgraphMLM-pythia8/LegacyRun2_2017_AH_v3/191028_150944/0000/tree_319.root = 21690
root://t3dcachedb.psi.ch//pnfs/psi.ch/cms/trivcat/store/user/sleontsi/tth/LegacyRun2_2017_AH_v3/WJetsToQQ_HT400to600_qc19_3j_TuneCP5_13TeV-madgraphMLM-pythia8/LegacyRun2_2017_AH_v3/191028_150944/0000/tree_283.root = 21814
root://t3dcachedb.psi.ch//pnfs/psi.ch/cms/trivcat/store/user/sleontsi/tth/LegacyRun2_2017_AH_v3/WJetsToQQ_HT400to600_qc19_3j_TuneCP5_13TeV-madgraphMLM-pythia8/LegacyRun2_2017_AH_v3/191028_150944/0000/tree_238.root = 22080
root://t3dcachedb.psi.ch//pnfs/psi.ch/cms/trivcat/store/user/sleontsi/tth/LegacyRun2_2017_AH_v3/WJetsToQQ_HT400to600_qc19_3j_TuneCP5_13TeV-madgraphMLM-pythia8/LegacyRun2_2017_AH_v3/191028_150944/0000/tree_157.root = 21753
root://t3dcachedb.psi.ch//pnfs/psi.ch/cms/trivcat/store/user/sleontsi/tth/LegacyRun2_2017_AH_v3/WJetsToQQ_HT400to600_qc19_3j_TuneCP5_13TeV-madgraphMLM-pythia8/LegacyRun2_2017_AH_v3/191028_150944/0000/tree_446.root = 21665
root://t3dcachedb.psi.ch//pnfs/psi.ch/cms/trivcat/store/user/sleontsi/tth/LegacyRun2_2017_AH_v3/WJetsToQQ_HT400to600_qc19_3j_TuneCP5_13TeV-madgraphMLM-pythia8/LegacyRun2_2017_AH_v3/191028_150944/0000/tree_365.root = 21758
root://t3dcachedb.psi.ch//pnfs/psi.ch/cms/trivcat/store/user/sleontsi/tth/LegacyRun2_2017_AH_v3/WJetsToQQ_HT400to600_qc19_3j_TuneCP5_13TeV-madgraphMLM-pythia8/LegacyRun2_2017_AH_v3/191028_150944/0000/tree_284.root = 21620
root://t3dcachedb.psi.ch//pnfs/psi.ch/cms/trivcat/store/user/sleontsi/tth/LegacyRun2_2017_AH_v3/WJetsToQQ_HT400to600_qc19_3j_TuneCP5_13TeV-madgraphMLM-pythia8/LegacyRun2_2017_AH_v3/191028_150944/0000/tree_239.root = 21662
root://t3dcachedb.psi.ch//pnfs/psi.ch/cms/trivcat/store/user/sleontsi/tth/LegacyRun2_2017_AH_v3/WJetsToQQ_HT400to600_qc19_3j_TuneCP5_13TeV-madgraphMLM-pythia8/LegacyRun2_2017_AH_v3/191028_150944/0000/tree_158.root = 21734
root://t3dcachedb.psi.ch//pnfs/psi.ch/cms/trivcat/store/user/sleontsi/tth/LegacyRun2_2017_AH_v3/WJetsToQQ_HT400to600_qc19_3j_TuneCP5_13TeV-madgraphMLM-pythia8/LegacyRun2_2017_AH_v3/191028_150944/0000/tree_447.root = 21703
root://t3dcachedb.psi.ch//pnfs/psi.ch/cms/trivcat/store/user/sleontsi/tth/LegacyRun2_2017_AH_v3/WJetsToQQ_HT400to600_qc19_3j_TuneCP5_13TeV-madgraphMLM-pythia8/LegacyRun2_2017_AH_v3/191028_150944/0000/tree_366.root = 21641
root://t3dcachedb.psi.ch//pnfs/psi.ch/cms/trivcat/store/user/sleontsi/tth/LegacyRun2_2017_AH_v3/WJetsToQQ_HT400to600_qc19_3j_TuneCP5_13TeV-madgraphMLM-pythia8/LegacyRun2_2017_AH_v3/191028_150944/0000/tree_285.root = 21713
root://t3dcachedb.psi.ch//pnfs/psi.ch/cms/trivcat/store/user/sleontsi/tth/LegacyRun2_2017_AH_v3/WJetsToQQ_HT400to600_qc19_3j_TuneCP5_13TeV-madgraphMLM-pythia8/LegacyRun2_2017_AH_v3/191028_150944/0000/tree_159.root = 21663
root://t3dcachedb.psi.ch//pnfs/psi.ch/cms/trivcat/store/user/sleontsi/tth/LegacyRun2_2017_AH_v3/WJetsToQQ_HT400to600_qc19_3j_TuneCP5_13TeV-madgraphMLM-pythia8/LegacyRun2_2017_AH_v3/191028_150944/0000/tree_448.root = 21885
root://t3dcachedb.psi.ch//pnfs/psi.ch/cms/trivcat/store/user/sleontsi/tth/LegacyRun2_2017_AH_v3/WJetsToQQ_HT400to600_qc19_3j_TuneCP5_13TeV-madgraphMLM-pythia8/LegacyRun2_2017_AH_v3/191028_150944/0000/tree_367.root = 21804
root://t3dcachedb.psi.ch//pnfs/psi.ch/cms/trivcat/store/user/sleontsi/tth/LegacyRun2_2017_AH_v3/WJetsToQQ_HT400to600_qc19_3j_TuneCP5_13TeV-madgraphMLM-pythia8/LegacyRun2_2017_AH_v3/191028_150944/0000/tree_286.root = 21617
root://t3dcachedb.psi.ch//pnfs/psi.ch/cms/trivcat/store/user/sleontsi/tth/LegacyRun2_2017_AH_v3/WJetsToQQ_HT400to600_qc19_3j_TuneCP5_13TeV-madgraphMLM-pythia8/LegacyRun2_2017_AH_v3/191028_150944/0000/tree_20.root = 21864
root://t3dcachedb.psi.ch//pnfs/psi.ch/cms/trivcat/store/user/sleontsi/tth/LegacyRun2_2017_AH_v3/WJetsToQQ_HT400to600_qc19_3j_TuneCP5_13TeV-madgraphMLM-pythia8/LegacyRun2_2017_AH_v3/191028_150944/0000/tree_449.root = 14053
root://t3dcachedb.psi.ch//pnfs/psi.ch/cms/trivcat/store/user/sleontsi/tth/LegacyRun2_2017_AH_v3/WJetsToQQ_HT400to600_qc19_3j_TuneCP5_13TeV-madgraphMLM-pythia8/LegacyRun2_2017_AH_v3/191028_150944/0000/tree_368.root = 21457
root://t3dcachedb.psi.ch//pnfs/psi.ch/cms/trivcat/store/user/sleontsi/tth/LegacyRun2_2017_AH_v3/WJetsToQQ_HT400to600_qc19_3j_TuneCP5_13TeV-madgraphMLM-pythia8/LegacyRun2_2017_AH_v3/191028_150944/0000/tree_287.root = 21547
root://t3dcachedb.psi.ch//pnfs/psi.ch/cms/trivcat/store/user/sleontsi/tth/LegacyRun2_2017_AH_v3/WJetsToQQ_HT400to600_qc19_3j_TuneCP5_13TeV-madgraphMLM-pythia8/LegacyRun2_2017_AH_v3/191028_150944/0000/tree_21.root = 21746
root://t3dcachedb.psi.ch//pnfs/psi.ch/cms/trivcat/store/user/sleontsi/tth/LegacyRun2_2017_AH_v3/WJetsToQQ_HT400to600_qc19_3j_TuneCP5_13TeV-madgraphMLM-pythia8/LegacyRun2_2017_AH_v3/191028_150944/0000/tree_369.root = 21822
root://t3dcachedb.psi.ch//pnfs/psi.ch/cms/trivcat/store/user/sleontsi/tth/LegacyRun2_2017_AH_v3/WJetsToQQ_HT400to600_qc19_3j_TuneCP5_13TeV-madgraphMLM-pythia8/LegacyRun2_2017_AH_v3/191028_150944/0000/tree_288.root = 21934
root://t3dcachedb.psi.ch//pnfs/psi.ch/cms/trivcat/store/user/sleontsi/tth/LegacyRun2_2017_AH_v3/WJetsToQQ_HT400to600_qc19_3j_TuneCP5_13TeV-madgraphMLM-pythia8/LegacyRun2_2017_AH_v3/191028_150944/0000/tree_22.root = 21704
root://t3dcachedb.psi.ch//pnfs/psi.ch/cms/trivcat/store/user/sleontsi/tth/LegacyRun2_2017_AH_v3/WJetsToQQ_HT400to600_qc19_3j_TuneCP5_13TeV-madgraphMLM-pythia8/LegacyRun2_2017_AH_v3/191028_150944/0000/tree_289.root = 21798
root://t3dcachedb.psi.ch//pnfs/psi.ch/cms/trivcat/store/user/sleontsi/tth/LegacyRun2_2017_AH_v3/WJetsToQQ_HT400to600_qc19_3j_TuneCP5_13TeV-madgraphMLM-pythia8/LegacyRun2_2017_AH_v3/191028_150944/0000/tree_23.root = 21682
root://t3dcachedb.psi.ch//pnfs/psi.ch/cms/trivcat/store/user/sleontsi/tth/LegacyRun2_2017_AH_v3/WJetsToQQ_HT400to600_qc19_3j_TuneCP5_13TeV-madgraphMLM-pythia8/LegacyRun2_2017_AH_v3/191028_150944/0000/tree_24.root = 21623
root://t3dcachedb.psi.ch//pnfs/psi.ch/cms/trivcat/store/user/sleontsi/tth/LegacyRun2_2017_AH_v3/WJetsToQQ_HT400to600_qc19_3j_TuneCP5_13TeV-madgraphMLM-pythia8/LegacyRun2_2017_AH_v3/191028_150944/0000/tree_70.root = 21559
root://t3dcachedb.psi.ch//pnfs/psi.ch/cms/trivcat/store/user/sleontsi/tth/LegacyRun2_2017_AH_v3/WJetsToQQ_HT400to600_qc19_3j_TuneCP5_13TeV-madgraphMLM-pythia8/LegacyRun2_2017_AH_v3/191028_150944/0000/tree_25.root = 21819
root://t3dcachedb.psi.ch//pnfs/psi.ch/cms/trivcat/store/user/sleontsi/tth/LegacyRun2_2017_AH_v3/WJetsToQQ_HT400to600_qc19_3j_TuneCP5_13TeV-madgraphMLM-pythia8/LegacyRun2_2017_AH_v3/191028_150944/0000/tree_71.root = 21816
root://t3dcachedb.psi.ch//pnfs/psi.ch/cms/trivcat/store/user/sleontsi/tth/LegacyRun2_2017_AH_v3/WJetsToQQ_HT400to600_qc19_3j_TuneCP5_13TeV-madgraphMLM-pythia8/LegacyRun2_2017_AH_v3/191028_150944/0000/tree_26.root = 21794
root://t3dcachedb.psi.ch//pnfs/psi.ch/cms/trivcat/store/user/sleontsi/tth/LegacyRun2_2017_AH_v3/WJetsToQQ_HT400to600_qc19_3j_TuneCP5_13TeV-madgraphMLM-pythia8/LegacyRun2_2017_AH_v3/191028_150944/0000/tree_72.root = 21858
root://t3dcachedb.psi.ch//pnfs/psi.ch/cms/trivcat/store/user/sleontsi/tth/LegacyRun2_2017_AH_v3/WJetsToQQ_HT400to600_qc19_3j_TuneCP5_13TeV-madgraphMLM-pythia8/LegacyRun2_2017_AH_v3/191028_150944/0000/tree_27.root = 21615
root://t3dcachedb.psi.ch//pnfs/psi.ch/cms/trivcat/store/user/sleontsi/tth/LegacyRun2_2017_AH_v3/WJetsToQQ_HT400to600_qc19_3j_TuneCP5_13TeV-madgraphMLM-pythia8/LegacyRun2_2017_AH_v3/191028_150944/0000/tree_73.root = 21587
root://t3dcachedb.psi.ch//pnfs/psi.ch/cms/trivcat/store/user/sleontsi/tth/LegacyRun2_2017_AH_v3/WJetsToQQ_HT400to600_qc19_3j_TuneCP5_13TeV-madgraphMLM-pythia8/LegacyRun2_2017_AH_v3/191028_150944/0000/tree_28.root = 21914
root://t3dcachedb.psi.ch//pnfs/psi.ch/cms/trivcat/store/user/sleontsi/tth/LegacyRun2_2017_AH_v3/WJetsToQQ_HT400to600_qc19_3j_TuneCP5_13TeV-madgraphMLM-pythia8/LegacyRun2_2017_AH_v3/191028_150944/0000/tree_74.root = 21773
root://t3dcachedb.psi.ch//pnfs/psi.ch/cms/trivcat/store/user/sleontsi/tth/LegacyRun2_2017_AH_v3/WJetsToQQ_HT400to600_qc19_3j_TuneCP5_13TeV-madgraphMLM-pythia8/LegacyRun2_2017_AH_v3/191028_150944/0000/tree_29.root = 21938
root://t3dcachedb.psi.ch//pnfs/psi.ch/cms/trivcat/store/user/sleontsi/tth/LegacyRun2_2017_AH_v3/WJetsToQQ_HT400to600_qc19_3j_TuneCP5_13TeV-madgraphMLM-pythia8/LegacyRun2_2017_AH_v3/191028_150944/0000/tree_75.root = 21618
root://t3dcachedb.psi.ch//pnfs/psi.ch/cms/trivcat/store/user/sleontsi/tth/LegacyRun2_2017_AH_v3/WJetsToQQ_HT400to600_qc19_3j_TuneCP5_13TeV-madgraphMLM-pythia8/LegacyRun2_2017_AH_v3/191028_150944/0000/tree_76.root = 21607
root://t3dcachedb.psi.ch//pnfs/psi.ch/cms/trivcat/store/user/sleontsi/tth/LegacyRun2_2017_AH_v3/WJetsToQQ_HT400to600_qc19_3j_TuneCP5_13TeV-madgraphMLM-pythia8/LegacyRun2_2017_AH_v3/191028_150944/0000/tree_77.root = 21592
root://t3dcachedb.psi.ch//pnfs/psi.ch/cms/trivcat/store/user/sleontsi/tth/LegacyRun2_2017_AH_v3/WJetsToQQ_HT400to600_qc19_3j_TuneCP5_13TeV-madgraphMLM-pythia8/LegacyRun2_2017_AH_v3/191028_150944/0000/tree_78.root = 21666
root://t3dcachedb.psi.ch//pnfs/psi.ch/cms/trivcat/store/user/sleontsi/tth/LegacyRun2_2017_AH_v3/WJetsToQQ_HT400to600_qc19_3j_TuneCP5_13TeV-madgraphMLM-pythia8/LegacyRun2_2017_AH_v3/191028_150944/0000/tree_79.root = 21847
root://t3dcachedb.psi.ch//pnfs/psi.ch/cms/trivcat/store/user/sleontsi/tth/LegacyRun2_2017_AH_v3/WJetsToQQ_HT400to600_qc19_3j_TuneCP5_13TeV-madgraphMLM-pythia8/LegacyRun2_2017_AH_v3/191028_150944/0000/tree_110.root = 21607
root://t3dcachedb.psi.ch//pnfs/psi.ch/cms/trivcat/store/user/sleontsi/tth/LegacyRun2_2017_AH_v3/WJetsToQQ_HT400to600_qc19_3j_TuneCP5_13TeV-madgraphMLM-pythia8/LegacyRun2_2017_AH_v3/191028_150944/0000/tree_111.root = 21801
root://t3dcachedb.psi.ch//pnfs/psi.ch/cms/trivcat/store/user/sleontsi/tth/LegacyRun2_2017_AH_v3/WJetsToQQ_HT400to600_qc19_3j_TuneCP5_13TeV-madgraphMLM-pythia8/LegacyRun2_2017_AH_v3/191028_150944/0000/tree_400.root = 21577
root://t3dcachedb.psi.ch//pnfs/psi.ch/cms/trivcat/store/user/sleontsi/tth/LegacyRun2_2017_AH_v3/WJetsToQQ_HT400to600_qc19_3j_TuneCP5_13TeV-madgraphMLM-pythia8/LegacyRun2_2017_AH_v3/191028_150944/0000/tree_112.root = 21532
