[ZZ_TuneCP5_13TeV-pythia8]
root://t3dcachedb.psi.ch//pnfs/psi.ch/cms/trivcat/store/user/koschwei/tth/LegacyRun2_2018_AH_v3p3/ZZ_TuneCP5_13TeV-pythia8/LegacyRun2_2018_AH_v3p3/200211_153715/0000/tree_10.root = 98000
root://t3dcachedb.psi.ch//pnfs/psi.ch/cms/trivcat/store/user/koschwei/tth/LegacyRun2_2018_AH_v3p3/ZZ_TuneCP5_13TeV-pythia8/LegacyRun2_2018_AH_v3p3/200211_153715/0000/tree_11.root = 98000
root://t3dcachedb.psi.ch//pnfs/psi.ch/cms/trivcat/store/user/koschwei/tth/LegacyRun2_2018_AH_v3p3/ZZ_TuneCP5_13TeV-pythia8/LegacyRun2_2018_AH_v3p3/200211_153715/0000/tree_12.root = 98000
root://t3dcachedb.psi.ch//pnfs/psi.ch/cms/trivcat/store/user/koschwei/tth/LegacyRun2_2018_AH_v3p3/ZZ_TuneCP5_13TeV-pythia8/LegacyRun2_2018_AH_v3p3/200211_153715/0000/tree_13.root = 98000
root://t3dcachedb.psi.ch//pnfs/psi.ch/cms/trivcat/store/user/koschwei/tth/LegacyRun2_2018_AH_v3p3/ZZ_TuneCP5_13TeV-pythia8/LegacyRun2_2018_AH_v3p3/200211_153715/0000/tree_14.root = 98000
root://t3dcachedb.psi.ch//pnfs/psi.ch/cms/trivcat/store/user/koschwei/tth/LegacyRun2_2018_AH_v3p3/ZZ_TuneCP5_13TeV-pythia8/LegacyRun2_2018_AH_v3p3/200211_153715/0000/tree_1.root = 98000
root://t3dcachedb.psi.ch//pnfs/psi.ch/cms/trivcat/store/user/koschwei/tth/LegacyRun2_2018_AH_v3p3/ZZ_TuneCP5_13TeV-pythia8/LegacyRun2_2018_AH_v3p3/200211_153715/0000/tree_15.root = 98000
root://t3dcachedb.psi.ch//pnfs/psi.ch/cms/trivcat/store/user/koschwei/tth/LegacyRun2_2018_AH_v3p3/ZZ_TuneCP5_13TeV-pythia8/LegacyRun2_2018_AH_v3p3/200211_153715/0000/tree_2.root = 98000
root://t3dcachedb.psi.ch//pnfs/psi.ch/cms/trivcat/store/user/koschwei/tth/LegacyRun2_2018_AH_v3p3/ZZ_TuneCP5_13TeV-pythia8/LegacyRun2_2018_AH_v3p3/200211_153715/0000/tree_16.root = 98000
root://t3dcachedb.psi.ch//pnfs/psi.ch/cms/trivcat/store/user/koschwei/tth/LegacyRun2_2018_AH_v3p3/ZZ_TuneCP5_13TeV-pythia8/LegacyRun2_2018_AH_v3p3/200211_153715/0000/tree_3.root = 98000
root://t3dcachedb.psi.ch//pnfs/psi.ch/cms/trivcat/store/user/koschwei/tth/LegacyRun2_2018_AH_v3p3/ZZ_TuneCP5_13TeV-pythia8/LegacyRun2_2018_AH_v3p3/200211_153715/0000/tree_17.root = 98000
root://t3dcachedb.psi.ch//pnfs/psi.ch/cms/trivcat/store/user/koschwei/tth/LegacyRun2_2018_AH_v3p3/ZZ_TuneCP5_13TeV-pythia8/LegacyRun2_2018_AH_v3p3/200211_153715/0000/tree_4.root = 98000
root://t3dcachedb.psi.ch//pnfs/psi.ch/cms/trivcat/store/user/koschwei/tth/LegacyRun2_2018_AH_v3p3/ZZ_TuneCP5_13TeV-pythia8/LegacyRun2_2018_AH_v3p3/200211_153715/0000/tree_18.root = 98000
root://t3dcachedb.psi.ch//pnfs/psi.ch/cms/trivcat/store/user/koschwei/tth/LegacyRun2_2018_AH_v3p3/ZZ_TuneCP5_13TeV-pythia8/LegacyRun2_2018_AH_v3p3/200211_153715/0000/tree_5.root = 98000
root://t3dcachedb.psi.ch//pnfs/psi.ch/cms/trivcat/store/user/koschwei/tth/LegacyRun2_2018_AH_v3p3/ZZ_TuneCP5_13TeV-pythia8/LegacyRun2_2018_AH_v3p3/200211_153715/0000/tree_19.root = 98000
root://t3dcachedb.psi.ch//pnfs/psi.ch/cms/trivcat/store/user/koschwei/tth/LegacyRun2_2018_AH_v3p3/ZZ_TuneCP5_13TeV-pythia8/LegacyRun2_2018_AH_v3p3/200211_153715/0000/tree_6.root = 98000
root://t3dcachedb.psi.ch//pnfs/psi.ch/cms/trivcat/store/user/koschwei/tth/LegacyRun2_2018_AH_v3p3/ZZ_TuneCP5_13TeV-pythia8/LegacyRun2_2018_AH_v3p3/200211_153715/0000/tree_7.root = 98000
root://t3dcachedb.psi.ch//pnfs/psi.ch/cms/trivcat/store/user/koschwei/tth/LegacyRun2_2018_AH_v3p3/ZZ_TuneCP5_13TeV-pythia8/LegacyRun2_2018_AH_v3p3/200211_153715/0000/tree_8.root = 98000
root://t3dcachedb.psi.ch//pnfs/psi.ch/cms/trivcat/store/user/koschwei/tth/LegacyRun2_2018_AH_v3p3/ZZ_TuneCP5_13TeV-pythia8/LegacyRun2_2018_AH_v3p3/200211_153715/0000/tree_9.root = 98000
root://t3dcachedb.psi.ch//pnfs/psi.ch/cms/trivcat/store/user/koschwei/tth/LegacyRun2_2018_AH_v3p3/ZZ_TuneCP5_13TeV-pythia8/LegacyRun2_2018_AH_v3p3/200211_153715/0000/tree_21.root = 21000
