[ZZ_TuneCUETP8M1_13TeV-pythia8]
root://t3dcachedb.psi.ch//pnfs/psi.ch/cms/trivcat/store/user/pbaertsc/tth/LegacyRun2_2016_AH_v3/ZZ_TuneCUETP8M1_13TeV-pythia8/LegacyRun2_2016_AH_v3/191030_132345/0000/tree_10.root = 73616
root://t3dcachedb.psi.ch//pnfs/psi.ch/cms/trivcat/store/user/pbaertsc/tth/LegacyRun2_2016_AH_v3/ZZ_TuneCUETP8M1_13TeV-pythia8/LegacyRun2_2016_AH_v3/191030_132345/0000/tree_11.root = 73616
root://t3dcachedb.psi.ch//pnfs/psi.ch/cms/trivcat/store/user/pbaertsc/tth/LegacyRun2_2016_AH_v3/ZZ_TuneCUETP8M1_13TeV-pythia8/LegacyRun2_2016_AH_v3/191030_132345/0000/tree_12.root = 73640
root://t3dcachedb.psi.ch//pnfs/psi.ch/cms/trivcat/store/user/pbaertsc/tth/LegacyRun2_2016_AH_v3/ZZ_TuneCUETP8M1_13TeV-pythia8/LegacyRun2_2016_AH_v3/191030_132345/0000/tree_13.root = 74192
root://t3dcachedb.psi.ch//pnfs/psi.ch/cms/trivcat/store/user/pbaertsc/tth/LegacyRun2_2016_AH_v3/ZZ_TuneCUETP8M1_13TeV-pythia8/LegacyRun2_2016_AH_v3/191030_132345/0000/tree_14.root = 30496
root://t3dcachedb.psi.ch//pnfs/psi.ch/cms/trivcat/store/user/pbaertsc/tth/LegacyRun2_2016_AH_v3/ZZ_TuneCUETP8M1_13TeV-pythia8/LegacyRun2_2016_AH_v3/191030_132345/0000/tree_1.root = 73712
root://t3dcachedb.psi.ch//pnfs/psi.ch/cms/trivcat/store/user/pbaertsc/tth/LegacyRun2_2016_AH_v3/ZZ_TuneCUETP8M1_13TeV-pythia8/LegacyRun2_2016_AH_v3/191030_132345/0000/tree_15.root = 3208
root://t3dcachedb.psi.ch//pnfs/psi.ch/cms/trivcat/store/user/pbaertsc/tth/LegacyRun2_2016_AH_v3/ZZ_TuneCUETP8M1_13TeV-pythia8/LegacyRun2_2016_AH_v3/191030_132345/0000/tree_2.root = 73520
root://t3dcachedb.psi.ch//pnfs/psi.ch/cms/trivcat/store/user/pbaertsc/tth/LegacyRun2_2016_AH_v3/ZZ_TuneCUETP8M1_13TeV-pythia8/LegacyRun2_2016_AH_v3/191030_132345/0000/tree_3.root = 73376
root://t3dcachedb.psi.ch//pnfs/psi.ch/cms/trivcat/store/user/pbaertsc/tth/LegacyRun2_2016_AH_v3/ZZ_TuneCUETP8M1_13TeV-pythia8/LegacyRun2_2016_AH_v3/191030_132345/0000/tree_4.root = 73328
root://t3dcachedb.psi.ch//pnfs/psi.ch/cms/trivcat/store/user/pbaertsc/tth/LegacyRun2_2016_AH_v3/ZZ_TuneCUETP8M1_13TeV-pythia8/LegacyRun2_2016_AH_v3/191030_132345/0000/tree_5.root = 73184
root://t3dcachedb.psi.ch//pnfs/psi.ch/cms/trivcat/store/user/pbaertsc/tth/LegacyRun2_2016_AH_v3/ZZ_TuneCUETP8M1_13TeV-pythia8/LegacyRun2_2016_AH_v3/191030_132345/0000/tree_6.root = 73520
root://t3dcachedb.psi.ch//pnfs/psi.ch/cms/trivcat/store/user/pbaertsc/tth/LegacyRun2_2016_AH_v3/ZZ_TuneCUETP8M1_13TeV-pythia8/LegacyRun2_2016_AH_v3/191030_132345/0000/tree_7.root = 73568
root://t3dcachedb.psi.ch//pnfs/psi.ch/cms/trivcat/store/user/pbaertsc/tth/LegacyRun2_2016_AH_v3/ZZ_TuneCUETP8M1_13TeV-pythia8/LegacyRun2_2016_AH_v3/191030_132345/0000/tree_8.root = 73568
root://t3dcachedb.psi.ch//pnfs/psi.ch/cms/trivcat/store/user/pbaertsc/tth/LegacyRun2_2016_AH_v3/ZZ_TuneCUETP8M1_13TeV-pythia8/LegacyRun2_2016_AH_v3/191030_132345/0000/tree_9.root = 73520
root://t3dcachedb.psi.ch//pnfs/psi.ch/cms/trivcat/store/user/pbaertsc/tth/LegacyRun2_2016_AH_v3/ZZ_TuneCUETP8M1_13TeV-pythia8/LegacyRun2_2016_AH_v3/191030_133405/0000/tree_10.root = 78640
root://t3dcachedb.psi.ch//pnfs/psi.ch/cms/trivcat/store/user/pbaertsc/tth/LegacyRun2_2016_AH_v3/ZZ_TuneCUETP8M1_13TeV-pythia8/LegacyRun2_2016_AH_v3/191030_133405/0000/tree_11.root = 78640
root://t3dcachedb.psi.ch//pnfs/psi.ch/cms/trivcat/store/user/pbaertsc/tth/LegacyRun2_2016_AH_v3/ZZ_TuneCUETP8M1_13TeV-pythia8/LegacyRun2_2016_AH_v3/191030_133405/0000/tree_12.root = 78640
root://t3dcachedb.psi.ch//pnfs/psi.ch/cms/trivcat/store/user/pbaertsc/tth/LegacyRun2_2016_AH_v3/ZZ_TuneCUETP8M1_13TeV-pythia8/LegacyRun2_2016_AH_v3/191030_133405/0000/tree_13.root = 54354
root://t3dcachedb.psi.ch//pnfs/psi.ch/cms/trivcat/store/user/pbaertsc/tth/LegacyRun2_2016_AH_v3/ZZ_TuneCUETP8M1_13TeV-pythia8/LegacyRun2_2016_AH_v3/191030_133405/0000/tree_1.root = 78640
root://t3dcachedb.psi.ch//pnfs/psi.ch/cms/trivcat/store/user/pbaertsc/tth/LegacyRun2_2016_AH_v3/ZZ_TuneCUETP8M1_13TeV-pythia8/LegacyRun2_2016_AH_v3/191030_133405/0000/tree_2.root = 78640
root://t3dcachedb.psi.ch//pnfs/psi.ch/cms/trivcat/store/user/pbaertsc/tth/LegacyRun2_2016_AH_v3/ZZ_TuneCUETP8M1_13TeV-pythia8/LegacyRun2_2016_AH_v3/191030_133405/0000/tree_3.root = 78640
root://t3dcachedb.psi.ch//pnfs/psi.ch/cms/trivcat/store/user/pbaertsc/tth/LegacyRun2_2016_AH_v3/ZZ_TuneCUETP8M1_13TeV-pythia8/LegacyRun2_2016_AH_v3/191030_133405/0000/tree_4.root = 78640
root://t3dcachedb.psi.ch//pnfs/psi.ch/cms/trivcat/store/user/pbaertsc/tth/LegacyRun2_2016_AH_v3/ZZ_TuneCUETP8M1_13TeV-pythia8/LegacyRun2_2016_AH_v3/191030_133405/0000/tree_5.root = 78640
root://t3dcachedb.psi.ch//pnfs/psi.ch/cms/trivcat/store/user/pbaertsc/tth/LegacyRun2_2016_AH_v3/ZZ_TuneCUETP8M1_13TeV-pythia8/LegacyRun2_2016_AH_v3/191030_133405/0000/tree_6.root = 78640
root://t3dcachedb.psi.ch//pnfs/psi.ch/cms/trivcat/store/user/pbaertsc/tth/LegacyRun2_2016_AH_v3/ZZ_TuneCUETP8M1_13TeV-pythia8/LegacyRun2_2016_AH_v3/191030_133405/0000/tree_7.root = 78640
root://t3dcachedb.psi.ch//pnfs/psi.ch/cms/trivcat/store/user/pbaertsc/tth/LegacyRun2_2016_AH_v3/ZZ_TuneCUETP8M1_13TeV-pythia8/LegacyRun2_2016_AH_v3/191030_133405/0000/tree_8.root = 78640
root://t3dcachedb.psi.ch//pnfs/psi.ch/cms/trivcat/store/user/pbaertsc/tth/LegacyRun2_2016_AH_v3/ZZ_TuneCUETP8M1_13TeV-pythia8/LegacyRun2_2016_AH_v3/191030_133405/0000/tree_9.root = 78640
