[ZZ_TuneCP5_13TeV-pythia8]
root://t3dcachedb.psi.ch//pnfs/psi.ch/cms/trivcat/store/user/koschwei/tth/ttH_AH_v5/ZZ_TuneCP5_13TeV-pythia8/ttH_AH_v5/181226_111403/0000/tree_31.root = 42069
root://t3dcachedb.psi.ch//pnfs/psi.ch/cms/trivcat/store/user/koschwei/tth/ttH_AH_v5/ZZ_TuneCP5_13TeV-pythia8/ttH_AH_v5/181226_111403/0000/tree_37.root = 44953
root://t3dcachedb.psi.ch//pnfs/psi.ch/cms/trivcat/store/user/koschwei/tth/ttH_AH_v5/ZZ_TuneCP5_13TeV-pythia8/ttH_AH_v5/181226_111403/0000/tree_38.root = 46395
root://t3dcachedb.psi.ch//pnfs/psi.ch/cms/trivcat/store/user/koschwei/tth/ttH_AH_v5/ZZ_TuneCP5_13TeV-pythia8/ttH_AH_v5/181226_111403/0000/tree_41.root = 42790
root://t3dcachedb.psi.ch//pnfs/psi.ch/cms/trivcat/store/user/koschwei/tth/ttH_AH_v5/ZZ_TuneCP5_13TeV-pythia8/ttH_AH_v5/181226_111403/0000/tree_44.root = 21837
root://t3dcachedb.psi.ch//pnfs/psi.ch/cms/trivcat/store/user/koschwei/tth/ttH_AH_v5/ZZ_TuneCP5_13TeV-pythia8/ttH_AH_v5/181226_111403/0000/tree_32.root = 47116
root://t3dcachedb.psi.ch//pnfs/psi.ch/cms/trivcat/store/user/koschwei/tth/ttH_AH_v5/ZZ_TuneCP5_13TeV-pythia8/ttH_AH_v5/181226_111403/0000/tree_42.root = 44952
root://t3dcachedb.psi.ch//pnfs/psi.ch/cms/trivcat/store/user/koschwei/tth/ttH_AH_v5/ZZ_TuneCP5_13TeV-pythia8/ttH_AH_v5/181226_111403/0000/tree_43.root = 44953
root://t3dcachedb.psi.ch//pnfs/psi.ch/cms/trivcat/store/user/koschwei/tth/ttH_AH_v5/ZZ_TuneCP5_13TeV-pythia8/ttH_AH_v5/181226_111403/0000/tree_34.root = 45674
root://t3dcachedb.psi.ch//pnfs/psi.ch/cms/trivcat/store/user/koschwei/tth/ttH_AH_v5/ZZ_TuneCP5_13TeV-pythia8/ttH_AH_v5/181226_111403/0000/tree_40.root = 44953
root://t3dcachedb.psi.ch//pnfs/psi.ch/cms/trivcat/store/user/koschwei/tth/ttH_AH_v5/ZZ_TuneCP5_13TeV-pythia8/ttH_AH_v5/181226_111403/0000/tree_39.root = 44232
root://t3dcachedb.psi.ch//pnfs/psi.ch/cms/trivcat/store/user/koschwei/tth/ttH_AH_v5/ZZ_TuneCP5_13TeV-pythia8/ttH_AH_v5/181226_111403/0000/tree_30.root = 46395
root://t3dcachedb.psi.ch//pnfs/psi.ch/cms/trivcat/store/user/koschwei/tth/ttH_AH_v5/ZZ_TuneCP5_13TeV-pythia8/ttH_AH_v5/181226_111403/0000/tree_33.root = 45674
root://t3dcachedb.psi.ch//pnfs/psi.ch/cms/trivcat/store/user/koschwei/tth/ttH_AH_v5/ZZ_TuneCP5_13TeV-pythia8/ttH_AH_v5/181226_111403/0000/tree_35.root = 44953
root://t3dcachedb.psi.ch//pnfs/psi.ch/cms/trivcat/store/user/koschwei/tth/ttH_AH_v5/ZZ_TuneCP5_13TeV-pythia8/ttH_AH_v5/181226_111403/0000/tree_10.root = 44232
root://t3dcachedb.psi.ch//pnfs/psi.ch/cms/trivcat/store/user/koschwei/tth/ttH_AH_v5/ZZ_TuneCP5_13TeV-pythia8/ttH_AH_v5/181226_111403/0000/tree_11.root = 44953
root://t3dcachedb.psi.ch//pnfs/psi.ch/cms/trivcat/store/user/koschwei/tth/ttH_AH_v5/ZZ_TuneCP5_13TeV-pythia8/ttH_AH_v5/181226_111403/0000/tree_12.root = 45674
root://t3dcachedb.psi.ch//pnfs/psi.ch/cms/trivcat/store/user/koschwei/tth/ttH_AH_v5/ZZ_TuneCP5_13TeV-pythia8/ttH_AH_v5/181226_111403/0000/tree_13.root = 44953
root://t3dcachedb.psi.ch//pnfs/psi.ch/cms/trivcat/store/user/koschwei/tth/ttH_AH_v5/ZZ_TuneCP5_13TeV-pythia8/ttH_AH_v5/181226_111403/0000/tree_14.root = 45674
root://t3dcachedb.psi.ch//pnfs/psi.ch/cms/trivcat/store/user/koschwei/tth/ttH_AH_v5/ZZ_TuneCP5_13TeV-pythia8/ttH_AH_v5/181226_111403/0000/tree_1.root = 44953
root://t3dcachedb.psi.ch//pnfs/psi.ch/cms/trivcat/store/user/koschwei/tth/ttH_AH_v5/ZZ_TuneCP5_13TeV-pythia8/ttH_AH_v5/181226_111403/0000/tree_15.root = 44232
root://t3dcachedb.psi.ch//pnfs/psi.ch/cms/trivcat/store/user/koschwei/tth/ttH_AH_v5/ZZ_TuneCP5_13TeV-pythia8/ttH_AH_v5/181226_111403/0000/tree_2.root = 45674
root://t3dcachedb.psi.ch//pnfs/psi.ch/cms/trivcat/store/user/koschwei/tth/ttH_AH_v5/ZZ_TuneCP5_13TeV-pythia8/ttH_AH_v5/181226_111403/0000/tree_16.root = 44953
root://t3dcachedb.psi.ch//pnfs/psi.ch/cms/trivcat/store/user/koschwei/tth/ttH_AH_v5/ZZ_TuneCP5_13TeV-pythia8/ttH_AH_v5/181226_111403/0000/tree_3.root = 44232
root://t3dcachedb.psi.ch//pnfs/psi.ch/cms/trivcat/store/user/koschwei/tth/ttH_AH_v5/ZZ_TuneCP5_13TeV-pythia8/ttH_AH_v5/181226_111403/0000/tree_17.root = 44953
root://t3dcachedb.psi.ch//pnfs/psi.ch/cms/trivcat/store/user/koschwei/tth/ttH_AH_v5/ZZ_TuneCP5_13TeV-pythia8/ttH_AH_v5/181226_111403/0000/tree_4.root = 45674
root://t3dcachedb.psi.ch//pnfs/psi.ch/cms/trivcat/store/user/koschwei/tth/ttH_AH_v5/ZZ_TuneCP5_13TeV-pythia8/ttH_AH_v5/181226_111403/0000/tree_18.root = 45674
root://t3dcachedb.psi.ch//pnfs/psi.ch/cms/trivcat/store/user/koschwei/tth/ttH_AH_v5/ZZ_TuneCP5_13TeV-pythia8/ttH_AH_v5/181226_111403/0000/tree_5.root = 44232
root://t3dcachedb.psi.ch//pnfs/psi.ch/cms/trivcat/store/user/koschwei/tth/ttH_AH_v5/ZZ_TuneCP5_13TeV-pythia8/ttH_AH_v5/181226_111403/0000/tree_19.root = 43511
root://t3dcachedb.psi.ch//pnfs/psi.ch/cms/trivcat/store/user/koschwei/tth/ttH_AH_v5/ZZ_TuneCP5_13TeV-pythia8/ttH_AH_v5/181226_111403/0000/tree_6.root = 42790
root://t3dcachedb.psi.ch//pnfs/psi.ch/cms/trivcat/store/user/koschwei/tth/ttH_AH_v5/ZZ_TuneCP5_13TeV-pythia8/ttH_AH_v5/181226_111403/0000/tree_7.root = 45674
root://t3dcachedb.psi.ch//pnfs/psi.ch/cms/trivcat/store/user/koschwei/tth/ttH_AH_v5/ZZ_TuneCP5_13TeV-pythia8/ttH_AH_v5/181226_111403/0000/tree_8.root = 45674
root://t3dcachedb.psi.ch//pnfs/psi.ch/cms/trivcat/store/user/koschwei/tth/ttH_AH_v5/ZZ_TuneCP5_13TeV-pythia8/ttH_AH_v5/181226_111403/0000/tree_9.root = 45674
root://t3dcachedb.psi.ch//pnfs/psi.ch/cms/trivcat/store/user/koschwei/tth/ttH_AH_v5/ZZ_TuneCP5_13TeV-pythia8/ttH_AH_v5/181226_111403/0000/tree_20.root = 44953
root://t3dcachedb.psi.ch//pnfs/psi.ch/cms/trivcat/store/user/koschwei/tth/ttH_AH_v5/ZZ_TuneCP5_13TeV-pythia8/ttH_AH_v5/181226_111403/0000/tree_22.root = 40627
root://t3dcachedb.psi.ch//pnfs/psi.ch/cms/trivcat/store/user/koschwei/tth/ttH_AH_v5/ZZ_TuneCP5_13TeV-pythia8/ttH_AH_v5/181226_111403/0000/tree_23.root = 43511
root://t3dcachedb.psi.ch//pnfs/psi.ch/cms/trivcat/store/user/koschwei/tth/ttH_AH_v5/ZZ_TuneCP5_13TeV-pythia8/ttH_AH_v5/181226_111403/0000/tree_24.root = 44953
root://t3dcachedb.psi.ch//pnfs/psi.ch/cms/trivcat/store/user/koschwei/tth/ttH_AH_v5/ZZ_TuneCP5_13TeV-pythia8/ttH_AH_v5/181226_111403/0000/tree_25.root = 44232
root://t3dcachedb.psi.ch//pnfs/psi.ch/cms/trivcat/store/user/koschwei/tth/ttH_AH_v5/ZZ_TuneCP5_13TeV-pythia8/ttH_AH_v5/181226_111403/0000/tree_26.root = 46395
root://t3dcachedb.psi.ch//pnfs/psi.ch/cms/trivcat/store/user/koschwei/tth/ttH_AH_v5/ZZ_TuneCP5_13TeV-pythia8/ttH_AH_v5/181226_111403/0000/tree_27.root = 44953
root://t3dcachedb.psi.ch//pnfs/psi.ch/cms/trivcat/store/user/koschwei/tth/ttH_AH_v5/ZZ_TuneCP5_13TeV-pythia8/ttH_AH_v5/181226_111403/0000/tree_28.root = 43511
root://t3dcachedb.psi.ch//pnfs/psi.ch/cms/trivcat/store/user/koschwei/tth/ttH_AH_v5/ZZ_TuneCP5_13TeV-pythia8/ttH_AH_v5/181226_111403/0000/tree_29.root = 44953
root://t3dcachedb.psi.ch//pnfs/psi.ch/cms/trivcat/store/user/koschwei/tth/ttH_AH_v5_re/ZZ_TuneCP5_13TeV-pythia8/ttH_AH_v5_re/190115_205800/0000/tree_10.root = 9279
root://t3dcachedb.psi.ch//pnfs/psi.ch/cms/trivcat/store/user/koschwei/tth/ttH_AH_v5_re/ZZ_TuneCP5_13TeV-pythia8/ttH_AH_v5_re/190115_205800/0000/tree_3.root = 9279
root://t3dcachedb.psi.ch//pnfs/psi.ch/cms/trivcat/store/user/koschwei/tth/ttH_AH_v5_re/ZZ_TuneCP5_13TeV-pythia8/ttH_AH_v5_re/190115_205800/0000/tree_4.root = 8558
root://t3dcachedb.psi.ch//pnfs/psi.ch/cms/trivcat/store/user/koschwei/tth/ttH_AH_v5_re/ZZ_TuneCP5_13TeV-pythia8/ttH_AH_v5_re/190115_205800/0000/tree_5.root = 9279
root://t3dcachedb.psi.ch//pnfs/psi.ch/cms/trivcat/store/user/koschwei/tth/ttH_AH_v5_re/ZZ_TuneCP5_13TeV-pythia8/ttH_AH_v5_re/190115_205800/0000/tree_6.root = 9279
root://t3dcachedb.psi.ch//pnfs/psi.ch/cms/trivcat/store/user/koschwei/tth/ttH_AH_v5_re/ZZ_TuneCP5_13TeV-pythia8/ttH_AH_v5_re/190115_205800/0000/tree_7.root = 7837
root://t3dcachedb.psi.ch//pnfs/psi.ch/cms/trivcat/store/user/koschwei/tth/ttH_AH_v5_re/ZZ_TuneCP5_13TeV-pythia8/ttH_AH_v5_re/190115_205800/0000/tree_8.root = 10000
root://t3dcachedb.psi.ch//pnfs/psi.ch/cms/trivcat/store/user/koschwei/tth/ttH_AH_v5_re/ZZ_TuneCP5_13TeV-pythia8/ttH_AH_v5_re/190115_205800/0000/tree_9.root = 9279
