[QCD_HT1000to1500_TuneCP5_13TeV-madgraphMLM-pythia8]
root://t3dcachedb.psi.ch//pnfs/psi.ch/cms/trivcat/store/user/koschwei/tth/LegacyRun2_2018_AH_v1/QCD_HT1000to1500_TuneCP5_13TeV-madgraphMLM-pythia8/LegacyRun2_2018_AH_v1/190706_081357/0000/tree_40.root = 64596
root://t3dcachedb.psi.ch//pnfs/psi.ch/cms/trivcat/store/user/koschwei/tth/LegacyRun2_2018_AH_v1/QCD_HT1000to1500_TuneCP5_13TeV-madgraphMLM-pythia8/LegacyRun2_2018_AH_v1/190706_081357/0000/tree_35.root = 64385
root://t3dcachedb.psi.ch//pnfs/psi.ch/cms/trivcat/store/user/koschwei/tth/LegacyRun2_2018_AH_v1/QCD_HT1000to1500_TuneCP5_13TeV-madgraphMLM-pythia8/LegacyRun2_2018_AH_v1/190706_081357/0000/tree_81.root = 64821
root://t3dcachedb.psi.ch//pnfs/psi.ch/cms/trivcat/store/user/koschwei/tth/LegacyRun2_2018_AH_v1/QCD_HT1000to1500_TuneCP5_13TeV-madgraphMLM-pythia8/LegacyRun2_2018_AH_v1/190706_081357/0000/tree_96.root = 65073
root://t3dcachedb.psi.ch//pnfs/psi.ch/cms/trivcat/store/user/koschwei/tth/LegacyRun2_2018_AH_v1/QCD_HT1000to1500_TuneCP5_13TeV-madgraphMLM-pythia8/LegacyRun2_2018_AH_v1/190706_081357/0000/tree_47.root = 64449
root://t3dcachedb.psi.ch//pnfs/psi.ch/cms/trivcat/store/user/koschwei/tth/LegacyRun2_2018_AH_v1/QCD_HT1000to1500_TuneCP5_13TeV-madgraphMLM-pythia8/LegacyRun2_2018_AH_v1/190706_081357/0000/tree_99.root = 64834
root://t3dcachedb.psi.ch//pnfs/psi.ch/cms/trivcat/store/user/koschwei/tth/LegacyRun2_2018_AH_v1/QCD_HT1000to1500_TuneCP5_13TeV-madgraphMLM-pythia8/LegacyRun2_2018_AH_v1/190706_081357/0000/tree_31.root = 64527
root://t3dcachedb.psi.ch//pnfs/psi.ch/cms/trivcat/store/user/koschwei/tth/LegacyRun2_2018_AH_v1/QCD_HT1000to1500_TuneCP5_13TeV-madgraphMLM-pythia8/LegacyRun2_2018_AH_v1/190706_081357/0000/tree_30.root = 64814
root://t3dcachedb.psi.ch//pnfs/psi.ch/cms/trivcat/store/user/koschwei/tth/LegacyRun2_2018_AH_v1/QCD_HT1000to1500_TuneCP5_13TeV-madgraphMLM-pythia8/LegacyRun2_2018_AH_v1/190706_081357/0000/tree_87.root = 64714
root://t3dcachedb.psi.ch//pnfs/psi.ch/cms/trivcat/store/user/koschwei/tth/LegacyRun2_2018_AH_v1/QCD_HT1000to1500_TuneCP5_13TeV-madgraphMLM-pythia8/LegacyRun2_2018_AH_v1/190706_081357/0000/tree_116.root = 64683
root://t3dcachedb.psi.ch//pnfs/psi.ch/cms/trivcat/store/user/koschwei/tth/LegacyRun2_2018_AH_v1/QCD_HT1000to1500_TuneCP5_13TeV-madgraphMLM-pythia8/LegacyRun2_2018_AH_v1/190706_081357/0000/tree_134.root = 64452
root://t3dcachedb.psi.ch//pnfs/psi.ch/cms/trivcat/store/user/koschwei/tth/LegacyRun2_2018_AH_v1/QCD_HT1000to1500_TuneCP5_13TeV-madgraphMLM-pythia8/LegacyRun2_2018_AH_v1/190706_081357/0000/tree_114.root = 64889
root://t3dcachedb.psi.ch//pnfs/psi.ch/cms/trivcat/store/user/koschwei/tth/LegacyRun2_2018_AH_v1/QCD_HT1000to1500_TuneCP5_13TeV-madgraphMLM-pythia8/LegacyRun2_2018_AH_v1/190706_081357/0000/tree_161.root = 64478
root://t3dcachedb.psi.ch//pnfs/psi.ch/cms/trivcat/store/user/koschwei/tth/LegacyRun2_2018_AH_v1/QCD_HT1000to1500_TuneCP5_13TeV-madgraphMLM-pythia8/LegacyRun2_2018_AH_v1/190706_081357/0000/tree_33.root = 64755
root://t3dcachedb.psi.ch//pnfs/psi.ch/cms/trivcat/store/user/koschwei/tth/LegacyRun2_2018_AH_v1/QCD_HT1000to1500_TuneCP5_13TeV-madgraphMLM-pythia8/LegacyRun2_2018_AH_v1/190706_081357/0000/tree_138.root = 64848
root://t3dcachedb.psi.ch//pnfs/psi.ch/cms/trivcat/store/user/koschwei/tth/LegacyRun2_2018_AH_v1/QCD_HT1000to1500_TuneCP5_13TeV-madgraphMLM-pythia8/LegacyRun2_2018_AH_v1/190706_081357/0000/tree_117.root = 65297
root://t3dcachedb.psi.ch//pnfs/psi.ch/cms/trivcat/store/user/koschwei/tth/LegacyRun2_2018_AH_v1/QCD_HT1000to1500_TuneCP5_13TeV-madgraphMLM-pythia8/LegacyRun2_2018_AH_v1/190706_081357/0000/tree_136.root = 64745
root://t3dcachedb.psi.ch//pnfs/psi.ch/cms/trivcat/store/user/koschwei/tth/LegacyRun2_2018_AH_v1/QCD_HT1000to1500_TuneCP5_13TeV-madgraphMLM-pythia8/LegacyRun2_2018_AH_v1/190706_081357/0000/tree_128.root = 64640
root://t3dcachedb.psi.ch//pnfs/psi.ch/cms/trivcat/store/user/koschwei/tth/LegacyRun2_2018_AH_v1/QCD_HT1000to1500_TuneCP5_13TeV-madgraphMLM-pythia8/LegacyRun2_2018_AH_v1/190706_081357/0000/tree_121.root = 64850
root://t3dcachedb.psi.ch//pnfs/psi.ch/cms/trivcat/store/user/koschwei/tth/LegacyRun2_2018_AH_v1/QCD_HT1000to1500_TuneCP5_13TeV-madgraphMLM-pythia8/LegacyRun2_2018_AH_v1/190706_081357/0000/tree_163.root = 64686
root://t3dcachedb.psi.ch//pnfs/psi.ch/cms/trivcat/store/user/koschwei/tth/LegacyRun2_2018_AH_v1/QCD_HT1000to1500_TuneCP5_13TeV-madgraphMLM-pythia8/LegacyRun2_2018_AH_v1/190706_081357/0000/tree_123.root = 64799
root://t3dcachedb.psi.ch//pnfs/psi.ch/cms/trivcat/store/user/koschwei/tth/LegacyRun2_2018_AH_v1/QCD_HT1000to1500_TuneCP5_13TeV-madgraphMLM-pythia8/LegacyRun2_2018_AH_v1/190706_081357/0000/tree_44.root = 64602
root://t3dcachedb.psi.ch//pnfs/psi.ch/cms/trivcat/store/user/koschwei/tth/LegacyRun2_2018_AH_v1/QCD_HT1000to1500_TuneCP5_13TeV-madgraphMLM-pythia8/LegacyRun2_2018_AH_v1/190706_081357/0000/tree_118.root = 65066
root://t3dcachedb.psi.ch//pnfs/psi.ch/cms/trivcat/store/user/koschwei/tth/LegacyRun2_2018_AH_v1/QCD_HT1000to1500_TuneCP5_13TeV-madgraphMLM-pythia8/LegacyRun2_2018_AH_v1/190706_081357/0000/tree_122.root = 64421
root://t3dcachedb.psi.ch//pnfs/psi.ch/cms/trivcat/store/user/koschwei/tth/LegacyRun2_2018_AH_v1/QCD_HT1000to1500_TuneCP5_13TeV-madgraphMLM-pythia8/LegacyRun2_2018_AH_v1/190706_081357/0000/tree_82.root = 64735
root://t3dcachedb.psi.ch//pnfs/psi.ch/cms/trivcat/store/user/koschwei/tth/LegacyRun2_2018_AH_v1/QCD_HT1000to1500_TuneCP5_13TeV-madgraphMLM-pythia8/LegacyRun2_2018_AH_v1/190706_081357/0000/tree_137.root = 64616
root://t3dcachedb.psi.ch//pnfs/psi.ch/cms/trivcat/store/user/koschwei/tth/LegacyRun2_2018_AH_v1/QCD_HT1000to1500_TuneCP5_13TeV-madgraphMLM-pythia8/LegacyRun2_2018_AH_v1/190706_081357/0000/tree_80.root = 64620
root://t3dcachedb.psi.ch//pnfs/psi.ch/cms/trivcat/store/user/koschwei/tth/LegacyRun2_2018_AH_v1/QCD_HT1000to1500_TuneCP5_13TeV-madgraphMLM-pythia8/LegacyRun2_2018_AH_v1/190706_081357/0000/tree_135.root = 64555
root://t3dcachedb.psi.ch//pnfs/psi.ch/cms/trivcat/store/user/koschwei/tth/LegacyRun2_2018_AH_v1/QCD_HT1000to1500_TuneCP5_13TeV-madgraphMLM-pythia8/LegacyRun2_2018_AH_v1/190706_081357/0000/tree_125.root = 64426
root://t3dcachedb.psi.ch//pnfs/psi.ch/cms/trivcat/store/user/koschwei/tth/LegacyRun2_2018_AH_v1/QCD_HT1000to1500_TuneCP5_13TeV-madgraphMLM-pythia8/LegacyRun2_2018_AH_v1/190706_081357/0000/tree_129.root = 64256
root://t3dcachedb.psi.ch//pnfs/psi.ch/cms/trivcat/store/user/koschwei/tth/LegacyRun2_2018_AH_v1/QCD_HT1000to1500_TuneCP5_13TeV-madgraphMLM-pythia8/LegacyRun2_2018_AH_v1/190706_081357/0000/tree_113.root = 64684
root://t3dcachedb.psi.ch//pnfs/psi.ch/cms/trivcat/store/user/koschwei/tth/LegacyRun2_2018_AH_v1/QCD_HT1000to1500_TuneCP5_13TeV-madgraphMLM-pythia8/LegacyRun2_2018_AH_v1/190706_081357/0000/tree_91.root = 64559
root://t3dcachedb.psi.ch//pnfs/psi.ch/cms/trivcat/store/user/koschwei/tth/LegacyRun2_2018_AH_v1/QCD_HT1000to1500_TuneCP5_13TeV-madgraphMLM-pythia8/LegacyRun2_2018_AH_v1/190706_081357/0000/tree_37.root = 64288
root://t3dcachedb.psi.ch//pnfs/psi.ch/cms/trivcat/store/user/koschwei/tth/LegacyRun2_2018_AH_v1/QCD_HT1000to1500_TuneCP5_13TeV-madgraphMLM-pythia8/LegacyRun2_2018_AH_v1/190706_081357/0000/tree_120.root = 64876
root://t3dcachedb.psi.ch//pnfs/psi.ch/cms/trivcat/store/user/koschwei/tth/LegacyRun2_2018_AH_v1/QCD_HT1000to1500_TuneCP5_13TeV-madgraphMLM-pythia8/LegacyRun2_2018_AH_v1/190706_081357/0000/tree_85.root = 64362
root://t3dcachedb.psi.ch//pnfs/psi.ch/cms/trivcat/store/user/koschwei/tth/LegacyRun2_2018_AH_v1/QCD_HT1000to1500_TuneCP5_13TeV-madgraphMLM-pythia8/LegacyRun2_2018_AH_v1/190706_081357/0000/tree_84.root = 64709
root://t3dcachedb.psi.ch//pnfs/psi.ch/cms/trivcat/store/user/koschwei/tth/LegacyRun2_2018_AH_v1/QCD_HT1000to1500_TuneCP5_13TeV-madgraphMLM-pythia8/LegacyRun2_2018_AH_v1/190706_081357/0000/tree_115.root = 64727
root://t3dcachedb.psi.ch//pnfs/psi.ch/cms/trivcat/store/user/koschwei/tth/LegacyRun2_2018_AH_v1/QCD_HT1000to1500_TuneCP5_13TeV-madgraphMLM-pythia8/LegacyRun2_2018_AH_v1/190706_081357/0000/tree_166.root = 64840
root://t3dcachedb.psi.ch//pnfs/psi.ch/cms/trivcat/store/user/koschwei/tth/LegacyRun2_2018_AH_v1/QCD_HT1000to1500_TuneCP5_13TeV-madgraphMLM-pythia8/LegacyRun2_2018_AH_v1/190706_081357/0000/tree_127.root = 64435
root://t3dcachedb.psi.ch//pnfs/psi.ch/cms/trivcat/store/user/koschwei/tth/LegacyRun2_2018_AH_v1/QCD_HT1000to1500_TuneCP5_13TeV-madgraphMLM-pythia8/LegacyRun2_2018_AH_v1/190706_081357/0000/tree_124.root = 65026
root://t3dcachedb.psi.ch//pnfs/psi.ch/cms/trivcat/store/user/koschwei/tth/LegacyRun2_2018_AH_v1/QCD_HT1000to1500_TuneCP5_13TeV-madgraphMLM-pythia8/LegacyRun2_2018_AH_v1/190706_081357/0000/tree_160.root = 64492
root://t3dcachedb.psi.ch//pnfs/psi.ch/cms/trivcat/store/user/koschwei/tth/LegacyRun2_2018_AH_v1/QCD_HT1000to1500_TuneCP5_13TeV-madgraphMLM-pythia8/LegacyRun2_2018_AH_v1/190706_081357/0000/tree_162.root = 64713
root://t3dcachedb.psi.ch//pnfs/psi.ch/cms/trivcat/store/user/koschwei/tth/LegacyRun2_2018_AH_v1/QCD_HT1000to1500_TuneCP5_13TeV-madgraphMLM-pythia8/LegacyRun2_2018_AH_v1/190706_081357/0000/tree_50.root = 64376
root://t3dcachedb.psi.ch//pnfs/psi.ch/cms/trivcat/store/user/koschwei/tth/LegacyRun2_2018_AH_v1/QCD_HT1000to1500_TuneCP5_13TeV-madgraphMLM-pythia8/LegacyRun2_2018_AH_v1/190706_081357/0000/tree_93.root = 64757
root://t3dcachedb.psi.ch//pnfs/psi.ch/cms/trivcat/store/user/koschwei/tth/LegacyRun2_2018_AH_v1/QCD_HT1000to1500_TuneCP5_13TeV-madgraphMLM-pythia8/LegacyRun2_2018_AH_v1/190706_081357/0000/tree_119.root = 64742
root://t3dcachedb.psi.ch//pnfs/psi.ch/cms/trivcat/store/user/koschwei/tth/LegacyRun2_2018_AH_v1/QCD_HT1000to1500_TuneCP5_13TeV-madgraphMLM-pythia8/LegacyRun2_2018_AH_v1/190706_081357/0000/tree_130.root = 64915
root://t3dcachedb.psi.ch//pnfs/psi.ch/cms/trivcat/store/user/koschwei/tth/LegacyRun2_2018_AH_v1/QCD_HT1000to1500_TuneCP5_13TeV-madgraphMLM-pythia8/LegacyRun2_2018_AH_v1/190706_081357/0000/tree_139.root = 64667
root://t3dcachedb.psi.ch//pnfs/psi.ch/cms/trivcat/store/user/koschwei/tth/LegacyRun2_2018_AH_v1/QCD_HT1000to1500_TuneCP5_13TeV-madgraphMLM-pythia8/LegacyRun2_2018_AH_v1/190706_081357/0000/tree_133.root = 65015
root://t3dcachedb.psi.ch//pnfs/psi.ch/cms/trivcat/store/user/koschwei/tth/LegacyRun2_2018_AH_v1/QCD_HT1000to1500_TuneCP5_13TeV-madgraphMLM-pythia8/LegacyRun2_2018_AH_v1/190706_081357/0000/tree_126.root = 64812
root://t3dcachedb.psi.ch//pnfs/psi.ch/cms/trivcat/store/user/koschwei/tth/LegacyRun2_2018_AH_v1/QCD_HT1000to1500_TuneCP5_13TeV-madgraphMLM-pythia8/LegacyRun2_2018_AH_v1/190706_081357/0000/tree_98.root = 64656
root://t3dcachedb.psi.ch//pnfs/psi.ch/cms/trivcat/store/user/koschwei/tth/LegacyRun2_2018_AH_v1/QCD_HT1000to1500_TuneCP5_13TeV-madgraphMLM-pythia8/LegacyRun2_2018_AH_v1/190706_081357/0000/tree_131.root = 64879
root://t3dcachedb.psi.ch//pnfs/psi.ch/cms/trivcat/store/user/koschwei/tth/LegacyRun2_2018_AH_v1/QCD_HT1000to1500_TuneCP5_13TeV-madgraphMLM-pythia8/LegacyRun2_2018_AH_v1/190706_081357/0000/tree_168.root = 64764
root://t3dcachedb.psi.ch//pnfs/psi.ch/cms/trivcat/store/user/koschwei/tth/LegacyRun2_2018_AH_v1/QCD_HT1000to1500_TuneCP5_13TeV-madgraphMLM-pythia8/LegacyRun2_2018_AH_v1/190706_081357/0000/tree_86.root = 64662
root://t3dcachedb.psi.ch//pnfs/psi.ch/cms/trivcat/store/user/koschwei/tth/LegacyRun2_2018_AH_v1/QCD_HT1000to1500_TuneCP5_13TeV-madgraphMLM-pythia8/LegacyRun2_2018_AH_v1/190706_081357/0000/tree_189.root = 64523
root://t3dcachedb.psi.ch//pnfs/psi.ch/cms/trivcat/store/user/koschwei/tth/LegacyRun2_2018_AH_v1/QCD_HT1000to1500_TuneCP5_13TeV-madgraphMLM-pythia8/LegacyRun2_2018_AH_v1/190706_081357/0000/tree_171.root = 64629
root://t3dcachedb.psi.ch//pnfs/psi.ch/cms/trivcat/store/user/koschwei/tth/LegacyRun2_2018_AH_v1/QCD_HT1000to1500_TuneCP5_13TeV-madgraphMLM-pythia8/LegacyRun2_2018_AH_v1/190706_081357/0000/tree_49.root = 64241
root://t3dcachedb.psi.ch//pnfs/psi.ch/cms/trivcat/store/user/koschwei/tth/LegacyRun2_2018_AH_v1/QCD_HT1000to1500_TuneCP5_13TeV-madgraphMLM-pythia8/LegacyRun2_2018_AH_v1/190706_081357/0000/tree_167.root = 64984
root://t3dcachedb.psi.ch//pnfs/psi.ch/cms/trivcat/store/user/koschwei/tth/LegacyRun2_2018_AH_v1/QCD_HT1000to1500_TuneCP5_13TeV-madgraphMLM-pythia8/LegacyRun2_2018_AH_v1/190706_081357/0000/tree_164.root = 64863
root://t3dcachedb.psi.ch//pnfs/psi.ch/cms/trivcat/store/user/koschwei/tth/LegacyRun2_2018_AH_v1/QCD_HT1000to1500_TuneCP5_13TeV-madgraphMLM-pythia8/LegacyRun2_2018_AH_v1/190706_081357/0000/tree_32.root = 64535
root://t3dcachedb.psi.ch//pnfs/psi.ch/cms/trivcat/store/user/koschwei/tth/LegacyRun2_2018_AH_v1/QCD_HT1000to1500_TuneCP5_13TeV-madgraphMLM-pythia8/LegacyRun2_2018_AH_v1/190706_081357/0000/tree_83.root = 64975
root://t3dcachedb.psi.ch//pnfs/psi.ch/cms/trivcat/store/user/koschwei/tth/LegacyRun2_2018_AH_v1/QCD_HT1000to1500_TuneCP5_13TeV-madgraphMLM-pythia8/LegacyRun2_2018_AH_v1/190706_081357/0000/tree_46.root = 64723
root://t3dcachedb.psi.ch//pnfs/psi.ch/cms/trivcat/store/user/koschwei/tth/LegacyRun2_2018_AH_v1/QCD_HT1000to1500_TuneCP5_13TeV-madgraphMLM-pythia8/LegacyRun2_2018_AH_v1/190706_081357/0000/tree_97.root = 64497
root://t3dcachedb.psi.ch//pnfs/psi.ch/cms/trivcat/store/user/koschwei/tth/LegacyRun2_2018_AH_v1/QCD_HT1000to1500_TuneCP5_13TeV-madgraphMLM-pythia8/LegacyRun2_2018_AH_v1/190706_081357/0000/tree_240.root = 52826
root://t3dcachedb.psi.ch//pnfs/psi.ch/cms/trivcat/store/user/koschwei/tth/LegacyRun2_2018_AH_v1/QCD_HT1000to1500_TuneCP5_13TeV-madgraphMLM-pythia8/LegacyRun2_2018_AH_v1/190706_081357/0000/tree_175.root = 64828
root://t3dcachedb.psi.ch//pnfs/psi.ch/cms/trivcat/store/user/koschwei/tth/LegacyRun2_2018_AH_v1/QCD_HT1000to1500_TuneCP5_13TeV-madgraphMLM-pythia8/LegacyRun2_2018_AH_v1/190706_081357/0000/tree_182.root = 64462
root://t3dcachedb.psi.ch//pnfs/psi.ch/cms/trivcat/store/user/koschwei/tth/LegacyRun2_2018_AH_v1/QCD_HT1000to1500_TuneCP5_13TeV-madgraphMLM-pythia8/LegacyRun2_2018_AH_v1/190706_081357/0000/tree_173.root = 64467
root://t3dcachedb.psi.ch//pnfs/psi.ch/cms/trivcat/store/user/koschwei/tth/LegacyRun2_2018_AH_v1/QCD_HT1000to1500_TuneCP5_13TeV-madgraphMLM-pythia8/LegacyRun2_2018_AH_v1/190706_081357/0000/tree_180.root = 64483
root://t3dcachedb.psi.ch//pnfs/psi.ch/cms/trivcat/store/user/koschwei/tth/LegacyRun2_2018_AH_v1/QCD_HT1000to1500_TuneCP5_13TeV-madgraphMLM-pythia8/LegacyRun2_2018_AH_v1/190706_081357/0000/tree_169.root = 64656
root://t3dcachedb.psi.ch//pnfs/psi.ch/cms/trivcat/store/user/koschwei/tth/LegacyRun2_2018_AH_v1/QCD_HT1000to1500_TuneCP5_13TeV-madgraphMLM-pythia8/LegacyRun2_2018_AH_v1/190706_081357/0000/tree_177.root = 64588
root://t3dcachedb.psi.ch//pnfs/psi.ch/cms/trivcat/store/user/koschwei/tth/LegacyRun2_2018_AH_v1/QCD_HT1000to1500_TuneCP5_13TeV-madgraphMLM-pythia8/LegacyRun2_2018_AH_v1/190706_081357/0000/tree_181.root = 64479
root://t3dcachedb.psi.ch//pnfs/psi.ch/cms/trivcat/store/user/koschwei/tth/LegacyRun2_2018_AH_v1/QCD_HT1000to1500_TuneCP5_13TeV-madgraphMLM-pythia8/LegacyRun2_2018_AH_v1/190706_081357/0000/tree_170.root = 64753
root://t3dcachedb.psi.ch//pnfs/psi.ch/cms/trivcat/store/user/koschwei/tth/LegacyRun2_2018_AH_v1/QCD_HT1000to1500_TuneCP5_13TeV-madgraphMLM-pythia8/LegacyRun2_2018_AH_v1/190706_081357/0000/tree_174.root = 65029
root://t3dcachedb.psi.ch//pnfs/psi.ch/cms/trivcat/store/user/koschwei/tth/LegacyRun2_2018_AH_v1/QCD_HT1000to1500_TuneCP5_13TeV-madgraphMLM-pythia8/LegacyRun2_2018_AH_v1/190706_081357/0000/tree_187.root = 64988
root://t3dcachedb.psi.ch//pnfs/psi.ch/cms/trivcat/store/user/koschwei/tth/LegacyRun2_2018_AH_v1/QCD_HT1000to1500_TuneCP5_13TeV-madgraphMLM-pythia8/LegacyRun2_2018_AH_v1/190706_081357/0000/tree_213.root = 64566
root://t3dcachedb.psi.ch//pnfs/psi.ch/cms/trivcat/store/user/koschwei/tth/LegacyRun2_2018_AH_v1/QCD_HT1000to1500_TuneCP5_13TeV-madgraphMLM-pythia8/LegacyRun2_2018_AH_v1/190706_081357/0000/tree_92.root = 64789
root://t3dcachedb.psi.ch//pnfs/psi.ch/cms/trivcat/store/user/koschwei/tth/LegacyRun2_2018_AH_v1/QCD_HT1000to1500_TuneCP5_13TeV-madgraphMLM-pythia8/LegacyRun2_2018_AH_v1/190706_081357/0000/tree_205.root = 64666
root://t3dcachedb.psi.ch//pnfs/psi.ch/cms/trivcat/store/user/koschwei/tth/LegacyRun2_2018_AH_v1/QCD_HT1000to1500_TuneCP5_13TeV-madgraphMLM-pythia8/LegacyRun2_2018_AH_v1/190706_081357/0000/tree_183.root = 64316
root://t3dcachedb.psi.ch//pnfs/psi.ch/cms/trivcat/store/user/koschwei/tth/LegacyRun2_2018_AH_v1/QCD_HT1000to1500_TuneCP5_13TeV-madgraphMLM-pythia8/LegacyRun2_2018_AH_v1/190706_081357/0000/tree_88.root = 64583
root://t3dcachedb.psi.ch//pnfs/psi.ch/cms/trivcat/store/user/koschwei/tth/LegacyRun2_2018_AH_v1/QCD_HT1000to1500_TuneCP5_13TeV-madgraphMLM-pythia8/LegacyRun2_2018_AH_v1/190706_081357/0000/tree_90.root = 64780
root://t3dcachedb.psi.ch//pnfs/psi.ch/cms/trivcat/store/user/koschwei/tth/LegacyRun2_2018_AH_v1/QCD_HT1000to1500_TuneCP5_13TeV-madgraphMLM-pythia8/LegacyRun2_2018_AH_v1/190706_081357/0000/tree_34.root = 64601
root://t3dcachedb.psi.ch//pnfs/psi.ch/cms/trivcat/store/user/koschwei/tth/LegacyRun2_2018_AH_v1/QCD_HT1000to1500_TuneCP5_13TeV-madgraphMLM-pythia8/LegacyRun2_2018_AH_v1/190706_081357/0000/tree_184.root = 64457
root://t3dcachedb.psi.ch//pnfs/psi.ch/cms/trivcat/store/user/koschwei/tth/LegacyRun2_2018_AH_v1/QCD_HT1000to1500_TuneCP5_13TeV-madgraphMLM-pythia8/LegacyRun2_2018_AH_v1/190706_081357/0000/tree_36.root = 64465
root://t3dcachedb.psi.ch//pnfs/psi.ch/cms/trivcat/store/user/koschwei/tth/LegacyRun2_2018_AH_v1/QCD_HT1000to1500_TuneCP5_13TeV-madgraphMLM-pythia8/LegacyRun2_2018_AH_v1/190706_081357/0000/tree_214.root = 64659
root://t3dcachedb.psi.ch//pnfs/psi.ch/cms/trivcat/store/user/koschwei/tth/LegacyRun2_2018_AH_v1/QCD_HT1000to1500_TuneCP5_13TeV-madgraphMLM-pythia8/LegacyRun2_2018_AH_v1/190706_081357/0000/tree_215.root = 64680
root://t3dcachedb.psi.ch//pnfs/psi.ch/cms/trivcat/store/user/koschwei/tth/LegacyRun2_2018_AH_v1/QCD_HT1000to1500_TuneCP5_13TeV-madgraphMLM-pythia8/LegacyRun2_2018_AH_v1/190706_081357/0000/tree_95.root = 65008
root://t3dcachedb.psi.ch//pnfs/psi.ch/cms/trivcat/store/user/koschwei/tth/LegacyRun2_2018_AH_v1/QCD_HT1000to1500_TuneCP5_13TeV-madgraphMLM-pythia8/LegacyRun2_2018_AH_v1/190706_081357/0000/tree_39.root = 64832
root://t3dcachedb.psi.ch//pnfs/psi.ch/cms/trivcat/store/user/koschwei/tth/LegacyRun2_2018_AH_v1/QCD_HT1000to1500_TuneCP5_13TeV-madgraphMLM-pythia8/LegacyRun2_2018_AH_v1/190706_081357/0000/tree_43.root = 64361
root://t3dcachedb.psi.ch//pnfs/psi.ch/cms/trivcat/store/user/koschwei/tth/LegacyRun2_2018_AH_v1/QCD_HT1000to1500_TuneCP5_13TeV-madgraphMLM-pythia8/LegacyRun2_2018_AH_v1/190706_081357/0000/tree_48.root = 65111
root://t3dcachedb.psi.ch//pnfs/psi.ch/cms/trivcat/store/user/koschwei/tth/LegacyRun2_2018_AH_v1/QCD_HT1000to1500_TuneCP5_13TeV-madgraphMLM-pythia8/LegacyRun2_2018_AH_v1/190706_081357/0000/tree_89.root = 64929
root://t3dcachedb.psi.ch//pnfs/psi.ch/cms/trivcat/store/user/koschwei/tth/LegacyRun2_2018_AH_v1/QCD_HT1000to1500_TuneCP5_13TeV-madgraphMLM-pythia8/LegacyRun2_2018_AH_v1/190706_081357/0000/tree_212.root = 64730
root://t3dcachedb.psi.ch//pnfs/psi.ch/cms/trivcat/store/user/koschwei/tth/LegacyRun2_2018_AH_v1/QCD_HT1000to1500_TuneCP5_13TeV-madgraphMLM-pythia8/LegacyRun2_2018_AH_v1/190706_081357/0000/tree_172.root = 64427
root://t3dcachedb.psi.ch//pnfs/psi.ch/cms/trivcat/store/user/koschwei/tth/LegacyRun2_2018_AH_v1/QCD_HT1000to1500_TuneCP5_13TeV-madgraphMLM-pythia8/LegacyRun2_2018_AH_v1/190706_081357/0000/tree_38.root = 65173
root://t3dcachedb.psi.ch//pnfs/psi.ch/cms/trivcat/store/user/koschwei/tth/LegacyRun2_2018_AH_v1/QCD_HT1000to1500_TuneCP5_13TeV-madgraphMLM-pythia8/LegacyRun2_2018_AH_v1/190706_081357/0000/tree_217.root = 64813
root://t3dcachedb.psi.ch//pnfs/psi.ch/cms/trivcat/store/user/koschwei/tth/LegacyRun2_2018_AH_v1/QCD_HT1000to1500_TuneCP5_13TeV-madgraphMLM-pythia8/LegacyRun2_2018_AH_v1/190706_081357/0000/tree_208.root = 64555
root://t3dcachedb.psi.ch//pnfs/psi.ch/cms/trivcat/store/user/koschwei/tth/LegacyRun2_2018_AH_v1/QCD_HT1000to1500_TuneCP5_13TeV-madgraphMLM-pythia8/LegacyRun2_2018_AH_v1/190706_081357/0000/tree_218.root = 64618
root://t3dcachedb.psi.ch//pnfs/psi.ch/cms/trivcat/store/user/koschwei/tth/LegacyRun2_2018_AH_v1/QCD_HT1000to1500_TuneCP5_13TeV-madgraphMLM-pythia8/LegacyRun2_2018_AH_v1/190706_081357/0000/tree_186.root = 64655
root://t3dcachedb.psi.ch//pnfs/psi.ch/cms/trivcat/store/user/koschwei/tth/LegacyRun2_2018_AH_v1/QCD_HT1000to1500_TuneCP5_13TeV-madgraphMLM-pythia8/LegacyRun2_2018_AH_v1/190706_081357/0000/tree_206.root = 64769
root://t3dcachedb.psi.ch//pnfs/psi.ch/cms/trivcat/store/user/koschwei/tth/LegacyRun2_2018_AH_v1/QCD_HT1000to1500_TuneCP5_13TeV-madgraphMLM-pythia8/LegacyRun2_2018_AH_v1/190706_081357/0000/tree_210.root = 64744
root://t3dcachedb.psi.ch//pnfs/psi.ch/cms/trivcat/store/user/koschwei/tth/LegacyRun2_2018_AH_v1/QCD_HT1000to1500_TuneCP5_13TeV-madgraphMLM-pythia8/LegacyRun2_2018_AH_v1/190706_081357/0000/tree_176.root = 64710
root://t3dcachedb.psi.ch//pnfs/psi.ch/cms/trivcat/store/user/koschwei/tth/LegacyRun2_2018_AH_v1/QCD_HT1000to1500_TuneCP5_13TeV-madgraphMLM-pythia8/LegacyRun2_2018_AH_v1/190706_081357/0000/tree_42.root = 64291
root://t3dcachedb.psi.ch//pnfs/psi.ch/cms/trivcat/store/user/koschwei/tth/LegacyRun2_2018_AH_v1/QCD_HT1000to1500_TuneCP5_13TeV-madgraphMLM-pythia8/LegacyRun2_2018_AH_v1/190706_081357/0000/tree_207.root = 64601
root://t3dcachedb.psi.ch//pnfs/psi.ch/cms/trivcat/store/user/koschwei/tth/LegacyRun2_2018_AH_v1/QCD_HT1000to1500_TuneCP5_13TeV-madgraphMLM-pythia8/LegacyRun2_2018_AH_v1/190706_081357/0000/tree_201.root = 64864
root://t3dcachedb.psi.ch//pnfs/psi.ch/cms/trivcat/store/user/koschwei/tth/LegacyRun2_2018_AH_v1/QCD_HT1000to1500_TuneCP5_13TeV-madgraphMLM-pythia8/LegacyRun2_2018_AH_v1/190706_081357/0000/tree_45.root = 64531
root://t3dcachedb.psi.ch//pnfs/psi.ch/cms/trivcat/store/user/koschwei/tth/LegacyRun2_2018_AH_v1/QCD_HT1000to1500_TuneCP5_13TeV-madgraphMLM-pythia8/LegacyRun2_2018_AH_v1/190706_081357/0000/tree_219.root = 64951
root://t3dcachedb.psi.ch//pnfs/psi.ch/cms/trivcat/store/user/koschwei/tth/LegacyRun2_2018_AH_v1/QCD_HT1000to1500_TuneCP5_13TeV-madgraphMLM-pythia8/LegacyRun2_2018_AH_v1/190706_081357/0000/tree_202.root = 64753
root://t3dcachedb.psi.ch//pnfs/psi.ch/cms/trivcat/store/user/koschwei/tth/LegacyRun2_2018_AH_v1/QCD_HT1000to1500_TuneCP5_13TeV-madgraphMLM-pythia8/LegacyRun2_2018_AH_v1/190706_081357/0000/tree_204.root = 64845
root://t3dcachedb.psi.ch//pnfs/psi.ch/cms/trivcat/store/user/koschwei/tth/LegacyRun2_2018_AH_v1/QCD_HT1000to1500_TuneCP5_13TeV-madgraphMLM-pythia8/LegacyRun2_2018_AH_v1/190706_081357/0000/tree_132.root = 64684
root://t3dcachedb.psi.ch//pnfs/psi.ch/cms/trivcat/store/user/koschwei/tth/LegacyRun2_2018_AH_v1/QCD_HT1000to1500_TuneCP5_13TeV-madgraphMLM-pythia8/LegacyRun2_2018_AH_v1/190706_081357/0000/tree_211.root = 64548
root://t3dcachedb.psi.ch//pnfs/psi.ch/cms/trivcat/store/user/koschwei/tth/LegacyRun2_2018_AH_v1/QCD_HT1000to1500_TuneCP5_13TeV-madgraphMLM-pythia8/LegacyRun2_2018_AH_v1/190706_081357/0000/tree_188.root = 64637
root://t3dcachedb.psi.ch//pnfs/psi.ch/cms/trivcat/store/user/koschwei/tth/LegacyRun2_2018_AH_v1/QCD_HT1000to1500_TuneCP5_13TeV-madgraphMLM-pythia8/LegacyRun2_2018_AH_v1/190706_081357/0000/tree_185.root = 64370
root://t3dcachedb.psi.ch//pnfs/psi.ch/cms/trivcat/store/user/koschwei/tth/LegacyRun2_2018_AH_v1/QCD_HT1000to1500_TuneCP5_13TeV-madgraphMLM-pythia8/LegacyRun2_2018_AH_v1/190706_081357/0000/tree_200.root = 64966
root://t3dcachedb.psi.ch//pnfs/psi.ch/cms/trivcat/store/user/koschwei/tth/LegacyRun2_2018_AH_v1/QCD_HT1000to1500_TuneCP5_13TeV-madgraphMLM-pythia8/LegacyRun2_2018_AH_v1/190706_081357/0000/tree_203.root = 64562
root://t3dcachedb.psi.ch//pnfs/psi.ch/cms/trivcat/store/user/koschwei/tth/LegacyRun2_2018_AH_v1/QCD_HT1000to1500_TuneCP5_13TeV-madgraphMLM-pythia8/LegacyRun2_2018_AH_v1/190706_081357/0000/tree_216.root = 64812
root://t3dcachedb.psi.ch//pnfs/psi.ch/cms/trivcat/store/user/koschwei/tth/LegacyRun2_2018_AH_v1/QCD_HT1000to1500_TuneCP5_13TeV-madgraphMLM-pythia8/LegacyRun2_2018_AH_v1/190706_081357/0000/tree_179.root = 64673
root://t3dcachedb.psi.ch//pnfs/psi.ch/cms/trivcat/store/user/koschwei/tth/LegacyRun2_2018_AH_v1/QCD_HT1000to1500_TuneCP5_13TeV-madgraphMLM-pythia8/LegacyRun2_2018_AH_v1/190706_081357/0000/tree_209.root = 64612
root://t3dcachedb.psi.ch//pnfs/psi.ch/cms/trivcat/store/user/koschwei/tth/LegacyRun2_2018_AH_v1/QCD_HT1000to1500_TuneCP5_13TeV-madgraphMLM-pythia8/LegacyRun2_2018_AH_v1/190706_081357/0000/tree_178.root = 64723
root://t3dcachedb.psi.ch//pnfs/psi.ch/cms/trivcat/store/user/koschwei/tth/LegacyRun2_2018_AH_v1/QCD_HT1000to1500_TuneCP5_13TeV-madgraphMLM-pythia8/LegacyRun2_2018_AH_v1/190706_081357/0000/tree_41.root = 64533
root://t3dcachedb.psi.ch//pnfs/psi.ch/cms/trivcat/store/user/koschwei/tth/LegacyRun2_2018_AH_v1/QCD_HT1000to1500_TuneCP5_13TeV-madgraphMLM-pythia8/LegacyRun2_2018_AH_v1/190706_081357/0000/tree_94.root = 64458
root://t3dcachedb.psi.ch//pnfs/psi.ch/cms/trivcat/store/user/koschwei/tth/LegacyRun2_2018_AH_v1/QCD_HT1000to1500_TuneCP5_13TeV-madgraphMLM-pythia8/LegacyRun2_2018_AH_v1/190706_081357/0000/tree_51.root = 64491
root://t3dcachedb.psi.ch//pnfs/psi.ch/cms/trivcat/store/user/koschwei/tth/LegacyRun2_2018_AH_v1/QCD_HT1000to1500_TuneCP5_13TeV-madgraphMLM-pythia8/LegacyRun2_2018_AH_v1/190706_081357/0000/tree_52.root = 64616
root://t3dcachedb.psi.ch//pnfs/psi.ch/cms/trivcat/store/user/koschwei/tth/LegacyRun2_2018_AH_v1/QCD_HT1000to1500_TuneCP5_13TeV-madgraphMLM-pythia8/LegacyRun2_2018_AH_v1/190706_081357/0000/tree_53.root = 64520
root://t3dcachedb.psi.ch//pnfs/psi.ch/cms/trivcat/store/user/koschwei/tth/LegacyRun2_2018_AH_v1/QCD_HT1000to1500_TuneCP5_13TeV-madgraphMLM-pythia8/LegacyRun2_2018_AH_v1/190706_081357/0000/tree_54.root = 64533
root://t3dcachedb.psi.ch//pnfs/psi.ch/cms/trivcat/store/user/koschwei/tth/LegacyRun2_2018_AH_v1/QCD_HT1000to1500_TuneCP5_13TeV-madgraphMLM-pythia8/LegacyRun2_2018_AH_v1/190706_081357/0000/tree_55.root = 64508
root://t3dcachedb.psi.ch//pnfs/psi.ch/cms/trivcat/store/user/koschwei/tth/LegacyRun2_2018_AH_v1/QCD_HT1000to1500_TuneCP5_13TeV-madgraphMLM-pythia8/LegacyRun2_2018_AH_v1/190706_081357/0000/tree_56.root = 65055
root://t3dcachedb.psi.ch//pnfs/psi.ch/cms/trivcat/store/user/koschwei/tth/LegacyRun2_2018_AH_v1/QCD_HT1000to1500_TuneCP5_13TeV-madgraphMLM-pythia8/LegacyRun2_2018_AH_v1/190706_081357/0000/tree_57.root = 64539
root://t3dcachedb.psi.ch//pnfs/psi.ch/cms/trivcat/store/user/koschwei/tth/LegacyRun2_2018_AH_v1/QCD_HT1000to1500_TuneCP5_13TeV-madgraphMLM-pythia8/LegacyRun2_2018_AH_v1/190706_081357/0000/tree_58.root = 64302
root://t3dcachedb.psi.ch//pnfs/psi.ch/cms/trivcat/store/user/koschwei/tth/LegacyRun2_2018_AH_v1/QCD_HT1000to1500_TuneCP5_13TeV-madgraphMLM-pythia8/LegacyRun2_2018_AH_v1/190706_081357/0000/tree_59.root = 64691
root://t3dcachedb.psi.ch//pnfs/psi.ch/cms/trivcat/store/user/koschwei/tth/LegacyRun2_2018_AH_v1/QCD_HT1000to1500_TuneCP5_13TeV-madgraphMLM-pythia8/LegacyRun2_2018_AH_v1/190706_081357/0000/tree_220.root = 64578
root://t3dcachedb.psi.ch//pnfs/psi.ch/cms/trivcat/store/user/koschwei/tth/LegacyRun2_2018_AH_v1/QCD_HT1000to1500_TuneCP5_13TeV-madgraphMLM-pythia8/LegacyRun2_2018_AH_v1/190706_081357/0000/tree_221.root = 64865
root://t3dcachedb.psi.ch//pnfs/psi.ch/cms/trivcat/store/user/koschwei/tth/LegacyRun2_2018_AH_v1/QCD_HT1000to1500_TuneCP5_13TeV-madgraphMLM-pythia8/LegacyRun2_2018_AH_v1/190706_081357/0000/tree_140.root = 64543
root://t3dcachedb.psi.ch//pnfs/psi.ch/cms/trivcat/store/user/koschwei/tth/LegacyRun2_2018_AH_v1/QCD_HT1000to1500_TuneCP5_13TeV-madgraphMLM-pythia8/LegacyRun2_2018_AH_v1/190706_081357/0000/tree_222.root = 64999
root://t3dcachedb.psi.ch//pnfs/psi.ch/cms/trivcat/store/user/koschwei/tth/LegacyRun2_2018_AH_v1/QCD_HT1000to1500_TuneCP5_13TeV-madgraphMLM-pythia8/LegacyRun2_2018_AH_v1/190706_081357/0000/tree_141.root = 64979
root://t3dcachedb.psi.ch//pnfs/psi.ch/cms/trivcat/store/user/koschwei/tth/LegacyRun2_2018_AH_v1/QCD_HT1000to1500_TuneCP5_13TeV-madgraphMLM-pythia8/LegacyRun2_2018_AH_v1/190706_081357/0000/tree_223.root = 64599
root://t3dcachedb.psi.ch//pnfs/psi.ch/cms/trivcat/store/user/koschwei/tth/LegacyRun2_2018_AH_v1/QCD_HT1000to1500_TuneCP5_13TeV-madgraphMLM-pythia8/LegacyRun2_2018_AH_v1/190706_081357/0000/tree_142.root = 64430
root://t3dcachedb.psi.ch//pnfs/psi.ch/cms/trivcat/store/user/koschwei/tth/LegacyRun2_2018_AH_v1/QCD_HT1000to1500_TuneCP5_13TeV-madgraphMLM-pythia8/LegacyRun2_2018_AH_v1/190706_081357/0000/tree_224.root = 64770
root://t3dcachedb.psi.ch//pnfs/psi.ch/cms/trivcat/store/user/koschwei/tth/LegacyRun2_2018_AH_v1/QCD_HT1000to1500_TuneCP5_13TeV-madgraphMLM-pythia8/LegacyRun2_2018_AH_v1/190706_081357/0000/tree_143.root = 64421
root://t3dcachedb.psi.ch//pnfs/psi.ch/cms/trivcat/store/user/koschwei/tth/LegacyRun2_2018_AH_v1/QCD_HT1000to1500_TuneCP5_13TeV-madgraphMLM-pythia8/LegacyRun2_2018_AH_v1/190706_081357/0000/tree_225.root = 64901
root://t3dcachedb.psi.ch//pnfs/psi.ch/cms/trivcat/store/user/koschwei/tth/LegacyRun2_2018_AH_v1/QCD_HT1000to1500_TuneCP5_13TeV-madgraphMLM-pythia8/LegacyRun2_2018_AH_v1/190706_081357/0000/tree_144.root = 64631
root://t3dcachedb.psi.ch//pnfs/psi.ch/cms/trivcat/store/user/koschwei/tth/LegacyRun2_2018_AH_v1/QCD_HT1000to1500_TuneCP5_13TeV-madgraphMLM-pythia8/LegacyRun2_2018_AH_v1/190706_081357/0000/tree_226.root = 64341
root://t3dcachedb.psi.ch//pnfs/psi.ch/cms/trivcat/store/user/koschwei/tth/LegacyRun2_2018_AH_v1/QCD_HT1000to1500_TuneCP5_13TeV-madgraphMLM-pythia8/LegacyRun2_2018_AH_v1/190706_081357/0000/tree_190.root = 64729
root://t3dcachedb.psi.ch//pnfs/psi.ch/cms/trivcat/store/user/koschwei/tth/LegacyRun2_2018_AH_v1/QCD_HT1000to1500_TuneCP5_13TeV-madgraphMLM-pythia8/LegacyRun2_2018_AH_v1/190706_081357/0000/tree_145.root = 64642
root://t3dcachedb.psi.ch//pnfs/psi.ch/cms/trivcat/store/user/koschwei/tth/LegacyRun2_2018_AH_v1/QCD_HT1000to1500_TuneCP5_13TeV-madgraphMLM-pythia8/LegacyRun2_2018_AH_v1/190706_081357/0000/tree_227.root = 63718
root://t3dcachedb.psi.ch//pnfs/psi.ch/cms/trivcat/store/user/koschwei/tth/LegacyRun2_2018_AH_v1/QCD_HT1000to1500_TuneCP5_13TeV-madgraphMLM-pythia8/LegacyRun2_2018_AH_v1/190706_081357/0000/tree_191.root = 64457
root://t3dcachedb.psi.ch//pnfs/psi.ch/cms/trivcat/store/user/koschwei/tth/LegacyRun2_2018_AH_v1/QCD_HT1000to1500_TuneCP5_13TeV-madgraphMLM-pythia8/LegacyRun2_2018_AH_v1/190706_081357/0000/tree_146.root = 65262
root://t3dcachedb.psi.ch//pnfs/psi.ch/cms/trivcat/store/user/koschwei/tth/LegacyRun2_2018_AH_v1/QCD_HT1000to1500_TuneCP5_13TeV-madgraphMLM-pythia8/LegacyRun2_2018_AH_v1/190706_081357/0000/tree_228.root = 64600
root://t3dcachedb.psi.ch//pnfs/psi.ch/cms/trivcat/store/user/koschwei/tth/LegacyRun2_2018_AH_v1/QCD_HT1000to1500_TuneCP5_13TeV-madgraphMLM-pythia8/LegacyRun2_2018_AH_v1/190706_081357/0000/tree_192.root = 63667
root://t3dcachedb.psi.ch//pnfs/psi.ch/cms/trivcat/store/user/koschwei/tth/LegacyRun2_2018_AH_v1/QCD_HT1000to1500_TuneCP5_13TeV-madgraphMLM-pythia8/LegacyRun2_2018_AH_v1/190706_081357/0000/tree_147.root = 64589
root://t3dcachedb.psi.ch//pnfs/psi.ch/cms/trivcat/store/user/koschwei/tth/LegacyRun2_2018_AH_v1/QCD_HT1000to1500_TuneCP5_13TeV-madgraphMLM-pythia8/LegacyRun2_2018_AH_v1/190706_081357/0000/tree_229.root = 64304
root://t3dcachedb.psi.ch//pnfs/psi.ch/cms/trivcat/store/user/koschwei/tth/LegacyRun2_2018_AH_v1/QCD_HT1000to1500_TuneCP5_13TeV-madgraphMLM-pythia8/LegacyRun2_2018_AH_v1/190706_081357/0000/tree_193.root = 64469
root://t3dcachedb.psi.ch//pnfs/psi.ch/cms/trivcat/store/user/koschwei/tth/LegacyRun2_2018_AH_v1/QCD_HT1000to1500_TuneCP5_13TeV-madgraphMLM-pythia8/LegacyRun2_2018_AH_v1/190706_081357/0000/tree_148.root = 64397
root://t3dcachedb.psi.ch//pnfs/psi.ch/cms/trivcat/store/user/koschwei/tth/LegacyRun2_2018_AH_v1/QCD_HT1000to1500_TuneCP5_13TeV-madgraphMLM-pythia8/LegacyRun2_2018_AH_v1/190706_081357/0000/tree_194.root = 64651
root://t3dcachedb.psi.ch//pnfs/psi.ch/cms/trivcat/store/user/koschwei/tth/LegacyRun2_2018_AH_v1/QCD_HT1000to1500_TuneCP5_13TeV-madgraphMLM-pythia8/LegacyRun2_2018_AH_v1/190706_081357/0000/tree_149.root = 64669
root://t3dcachedb.psi.ch//pnfs/psi.ch/cms/trivcat/store/user/koschwei/tth/LegacyRun2_2018_AH_v1/QCD_HT1000to1500_TuneCP5_13TeV-madgraphMLM-pythia8/LegacyRun2_2018_AH_v1/190706_081357/0000/tree_10.root = 64689
root://t3dcachedb.psi.ch//pnfs/psi.ch/cms/trivcat/store/user/koschwei/tth/LegacyRun2_2018_AH_v1/QCD_HT1000to1500_TuneCP5_13TeV-madgraphMLM-pythia8/LegacyRun2_2018_AH_v1/190706_081357/0000/tree_195.root = 64587
root://t3dcachedb.psi.ch//pnfs/psi.ch/cms/trivcat/store/user/koschwei/tth/LegacyRun2_2018_AH_v1/QCD_HT1000to1500_TuneCP5_13TeV-madgraphMLM-pythia8/LegacyRun2_2018_AH_v1/190706_081357/0000/tree_11.root = 64569
root://t3dcachedb.psi.ch//pnfs/psi.ch/cms/trivcat/store/user/koschwei/tth/LegacyRun2_2018_AH_v1/QCD_HT1000to1500_TuneCP5_13TeV-madgraphMLM-pythia8/LegacyRun2_2018_AH_v1/190706_081357/0000/tree_196.root = 65202
root://t3dcachedb.psi.ch//pnfs/psi.ch/cms/trivcat/store/user/koschwei/tth/LegacyRun2_2018_AH_v1/QCD_HT1000to1500_TuneCP5_13TeV-madgraphMLM-pythia8/LegacyRun2_2018_AH_v1/190706_081357/0000/tree_12.root = 64775
root://t3dcachedb.psi.ch//pnfs/psi.ch/cms/trivcat/store/user/koschwei/tth/LegacyRun2_2018_AH_v1/QCD_HT1000to1500_TuneCP5_13TeV-madgraphMLM-pythia8/LegacyRun2_2018_AH_v1/190706_081357/0000/tree_197.root = 64482
root://t3dcachedb.psi.ch//pnfs/psi.ch/cms/trivcat/store/user/koschwei/tth/LegacyRun2_2018_AH_v1/QCD_HT1000to1500_TuneCP5_13TeV-madgraphMLM-pythia8/LegacyRun2_2018_AH_v1/190706_081357/0000/tree_13.root = 65039
root://t3dcachedb.psi.ch//pnfs/psi.ch/cms/trivcat/store/user/koschwei/tth/LegacyRun2_2018_AH_v1/QCD_HT1000to1500_TuneCP5_13TeV-madgraphMLM-pythia8/LegacyRun2_2018_AH_v1/190706_081357/0000/tree_198.root = 64474
root://t3dcachedb.psi.ch//pnfs/psi.ch/cms/trivcat/store/user/koschwei/tth/LegacyRun2_2018_AH_v1/QCD_HT1000to1500_TuneCP5_13TeV-madgraphMLM-pythia8/LegacyRun2_2018_AH_v1/190706_081357/0000/tree_14.root = 64664
root://t3dcachedb.psi.ch//pnfs/psi.ch/cms/trivcat/store/user/koschwei/tth/LegacyRun2_2018_AH_v1/QCD_HT1000to1500_TuneCP5_13TeV-madgraphMLM-pythia8/LegacyRun2_2018_AH_v1/190706_081357/0000/tree_199.root = 64962
root://t3dcachedb.psi.ch//pnfs/psi.ch/cms/trivcat/store/user/koschwei/tth/LegacyRun2_2018_AH_v1/QCD_HT1000to1500_TuneCP5_13TeV-madgraphMLM-pythia8/LegacyRun2_2018_AH_v1/190706_081357/0000/tree_1.root = 64806
root://t3dcachedb.psi.ch//pnfs/psi.ch/cms/trivcat/store/user/koschwei/tth/LegacyRun2_2018_AH_v1/QCD_HT1000to1500_TuneCP5_13TeV-madgraphMLM-pythia8/LegacyRun2_2018_AH_v1/190706_081357/0000/tree_60.root = 64639
root://t3dcachedb.psi.ch//pnfs/psi.ch/cms/trivcat/store/user/koschwei/tth/LegacyRun2_2018_AH_v1/QCD_HT1000to1500_TuneCP5_13TeV-madgraphMLM-pythia8/LegacyRun2_2018_AH_v1/190706_081357/0000/tree_15.root = 64348
root://t3dcachedb.psi.ch//pnfs/psi.ch/cms/trivcat/store/user/koschwei/tth/LegacyRun2_2018_AH_v1/QCD_HT1000to1500_TuneCP5_13TeV-madgraphMLM-pythia8/LegacyRun2_2018_AH_v1/190706_081357/0000/tree_2.root = 64942
root://t3dcachedb.psi.ch//pnfs/psi.ch/cms/trivcat/store/user/koschwei/tth/LegacyRun2_2018_AH_v1/QCD_HT1000to1500_TuneCP5_13TeV-madgraphMLM-pythia8/LegacyRun2_2018_AH_v1/190706_081357/0000/tree_61.root = 64261
root://t3dcachedb.psi.ch//pnfs/psi.ch/cms/trivcat/store/user/koschwei/tth/LegacyRun2_2018_AH_v1/QCD_HT1000to1500_TuneCP5_13TeV-madgraphMLM-pythia8/LegacyRun2_2018_AH_v1/190706_081357/0000/tree_16.root = 64219
root://t3dcachedb.psi.ch//pnfs/psi.ch/cms/trivcat/store/user/koschwei/tth/LegacyRun2_2018_AH_v1/QCD_HT1000to1500_TuneCP5_13TeV-madgraphMLM-pythia8/LegacyRun2_2018_AH_v1/190706_081357/0000/tree_3.root = 64317
root://t3dcachedb.psi.ch//pnfs/psi.ch/cms/trivcat/store/user/koschwei/tth/LegacyRun2_2018_AH_v1/QCD_HT1000to1500_TuneCP5_13TeV-madgraphMLM-pythia8/LegacyRun2_2018_AH_v1/190706_081357/0000/tree_62.root = 64736
root://t3dcachedb.psi.ch//pnfs/psi.ch/cms/trivcat/store/user/koschwei/tth/LegacyRun2_2018_AH_v1/QCD_HT1000to1500_TuneCP5_13TeV-madgraphMLM-pythia8/LegacyRun2_2018_AH_v1/190706_081357/0000/tree_17.root = 64840
root://t3dcachedb.psi.ch//pnfs/psi.ch/cms/trivcat/store/user/koschwei/tth/LegacyRun2_2018_AH_v1/QCD_HT1000to1500_TuneCP5_13TeV-madgraphMLM-pythia8/LegacyRun2_2018_AH_v1/190706_081357/0000/tree_4.root = 64736
root://t3dcachedb.psi.ch//pnfs/psi.ch/cms/trivcat/store/user/koschwei/tth/LegacyRun2_2018_AH_v1/QCD_HT1000to1500_TuneCP5_13TeV-madgraphMLM-pythia8/LegacyRun2_2018_AH_v1/190706_081357/0000/tree_63.root = 65153
root://t3dcachedb.psi.ch//pnfs/psi.ch/cms/trivcat/store/user/koschwei/tth/LegacyRun2_2018_AH_v1/QCD_HT1000to1500_TuneCP5_13TeV-madgraphMLM-pythia8/LegacyRun2_2018_AH_v1/190706_081357/0000/tree_18.root = 21474
root://t3dcachedb.psi.ch//pnfs/psi.ch/cms/trivcat/store/user/koschwei/tth/LegacyRun2_2018_AH_v1/QCD_HT1000to1500_TuneCP5_13TeV-madgraphMLM-pythia8/LegacyRun2_2018_AH_v1/190706_081357/0000/tree_5.root = 64990
root://t3dcachedb.psi.ch//pnfs/psi.ch/cms/trivcat/store/user/koschwei/tth/LegacyRun2_2018_AH_v1/QCD_HT1000to1500_TuneCP5_13TeV-madgraphMLM-pythia8/LegacyRun2_2018_AH_v1/190706_081357/0000/tree_64.root = 64489
root://t3dcachedb.psi.ch//pnfs/psi.ch/cms/trivcat/store/user/koschwei/tth/LegacyRun2_2018_AH_v1/QCD_HT1000to1500_TuneCP5_13TeV-madgraphMLM-pythia8/LegacyRun2_2018_AH_v1/190706_081357/0000/tree_19.root = 64650
root://t3dcachedb.psi.ch//pnfs/psi.ch/cms/trivcat/store/user/koschwei/tth/LegacyRun2_2018_AH_v1/QCD_HT1000to1500_TuneCP5_13TeV-madgraphMLM-pythia8/LegacyRun2_2018_AH_v1/190706_081357/0000/tree_6.root = 64708
root://t3dcachedb.psi.ch//pnfs/psi.ch/cms/trivcat/store/user/koschwei/tth/LegacyRun2_2018_AH_v1/QCD_HT1000to1500_TuneCP5_13TeV-madgraphMLM-pythia8/LegacyRun2_2018_AH_v1/190706_081357/0000/tree_65.root = 64776
root://t3dcachedb.psi.ch//pnfs/psi.ch/cms/trivcat/store/user/koschwei/tth/LegacyRun2_2018_AH_v1/QCD_HT1000to1500_TuneCP5_13TeV-madgraphMLM-pythia8/LegacyRun2_2018_AH_v1/190706_081357/0000/tree_7.root = 64579
root://t3dcachedb.psi.ch//pnfs/psi.ch/cms/trivcat/store/user/koschwei/tth/LegacyRun2_2018_AH_v1/QCD_HT1000to1500_TuneCP5_13TeV-madgraphMLM-pythia8/LegacyRun2_2018_AH_v1/190706_081357/0000/tree_66.root = 64843
root://t3dcachedb.psi.ch//pnfs/psi.ch/cms/trivcat/store/user/koschwei/tth/LegacyRun2_2018_AH_v1/QCD_HT1000to1500_TuneCP5_13TeV-madgraphMLM-pythia8/LegacyRun2_2018_AH_v1/190706_081357/0000/tree_8.root = 64219
root://t3dcachedb.psi.ch//pnfs/psi.ch/cms/trivcat/store/user/koschwei/tth/LegacyRun2_2018_AH_v1/QCD_HT1000to1500_TuneCP5_13TeV-madgraphMLM-pythia8/LegacyRun2_2018_AH_v1/190706_081357/0000/tree_67.root = 64630
root://t3dcachedb.psi.ch//pnfs/psi.ch/cms/trivcat/store/user/koschwei/tth/LegacyRun2_2018_AH_v1/QCD_HT1000to1500_TuneCP5_13TeV-madgraphMLM-pythia8/LegacyRun2_2018_AH_v1/190706_081357/0000/tree_9.root = 64467
root://t3dcachedb.psi.ch//pnfs/psi.ch/cms/trivcat/store/user/koschwei/tth/LegacyRun2_2018_AH_v1/QCD_HT1000to1500_TuneCP5_13TeV-madgraphMLM-pythia8/LegacyRun2_2018_AH_v1/190706_081357/0000/tree_68.root = 64735
root://t3dcachedb.psi.ch//pnfs/psi.ch/cms/trivcat/store/user/koschwei/tth/LegacyRun2_2018_AH_v1/QCD_HT1000to1500_TuneCP5_13TeV-madgraphMLM-pythia8/LegacyRun2_2018_AH_v1/190706_081357/0000/tree_69.root = 65196
root://t3dcachedb.psi.ch//pnfs/psi.ch/cms/trivcat/store/user/koschwei/tth/LegacyRun2_2018_AH_v1/QCD_HT1000to1500_TuneCP5_13TeV-madgraphMLM-pythia8/LegacyRun2_2018_AH_v1/190706_081357/0000/tree_100.root = 64954
root://t3dcachedb.psi.ch//pnfs/psi.ch/cms/trivcat/store/user/koschwei/tth/LegacyRun2_2018_AH_v1/QCD_HT1000to1500_TuneCP5_13TeV-madgraphMLM-pythia8/LegacyRun2_2018_AH_v1/190706_081357/0000/tree_101.root = 64772
root://t3dcachedb.psi.ch//pnfs/psi.ch/cms/trivcat/store/user/koschwei/tth/LegacyRun2_2018_AH_v1/QCD_HT1000to1500_TuneCP5_13TeV-madgraphMLM-pythia8/LegacyRun2_2018_AH_v1/190706_081357/0000/tree_102.root = 64759
root://t3dcachedb.psi.ch//pnfs/psi.ch/cms/trivcat/store/user/koschwei/tth/LegacyRun2_2018_AH_v1/QCD_HT1000to1500_TuneCP5_13TeV-madgraphMLM-pythia8/LegacyRun2_2018_AH_v1/190706_081357/0000/tree_103.root = 65137
root://t3dcachedb.psi.ch//pnfs/psi.ch/cms/trivcat/store/user/koschwei/tth/LegacyRun2_2018_AH_v1/QCD_HT1000to1500_TuneCP5_13TeV-madgraphMLM-pythia8/LegacyRun2_2018_AH_v1/190706_081357/0000/tree_230.root = 64646
root://t3dcachedb.psi.ch//pnfs/psi.ch/cms/trivcat/store/user/koschwei/tth/LegacyRun2_2018_AH_v1/QCD_HT1000to1500_TuneCP5_13TeV-madgraphMLM-pythia8/LegacyRun2_2018_AH_v1/190706_081357/0000/tree_104.root = 64477
root://t3dcachedb.psi.ch//pnfs/psi.ch/cms/trivcat/store/user/koschwei/tth/LegacyRun2_2018_AH_v1/QCD_HT1000to1500_TuneCP5_13TeV-madgraphMLM-pythia8/LegacyRun2_2018_AH_v1/190706_081357/0000/tree_231.root = 64570
root://t3dcachedb.psi.ch//pnfs/psi.ch/cms/trivcat/store/user/koschwei/tth/LegacyRun2_2018_AH_v1/QCD_HT1000to1500_TuneCP5_13TeV-madgraphMLM-pythia8/LegacyRun2_2018_AH_v1/190706_081357/0000/tree_150.root = 64815
root://t3dcachedb.psi.ch//pnfs/psi.ch/cms/trivcat/store/user/koschwei/tth/LegacyRun2_2018_AH_v1/QCD_HT1000to1500_TuneCP5_13TeV-madgraphMLM-pythia8/LegacyRun2_2018_AH_v1/190706_081357/0000/tree_105.root = 64342
root://t3dcachedb.psi.ch//pnfs/psi.ch/cms/trivcat/store/user/koschwei/tth/LegacyRun2_2018_AH_v1/QCD_HT1000to1500_TuneCP5_13TeV-madgraphMLM-pythia8/LegacyRun2_2018_AH_v1/190706_081357/0000/tree_232.root = 64989
root://t3dcachedb.psi.ch//pnfs/psi.ch/cms/trivcat/store/user/koschwei/tth/LegacyRun2_2018_AH_v1/QCD_HT1000to1500_TuneCP5_13TeV-madgraphMLM-pythia8/LegacyRun2_2018_AH_v1/190706_081357/0000/tree_151.root = 64721
root://t3dcachedb.psi.ch//pnfs/psi.ch/cms/trivcat/store/user/koschwei/tth/LegacyRun2_2018_AH_v1/QCD_HT1000to1500_TuneCP5_13TeV-madgraphMLM-pythia8/LegacyRun2_2018_AH_v1/190706_081357/0000/tree_106.root = 64747
root://t3dcachedb.psi.ch//pnfs/psi.ch/cms/trivcat/store/user/koschwei/tth/LegacyRun2_2018_AH_v1/QCD_HT1000to1500_TuneCP5_13TeV-madgraphMLM-pythia8/LegacyRun2_2018_AH_v1/190706_081357/0000/tree_233.root = 64553
root://t3dcachedb.psi.ch//pnfs/psi.ch/cms/trivcat/store/user/koschwei/tth/LegacyRun2_2018_AH_v1/QCD_HT1000to1500_TuneCP5_13TeV-madgraphMLM-pythia8/LegacyRun2_2018_AH_v1/190706_081357/0000/tree_152.root = 64889
root://t3dcachedb.psi.ch//pnfs/psi.ch/cms/trivcat/store/user/koschwei/tth/LegacyRun2_2018_AH_v1/QCD_HT1000to1500_TuneCP5_13TeV-madgraphMLM-pythia8/LegacyRun2_2018_AH_v1/190706_081357/0000/tree_107.root = 64986
root://t3dcachedb.psi.ch//pnfs/psi.ch/cms/trivcat/store/user/koschwei/tth/LegacyRun2_2018_AH_v1/QCD_HT1000to1500_TuneCP5_13TeV-madgraphMLM-pythia8/LegacyRun2_2018_AH_v1/190706_081357/0000/tree_234.root = 64977
root://t3dcachedb.psi.ch//pnfs/psi.ch/cms/trivcat/store/user/koschwei/tth/LegacyRun2_2018_AH_v1/QCD_HT1000to1500_TuneCP5_13TeV-madgraphMLM-pythia8/LegacyRun2_2018_AH_v1/190706_081357/0000/tree_153.root = 65043
root://t3dcachedb.psi.ch//pnfs/psi.ch/cms/trivcat/store/user/koschwei/tth/LegacyRun2_2018_AH_v1/QCD_HT1000to1500_TuneCP5_13TeV-madgraphMLM-pythia8/LegacyRun2_2018_AH_v1/190706_081357/0000/tree_108.root = 64397
root://t3dcachedb.psi.ch//pnfs/psi.ch/cms/trivcat/store/user/koschwei/tth/LegacyRun2_2018_AH_v1/QCD_HT1000to1500_TuneCP5_13TeV-madgraphMLM-pythia8/LegacyRun2_2018_AH_v1/190706_081357/0000/tree_235.root = 64277
root://t3dcachedb.psi.ch//pnfs/psi.ch/cms/trivcat/store/user/koschwei/tth/LegacyRun2_2018_AH_v1/QCD_HT1000to1500_TuneCP5_13TeV-madgraphMLM-pythia8/LegacyRun2_2018_AH_v1/190706_081357/0000/tree_154.root = 64376
root://t3dcachedb.psi.ch//pnfs/psi.ch/cms/trivcat/store/user/koschwei/tth/LegacyRun2_2018_AH_v1/QCD_HT1000to1500_TuneCP5_13TeV-madgraphMLM-pythia8/LegacyRun2_2018_AH_v1/190706_081357/0000/tree_109.root = 64726
root://t3dcachedb.psi.ch//pnfs/psi.ch/cms/trivcat/store/user/koschwei/tth/LegacyRun2_2018_AH_v1/QCD_HT1000to1500_TuneCP5_13TeV-madgraphMLM-pythia8/LegacyRun2_2018_AH_v1/190706_081357/0000/tree_236.root = 64664
root://t3dcachedb.psi.ch//pnfs/psi.ch/cms/trivcat/store/user/koschwei/tth/LegacyRun2_2018_AH_v1/QCD_HT1000to1500_TuneCP5_13TeV-madgraphMLM-pythia8/LegacyRun2_2018_AH_v1/190706_081357/0000/tree_155.root = 64596
root://t3dcachedb.psi.ch//pnfs/psi.ch/cms/trivcat/store/user/koschwei/tth/LegacyRun2_2018_AH_v1/QCD_HT1000to1500_TuneCP5_13TeV-madgraphMLM-pythia8/LegacyRun2_2018_AH_v1/190706_081357/0000/tree_237.root = 64883
root://t3dcachedb.psi.ch//pnfs/psi.ch/cms/trivcat/store/user/koschwei/tth/LegacyRun2_2018_AH_v1/QCD_HT1000to1500_TuneCP5_13TeV-madgraphMLM-pythia8/LegacyRun2_2018_AH_v1/190706_081357/0000/tree_156.root = 64992
root://t3dcachedb.psi.ch//pnfs/psi.ch/cms/trivcat/store/user/koschwei/tth/LegacyRun2_2018_AH_v1/QCD_HT1000to1500_TuneCP5_13TeV-madgraphMLM-pythia8/LegacyRun2_2018_AH_v1/190706_081357/0000/tree_238.root = 64631
root://t3dcachedb.psi.ch//pnfs/psi.ch/cms/trivcat/store/user/koschwei/tth/LegacyRun2_2018_AH_v1/QCD_HT1000to1500_TuneCP5_13TeV-madgraphMLM-pythia8/LegacyRun2_2018_AH_v1/190706_081357/0000/tree_157.root = 64480
root://t3dcachedb.psi.ch//pnfs/psi.ch/cms/trivcat/store/user/koschwei/tth/LegacyRun2_2018_AH_v1/QCD_HT1000to1500_TuneCP5_13TeV-madgraphMLM-pythia8/LegacyRun2_2018_AH_v1/190706_081357/0000/tree_239.root = 64959
root://t3dcachedb.psi.ch//pnfs/psi.ch/cms/trivcat/store/user/koschwei/tth/LegacyRun2_2018_AH_v1/QCD_HT1000to1500_TuneCP5_13TeV-madgraphMLM-pythia8/LegacyRun2_2018_AH_v1/190706_081357/0000/tree_158.root = 64833
root://t3dcachedb.psi.ch//pnfs/psi.ch/cms/trivcat/store/user/koschwei/tth/LegacyRun2_2018_AH_v1/QCD_HT1000to1500_TuneCP5_13TeV-madgraphMLM-pythia8/LegacyRun2_2018_AH_v1/190706_081357/0000/tree_159.root = 64604
root://t3dcachedb.psi.ch//pnfs/psi.ch/cms/trivcat/store/user/koschwei/tth/LegacyRun2_2018_AH_v1/QCD_HT1000to1500_TuneCP5_13TeV-madgraphMLM-pythia8/LegacyRun2_2018_AH_v1/190706_081357/0000/tree_20.root = 64985
root://t3dcachedb.psi.ch//pnfs/psi.ch/cms/trivcat/store/user/koschwei/tth/LegacyRun2_2018_AH_v1/QCD_HT1000to1500_TuneCP5_13TeV-madgraphMLM-pythia8/LegacyRun2_2018_AH_v1/190706_081357/0000/tree_21.root = 64412
root://t3dcachedb.psi.ch//pnfs/psi.ch/cms/trivcat/store/user/koschwei/tth/LegacyRun2_2018_AH_v1/QCD_HT1000to1500_TuneCP5_13TeV-madgraphMLM-pythia8/LegacyRun2_2018_AH_v1/190706_081357/0000/tree_22.root = 64164
root://t3dcachedb.psi.ch//pnfs/psi.ch/cms/trivcat/store/user/koschwei/tth/LegacyRun2_2018_AH_v1/QCD_HT1000to1500_TuneCP5_13TeV-madgraphMLM-pythia8/LegacyRun2_2018_AH_v1/190706_081357/0000/tree_23.root = 64506
root://t3dcachedb.psi.ch//pnfs/psi.ch/cms/trivcat/store/user/koschwei/tth/LegacyRun2_2018_AH_v1/QCD_HT1000to1500_TuneCP5_13TeV-madgraphMLM-pythia8/LegacyRun2_2018_AH_v1/190706_081357/0000/tree_24.root = 64756
root://t3dcachedb.psi.ch//pnfs/psi.ch/cms/trivcat/store/user/koschwei/tth/LegacyRun2_2018_AH_v1/QCD_HT1000to1500_TuneCP5_13TeV-madgraphMLM-pythia8/LegacyRun2_2018_AH_v1/190706_081357/0000/tree_70.root = 64362
root://t3dcachedb.psi.ch//pnfs/psi.ch/cms/trivcat/store/user/koschwei/tth/LegacyRun2_2018_AH_v1/QCD_HT1000to1500_TuneCP5_13TeV-madgraphMLM-pythia8/LegacyRun2_2018_AH_v1/190706_081357/0000/tree_25.root = 64886
root://t3dcachedb.psi.ch//pnfs/psi.ch/cms/trivcat/store/user/koschwei/tth/LegacyRun2_2018_AH_v1/QCD_HT1000to1500_TuneCP5_13TeV-madgraphMLM-pythia8/LegacyRun2_2018_AH_v1/190706_081357/0000/tree_71.root = 64695
root://t3dcachedb.psi.ch//pnfs/psi.ch/cms/trivcat/store/user/koschwei/tth/LegacyRun2_2018_AH_v1/QCD_HT1000to1500_TuneCP5_13TeV-madgraphMLM-pythia8/LegacyRun2_2018_AH_v1/190706_081357/0000/tree_26.root = 64858
root://t3dcachedb.psi.ch//pnfs/psi.ch/cms/trivcat/store/user/koschwei/tth/LegacyRun2_2018_AH_v1/QCD_HT1000to1500_TuneCP5_13TeV-madgraphMLM-pythia8/LegacyRun2_2018_AH_v1/190706_081357/0000/tree_72.root = 64693
root://t3dcachedb.psi.ch//pnfs/psi.ch/cms/trivcat/store/user/koschwei/tth/LegacyRun2_2018_AH_v1/QCD_HT1000to1500_TuneCP5_13TeV-madgraphMLM-pythia8/LegacyRun2_2018_AH_v1/190706_081357/0000/tree_27.root = 64712
root://t3dcachedb.psi.ch//pnfs/psi.ch/cms/trivcat/store/user/koschwei/tth/LegacyRun2_2018_AH_v1/QCD_HT1000to1500_TuneCP5_13TeV-madgraphMLM-pythia8/LegacyRun2_2018_AH_v1/190706_081357/0000/tree_73.root = 64788
root://t3dcachedb.psi.ch//pnfs/psi.ch/cms/trivcat/store/user/koschwei/tth/LegacyRun2_2018_AH_v1/QCD_HT1000to1500_TuneCP5_13TeV-madgraphMLM-pythia8/LegacyRun2_2018_AH_v1/190706_081357/0000/tree_28.root = 64737
root://t3dcachedb.psi.ch//pnfs/psi.ch/cms/trivcat/store/user/koschwei/tth/LegacyRun2_2018_AH_v1/QCD_HT1000to1500_TuneCP5_13TeV-madgraphMLM-pythia8/LegacyRun2_2018_AH_v1/190706_081357/0000/tree_74.root = 64969
root://t3dcachedb.psi.ch//pnfs/psi.ch/cms/trivcat/store/user/koschwei/tth/LegacyRun2_2018_AH_v1/QCD_HT1000to1500_TuneCP5_13TeV-madgraphMLM-pythia8/LegacyRun2_2018_AH_v1/190706_081357/0000/tree_29.root = 64738
root://t3dcachedb.psi.ch//pnfs/psi.ch/cms/trivcat/store/user/koschwei/tth/LegacyRun2_2018_AH_v1/QCD_HT1000to1500_TuneCP5_13TeV-madgraphMLM-pythia8/LegacyRun2_2018_AH_v1/190706_081357/0000/tree_75.root = 64562
root://t3dcachedb.psi.ch//pnfs/psi.ch/cms/trivcat/store/user/koschwei/tth/LegacyRun2_2018_AH_v1/QCD_HT1000to1500_TuneCP5_13TeV-madgraphMLM-pythia8/LegacyRun2_2018_AH_v1/190706_081357/0000/tree_76.root = 64465
root://t3dcachedb.psi.ch//pnfs/psi.ch/cms/trivcat/store/user/koschwei/tth/LegacyRun2_2018_AH_v1/QCD_HT1000to1500_TuneCP5_13TeV-madgraphMLM-pythia8/LegacyRun2_2018_AH_v1/190706_081357/0000/tree_77.root = 65004
root://t3dcachedb.psi.ch//pnfs/psi.ch/cms/trivcat/store/user/koschwei/tth/LegacyRun2_2018_AH_v1/QCD_HT1000to1500_TuneCP5_13TeV-madgraphMLM-pythia8/LegacyRun2_2018_AH_v1/190706_081357/0000/tree_78.root = 64628
root://t3dcachedb.psi.ch//pnfs/psi.ch/cms/trivcat/store/user/koschwei/tth/LegacyRun2_2018_AH_v1/QCD_HT1000to1500_TuneCP5_13TeV-madgraphMLM-pythia8/LegacyRun2_2018_AH_v1/190706_081357/0000/tree_79.root = 64469
root://t3dcachedb.psi.ch//pnfs/psi.ch/cms/trivcat/store/user/koschwei/tth/LegacyRun2_2018_AH_v1/QCD_HT1000to1500_TuneCP5_13TeV-madgraphMLM-pythia8/LegacyRun2_2018_AH_v1/190706_081357/0000/tree_110.root = 64710
root://t3dcachedb.psi.ch//pnfs/psi.ch/cms/trivcat/store/user/koschwei/tth/LegacyRun2_2018_AH_v1/QCD_HT1000to1500_TuneCP5_13TeV-madgraphMLM-pythia8/LegacyRun2_2018_AH_v1/190706_081357/0000/tree_111.root = 64904
root://t3dcachedb.psi.ch//pnfs/psi.ch/cms/trivcat/store/user/koschwei/tth/LegacyRun2_2018_AH_v1/QCD_HT1000to1500_TuneCP5_13TeV-madgraphMLM-pythia8/LegacyRun2_2018_AH_v1/190706_081357/0000/tree_112.root = 64835
