[ttHTobb_M125_TuneCP5_13TeV-powheg-pythia8]
root://t3dcachedb.psi.ch//pnfs/psi.ch/cms/trivcat/store/user/koschwei/tth/LegacyRun2_2018_AH_v1/ttHTobb_M125_TuneCP5_13TeV-powheg-pythia8/LegacyRun2_2018_AH_v1/190706_075307/0000/tree_35.root = 25000
root://t3dcachedb.psi.ch//pnfs/psi.ch/cms/trivcat/store/user/koschwei/tth/LegacyRun2_2018_AH_v1/ttHTobb_M125_TuneCP5_13TeV-powheg-pythia8/LegacyRun2_2018_AH_v1/190706_075307/0000/tree_38.root = 25000
root://t3dcachedb.psi.ch//pnfs/psi.ch/cms/trivcat/store/user/koschwei/tth/LegacyRun2_2018_AH_v1/ttHTobb_M125_TuneCP5_13TeV-powheg-pythia8/LegacyRun2_2018_AH_v1/190706_075307/0000/tree_39.root = 25000
root://t3dcachedb.psi.ch//pnfs/psi.ch/cms/trivcat/store/user/koschwei/tth/LegacyRun2_2018_AH_v1/ttHTobb_M125_TuneCP5_13TeV-powheg-pythia8/LegacyRun2_2018_AH_v1/190706_075307/0000/tree_42.root = 25000
root://t3dcachedb.psi.ch//pnfs/psi.ch/cms/trivcat/store/user/koschwei/tth/LegacyRun2_2018_AH_v1/ttHTobb_M125_TuneCP5_13TeV-powheg-pythia8/LegacyRun2_2018_AH_v1/190706_075307/0000/tree_36.root = 25000
root://t3dcachedb.psi.ch//pnfs/psi.ch/cms/trivcat/store/user/koschwei/tth/LegacyRun2_2018_AH_v1/ttHTobb_M125_TuneCP5_13TeV-powheg-pythia8/LegacyRun2_2018_AH_v1/190706_075307/0000/tree_47.root = 25000
root://t3dcachedb.psi.ch//pnfs/psi.ch/cms/trivcat/store/user/koschwei/tth/LegacyRun2_2018_AH_v1/ttHTobb_M125_TuneCP5_13TeV-powheg-pythia8/LegacyRun2_2018_AH_v1/190706_075307/0000/tree_49.root = 25000
root://t3dcachedb.psi.ch//pnfs/psi.ch/cms/trivcat/store/user/koschwei/tth/LegacyRun2_2018_AH_v1/ttHTobb_M125_TuneCP5_13TeV-powheg-pythia8/LegacyRun2_2018_AH_v1/190706_075307/0000/tree_37.root = 25000
root://t3dcachedb.psi.ch//pnfs/psi.ch/cms/trivcat/store/user/koschwei/tth/LegacyRun2_2018_AH_v1/ttHTobb_M125_TuneCP5_13TeV-powheg-pythia8/LegacyRun2_2018_AH_v1/190706_075307/0000/tree_48.root = 25000
root://t3dcachedb.psi.ch//pnfs/psi.ch/cms/trivcat/store/user/koschwei/tth/LegacyRun2_2018_AH_v1/ttHTobb_M125_TuneCP5_13TeV-powheg-pythia8/LegacyRun2_2018_AH_v1/190706_075307/0000/tree_44.root = 25000
root://t3dcachedb.psi.ch//pnfs/psi.ch/cms/trivcat/store/user/koschwei/tth/LegacyRun2_2018_AH_v1/ttHTobb_M125_TuneCP5_13TeV-powheg-pythia8/LegacyRun2_2018_AH_v1/190706_075307/0000/tree_31.root = 25000
root://t3dcachedb.psi.ch//pnfs/psi.ch/cms/trivcat/store/user/koschwei/tth/LegacyRun2_2018_AH_v1/ttHTobb_M125_TuneCP5_13TeV-powheg-pythia8/LegacyRun2_2018_AH_v1/190706_075307/0000/tree_33.root = 25000
root://t3dcachedb.psi.ch//pnfs/psi.ch/cms/trivcat/store/user/koschwei/tth/LegacyRun2_2018_AH_v1/ttHTobb_M125_TuneCP5_13TeV-powheg-pythia8/LegacyRun2_2018_AH_v1/190706_075307/0000/tree_34.root = 25000
root://t3dcachedb.psi.ch//pnfs/psi.ch/cms/trivcat/store/user/koschwei/tth/LegacyRun2_2018_AH_v1/ttHTobb_M125_TuneCP5_13TeV-powheg-pythia8/LegacyRun2_2018_AH_v1/190706_075307/0000/tree_130.root = 25000
root://t3dcachedb.psi.ch//pnfs/psi.ch/cms/trivcat/store/user/koschwei/tth/LegacyRun2_2018_AH_v1/ttHTobb_M125_TuneCP5_13TeV-powheg-pythia8/LegacyRun2_2018_AH_v1/190706_075307/0000/tree_121.root = 25000
root://t3dcachedb.psi.ch//pnfs/psi.ch/cms/trivcat/store/user/koschwei/tth/LegacyRun2_2018_AH_v1/ttHTobb_M125_TuneCP5_13TeV-powheg-pythia8/LegacyRun2_2018_AH_v1/190706_075307/0000/tree_123.root = 25000
root://t3dcachedb.psi.ch//pnfs/psi.ch/cms/trivcat/store/user/koschwei/tth/LegacyRun2_2018_AH_v1/ttHTobb_M125_TuneCP5_13TeV-powheg-pythia8/LegacyRun2_2018_AH_v1/190706_075307/0000/tree_137.root = 25000
root://t3dcachedb.psi.ch//pnfs/psi.ch/cms/trivcat/store/user/koschwei/tth/LegacyRun2_2018_AH_v1/ttHTobb_M125_TuneCP5_13TeV-powheg-pythia8/LegacyRun2_2018_AH_v1/190706_075307/0000/tree_81.root = 25000
root://t3dcachedb.psi.ch//pnfs/psi.ch/cms/trivcat/store/user/koschwei/tth/LegacyRun2_2018_AH_v1/ttHTobb_M125_TuneCP5_13TeV-powheg-pythia8/LegacyRun2_2018_AH_v1/190706_075307/0000/tree_43.root = 25000
root://t3dcachedb.psi.ch//pnfs/psi.ch/cms/trivcat/store/user/koschwei/tth/LegacyRun2_2018_AH_v1/ttHTobb_M125_TuneCP5_13TeV-powheg-pythia8/LegacyRun2_2018_AH_v1/190706_075307/0000/tree_131.root = 25000
root://t3dcachedb.psi.ch//pnfs/psi.ch/cms/trivcat/store/user/koschwei/tth/LegacyRun2_2018_AH_v1/ttHTobb_M125_TuneCP5_13TeV-powheg-pythia8/LegacyRun2_2018_AH_v1/190706_075307/0000/tree_136.root = 25000
root://t3dcachedb.psi.ch//pnfs/psi.ch/cms/trivcat/store/user/koschwei/tth/LegacyRun2_2018_AH_v1/ttHTobb_M125_TuneCP5_13TeV-powheg-pythia8/LegacyRun2_2018_AH_v1/190706_075307/0000/tree_50.root = 25000
root://t3dcachedb.psi.ch//pnfs/psi.ch/cms/trivcat/store/user/koschwei/tth/LegacyRun2_2018_AH_v1/ttHTobb_M125_TuneCP5_13TeV-powheg-pythia8/LegacyRun2_2018_AH_v1/190706_075307/0000/tree_125.root = 25000
root://t3dcachedb.psi.ch//pnfs/psi.ch/cms/trivcat/store/user/koschwei/tth/LegacyRun2_2018_AH_v1/ttHTobb_M125_TuneCP5_13TeV-powheg-pythia8/LegacyRun2_2018_AH_v1/190706_075307/0000/tree_122.root = 25000
root://t3dcachedb.psi.ch//pnfs/psi.ch/cms/trivcat/store/user/koschwei/tth/LegacyRun2_2018_AH_v1/ttHTobb_M125_TuneCP5_13TeV-powheg-pythia8/LegacyRun2_2018_AH_v1/190706_075307/0000/tree_132.root = 25000
root://t3dcachedb.psi.ch//pnfs/psi.ch/cms/trivcat/store/user/koschwei/tth/LegacyRun2_2018_AH_v1/ttHTobb_M125_TuneCP5_13TeV-powheg-pythia8/LegacyRun2_2018_AH_v1/190706_075307/0000/tree_117.root = 25000
root://t3dcachedb.psi.ch//pnfs/psi.ch/cms/trivcat/store/user/koschwei/tth/LegacyRun2_2018_AH_v1/ttHTobb_M125_TuneCP5_13TeV-powheg-pythia8/LegacyRun2_2018_AH_v1/190706_075307/0000/tree_40.root = 25000
root://t3dcachedb.psi.ch//pnfs/psi.ch/cms/trivcat/store/user/koschwei/tth/LegacyRun2_2018_AH_v1/ttHTobb_M125_TuneCP5_13TeV-powheg-pythia8/LegacyRun2_2018_AH_v1/190706_075307/0000/tree_80.root = 25000
root://t3dcachedb.psi.ch//pnfs/psi.ch/cms/trivcat/store/user/koschwei/tth/LegacyRun2_2018_AH_v1/ttHTobb_M125_TuneCP5_13TeV-powheg-pythia8/LegacyRun2_2018_AH_v1/190706_075307/0000/tree_46.root = 25000
root://t3dcachedb.psi.ch//pnfs/psi.ch/cms/trivcat/store/user/koschwei/tth/LegacyRun2_2018_AH_v1/ttHTobb_M125_TuneCP5_13TeV-powheg-pythia8/LegacyRun2_2018_AH_v1/190706_075307/0000/tree_127.root = 25000
root://t3dcachedb.psi.ch//pnfs/psi.ch/cms/trivcat/store/user/koschwei/tth/LegacyRun2_2018_AH_v1/ttHTobb_M125_TuneCP5_13TeV-powheg-pythia8/LegacyRun2_2018_AH_v1/190706_075307/0000/tree_120.root = 25000
root://t3dcachedb.psi.ch//pnfs/psi.ch/cms/trivcat/store/user/koschwei/tth/LegacyRun2_2018_AH_v1/ttHTobb_M125_TuneCP5_13TeV-powheg-pythia8/LegacyRun2_2018_AH_v1/190706_075307/0000/tree_129.root = 25000
root://t3dcachedb.psi.ch//pnfs/psi.ch/cms/trivcat/store/user/koschwei/tth/LegacyRun2_2018_AH_v1/ttHTobb_M125_TuneCP5_13TeV-powheg-pythia8/LegacyRun2_2018_AH_v1/190706_075307/0000/tree_139.root = 25000
root://t3dcachedb.psi.ch//pnfs/psi.ch/cms/trivcat/store/user/koschwei/tth/LegacyRun2_2018_AH_v1/ttHTobb_M125_TuneCP5_13TeV-powheg-pythia8/LegacyRun2_2018_AH_v1/190706_075307/0000/tree_119.root = 25000
root://t3dcachedb.psi.ch//pnfs/psi.ch/cms/trivcat/store/user/koschwei/tth/LegacyRun2_2018_AH_v1/ttHTobb_M125_TuneCP5_13TeV-powheg-pythia8/LegacyRun2_2018_AH_v1/190706_075307/0000/tree_133.root = 25000
root://t3dcachedb.psi.ch//pnfs/psi.ch/cms/trivcat/store/user/koschwei/tth/LegacyRun2_2018_AH_v1/ttHTobb_M125_TuneCP5_13TeV-powheg-pythia8/LegacyRun2_2018_AH_v1/190706_075307/0000/tree_128.root = 25000
root://t3dcachedb.psi.ch//pnfs/psi.ch/cms/trivcat/store/user/koschwei/tth/LegacyRun2_2018_AH_v1/ttHTobb_M125_TuneCP5_13TeV-powheg-pythia8/LegacyRun2_2018_AH_v1/190706_075307/0000/tree_126.root = 25000
root://t3dcachedb.psi.ch//pnfs/psi.ch/cms/trivcat/store/user/koschwei/tth/LegacyRun2_2018_AH_v1/ttHTobb_M125_TuneCP5_13TeV-powheg-pythia8/LegacyRun2_2018_AH_v1/190706_075307/0000/tree_135.root = 25000
root://t3dcachedb.psi.ch//pnfs/psi.ch/cms/trivcat/store/user/koschwei/tth/LegacyRun2_2018_AH_v1/ttHTobb_M125_TuneCP5_13TeV-powheg-pythia8/LegacyRun2_2018_AH_v1/190706_075307/0000/tree_124.root = 25000
root://t3dcachedb.psi.ch//pnfs/psi.ch/cms/trivcat/store/user/koschwei/tth/LegacyRun2_2018_AH_v1/ttHTobb_M125_TuneCP5_13TeV-powheg-pythia8/LegacyRun2_2018_AH_v1/190706_075307/0000/tree_118.root = 25000
root://t3dcachedb.psi.ch//pnfs/psi.ch/cms/trivcat/store/user/koschwei/tth/LegacyRun2_2018_AH_v1/ttHTobb_M125_TuneCP5_13TeV-powheg-pythia8/LegacyRun2_2018_AH_v1/190706_075307/0000/tree_134.root = 25000
root://t3dcachedb.psi.ch//pnfs/psi.ch/cms/trivcat/store/user/koschwei/tth/LegacyRun2_2018_AH_v1/ttHTobb_M125_TuneCP5_13TeV-powheg-pythia8/LegacyRun2_2018_AH_v1/190706_075307/0000/tree_138.root = 25000
root://t3dcachedb.psi.ch//pnfs/psi.ch/cms/trivcat/store/user/koschwei/tth/LegacyRun2_2018_AH_v1/ttHTobb_M125_TuneCP5_13TeV-powheg-pythia8/LegacyRun2_2018_AH_v1/190706_075307/0000/tree_82.root = 25000
root://t3dcachedb.psi.ch//pnfs/psi.ch/cms/trivcat/store/user/koschwei/tth/LegacyRun2_2018_AH_v1/ttHTobb_M125_TuneCP5_13TeV-powheg-pythia8/LegacyRun2_2018_AH_v1/190706_075307/0000/tree_83.root = 25000
root://t3dcachedb.psi.ch//pnfs/psi.ch/cms/trivcat/store/user/koschwei/tth/LegacyRun2_2018_AH_v1/ttHTobb_M125_TuneCP5_13TeV-powheg-pythia8/LegacyRun2_2018_AH_v1/190706_075307/0000/tree_99.root = 25000
root://t3dcachedb.psi.ch//pnfs/psi.ch/cms/trivcat/store/user/koschwei/tth/LegacyRun2_2018_AH_v1/ttHTobb_M125_TuneCP5_13TeV-powheg-pythia8/LegacyRun2_2018_AH_v1/190706_075307/0000/tree_87.root = 25000
root://t3dcachedb.psi.ch//pnfs/psi.ch/cms/trivcat/store/user/koschwei/tth/LegacyRun2_2018_AH_v1/ttHTobb_M125_TuneCP5_13TeV-powheg-pythia8/LegacyRun2_2018_AH_v1/190706_075307/0000/tree_32.root = 25000
root://t3dcachedb.psi.ch//pnfs/psi.ch/cms/trivcat/store/user/koschwei/tth/LegacyRun2_2018_AH_v1/ttHTobb_M125_TuneCP5_13TeV-powheg-pythia8/LegacyRun2_2018_AH_v1/190706_075307/0000/tree_91.root = 25000
root://t3dcachedb.psi.ch//pnfs/psi.ch/cms/trivcat/store/user/koschwei/tth/LegacyRun2_2018_AH_v1/ttHTobb_M125_TuneCP5_13TeV-powheg-pythia8/LegacyRun2_2018_AH_v1/190706_075307/0000/tree_96.root = 25000
root://t3dcachedb.psi.ch//pnfs/psi.ch/cms/trivcat/store/user/koschwei/tth/LegacyRun2_2018_AH_v1/ttHTobb_M125_TuneCP5_13TeV-powheg-pythia8/LegacyRun2_2018_AH_v1/190706_075307/0000/tree_89.root = 25000
root://t3dcachedb.psi.ch//pnfs/psi.ch/cms/trivcat/store/user/koschwei/tth/LegacyRun2_2018_AH_v1/ttHTobb_M125_TuneCP5_13TeV-powheg-pythia8/LegacyRun2_2018_AH_v1/190706_075307/0000/tree_93.root = 25000
root://t3dcachedb.psi.ch//pnfs/psi.ch/cms/trivcat/store/user/koschwei/tth/LegacyRun2_2018_AH_v1/ttHTobb_M125_TuneCP5_13TeV-powheg-pythia8/LegacyRun2_2018_AH_v1/190706_075307/0000/tree_113.root = 25000
root://t3dcachedb.psi.ch//pnfs/psi.ch/cms/trivcat/store/user/koschwei/tth/LegacyRun2_2018_AH_v1/ttHTobb_M125_TuneCP5_13TeV-powheg-pythia8/LegacyRun2_2018_AH_v1/190706_075307/0000/tree_45.root = 25000
root://t3dcachedb.psi.ch//pnfs/psi.ch/cms/trivcat/store/user/koschwei/tth/LegacyRun2_2018_AH_v1/ttHTobb_M125_TuneCP5_13TeV-powheg-pythia8/LegacyRun2_2018_AH_v1/190706_075307/0000/tree_88.root = 25000
root://t3dcachedb.psi.ch//pnfs/psi.ch/cms/trivcat/store/user/koschwei/tth/LegacyRun2_2018_AH_v1/ttHTobb_M125_TuneCP5_13TeV-powheg-pythia8/LegacyRun2_2018_AH_v1/190706_075307/0000/tree_94.root = 25000
root://t3dcachedb.psi.ch//pnfs/psi.ch/cms/trivcat/store/user/koschwei/tth/LegacyRun2_2018_AH_v1/ttHTobb_M125_TuneCP5_13TeV-powheg-pythia8/LegacyRun2_2018_AH_v1/190706_075307/0000/tree_90.root = 25000
root://t3dcachedb.psi.ch//pnfs/psi.ch/cms/trivcat/store/user/koschwei/tth/LegacyRun2_2018_AH_v1/ttHTobb_M125_TuneCP5_13TeV-powheg-pythia8/LegacyRun2_2018_AH_v1/190706_075307/0000/tree_98.root = 25000
root://t3dcachedb.psi.ch//pnfs/psi.ch/cms/trivcat/store/user/koschwei/tth/LegacyRun2_2018_AH_v1/ttHTobb_M125_TuneCP5_13TeV-powheg-pythia8/LegacyRun2_2018_AH_v1/190706_075307/0000/tree_115.root = 25000
root://t3dcachedb.psi.ch//pnfs/psi.ch/cms/trivcat/store/user/koschwei/tth/LegacyRun2_2018_AH_v1/ttHTobb_M125_TuneCP5_13TeV-powheg-pythia8/LegacyRun2_2018_AH_v1/190706_075307/0000/tree_95.root = 25000
root://t3dcachedb.psi.ch//pnfs/psi.ch/cms/trivcat/store/user/koschwei/tth/LegacyRun2_2018_AH_v1/ttHTobb_M125_TuneCP5_13TeV-powheg-pythia8/LegacyRun2_2018_AH_v1/190706_075307/0000/tree_97.root = 25000
root://t3dcachedb.psi.ch//pnfs/psi.ch/cms/trivcat/store/user/koschwei/tth/LegacyRun2_2018_AH_v1/ttHTobb_M125_TuneCP5_13TeV-powheg-pythia8/LegacyRun2_2018_AH_v1/190706_075307/0000/tree_41.root = 25000
root://t3dcachedb.psi.ch//pnfs/psi.ch/cms/trivcat/store/user/koschwei/tth/LegacyRun2_2018_AH_v1/ttHTobb_M125_TuneCP5_13TeV-powheg-pythia8/LegacyRun2_2018_AH_v1/190706_075307/0000/tree_84.root = 25000
root://t3dcachedb.psi.ch//pnfs/psi.ch/cms/trivcat/store/user/koschwei/tth/LegacyRun2_2018_AH_v1/ttHTobb_M125_TuneCP5_13TeV-powheg-pythia8/LegacyRun2_2018_AH_v1/190706_075307/0000/tree_92.root = 25000
root://t3dcachedb.psi.ch//pnfs/psi.ch/cms/trivcat/store/user/koschwei/tth/LegacyRun2_2018_AH_v1/ttHTobb_M125_TuneCP5_13TeV-powheg-pythia8/LegacyRun2_2018_AH_v1/190706_075307/0000/tree_116.root = 25000
root://t3dcachedb.psi.ch//pnfs/psi.ch/cms/trivcat/store/user/koschwei/tth/LegacyRun2_2018_AH_v1/ttHTobb_M125_TuneCP5_13TeV-powheg-pythia8/LegacyRun2_2018_AH_v1/190706_075307/0000/tree_114.root = 25000
root://t3dcachedb.psi.ch//pnfs/psi.ch/cms/trivcat/store/user/koschwei/tth/LegacyRun2_2018_AH_v1/ttHTobb_M125_TuneCP5_13TeV-powheg-pythia8/LegacyRun2_2018_AH_v1/190706_075307/0000/tree_30.root = 25000
root://t3dcachedb.psi.ch//pnfs/psi.ch/cms/trivcat/store/user/koschwei/tth/LegacyRun2_2018_AH_v1/ttHTobb_M125_TuneCP5_13TeV-powheg-pythia8/LegacyRun2_2018_AH_v1/190706_075307/0000/tree_86.root = 25000
root://t3dcachedb.psi.ch//pnfs/psi.ch/cms/trivcat/store/user/koschwei/tth/LegacyRun2_2018_AH_v1/ttHTobb_M125_TuneCP5_13TeV-powheg-pythia8/LegacyRun2_2018_AH_v1/190706_075307/0000/tree_160.root = 25000
root://t3dcachedb.psi.ch//pnfs/psi.ch/cms/trivcat/store/user/koschwei/tth/LegacyRun2_2018_AH_v1/ttHTobb_M125_TuneCP5_13TeV-powheg-pythia8/LegacyRun2_2018_AH_v1/190706_075307/0000/tree_163.root = 25000
root://t3dcachedb.psi.ch//pnfs/psi.ch/cms/trivcat/store/user/koschwei/tth/LegacyRun2_2018_AH_v1/ttHTobb_M125_TuneCP5_13TeV-powheg-pythia8/LegacyRun2_2018_AH_v1/190706_075307/0000/tree_161.root = 25000
root://t3dcachedb.psi.ch//pnfs/psi.ch/cms/trivcat/store/user/koschwei/tth/LegacyRun2_2018_AH_v1/ttHTobb_M125_TuneCP5_13TeV-powheg-pythia8/LegacyRun2_2018_AH_v1/190706_075307/0000/tree_162.root = 25000
root://t3dcachedb.psi.ch//pnfs/psi.ch/cms/trivcat/store/user/koschwei/tth/LegacyRun2_2018_AH_v1/ttHTobb_M125_TuneCP5_13TeV-powheg-pythia8/LegacyRun2_2018_AH_v1/190706_075307/0000/tree_170.root = 25000
root://t3dcachedb.psi.ch//pnfs/psi.ch/cms/trivcat/store/user/koschwei/tth/LegacyRun2_2018_AH_v1/ttHTobb_M125_TuneCP5_13TeV-powheg-pythia8/LegacyRun2_2018_AH_v1/190706_075307/0000/tree_166.root = 25000
root://t3dcachedb.psi.ch//pnfs/psi.ch/cms/trivcat/store/user/koschwei/tth/LegacyRun2_2018_AH_v1/ttHTobb_M125_TuneCP5_13TeV-powheg-pythia8/LegacyRun2_2018_AH_v1/190706_075307/0000/tree_167.root = 25000
root://t3dcachedb.psi.ch//pnfs/psi.ch/cms/trivcat/store/user/koschwei/tth/LegacyRun2_2018_AH_v1/ttHTobb_M125_TuneCP5_13TeV-powheg-pythia8/LegacyRun2_2018_AH_v1/190706_075307/0000/tree_164.root = 25000
root://t3dcachedb.psi.ch//pnfs/psi.ch/cms/trivcat/store/user/koschwei/tth/LegacyRun2_2018_AH_v1/ttHTobb_M125_TuneCP5_13TeV-powheg-pythia8/LegacyRun2_2018_AH_v1/190706_075307/0000/tree_165.root = 25000
root://t3dcachedb.psi.ch//pnfs/psi.ch/cms/trivcat/store/user/koschwei/tth/LegacyRun2_2018_AH_v1/ttHTobb_M125_TuneCP5_13TeV-powheg-pythia8/LegacyRun2_2018_AH_v1/190706_075307/0000/tree_168.root = 25000
root://t3dcachedb.psi.ch//pnfs/psi.ch/cms/trivcat/store/user/koschwei/tth/LegacyRun2_2018_AH_v1/ttHTobb_M125_TuneCP5_13TeV-powheg-pythia8/LegacyRun2_2018_AH_v1/190706_075307/0000/tree_175.root = 25000
root://t3dcachedb.psi.ch//pnfs/psi.ch/cms/trivcat/store/user/koschwei/tth/LegacyRun2_2018_AH_v1/ttHTobb_M125_TuneCP5_13TeV-powheg-pythia8/LegacyRun2_2018_AH_v1/190706_075307/0000/tree_178.root = 25000
root://t3dcachedb.psi.ch//pnfs/psi.ch/cms/trivcat/store/user/koschwei/tth/LegacyRun2_2018_AH_v1/ttHTobb_M125_TuneCP5_13TeV-powheg-pythia8/LegacyRun2_2018_AH_v1/190706_075307/0000/tree_180.root = 25000
root://t3dcachedb.psi.ch//pnfs/psi.ch/cms/trivcat/store/user/koschwei/tth/LegacyRun2_2018_AH_v1/ttHTobb_M125_TuneCP5_13TeV-powheg-pythia8/LegacyRun2_2018_AH_v1/190706_075307/0000/tree_181.root = 25000
root://t3dcachedb.psi.ch//pnfs/psi.ch/cms/trivcat/store/user/koschwei/tth/LegacyRun2_2018_AH_v1/ttHTobb_M125_TuneCP5_13TeV-powheg-pythia8/LegacyRun2_2018_AH_v1/190706_075307/0000/tree_184.root = 25000
root://t3dcachedb.psi.ch//pnfs/psi.ch/cms/trivcat/store/user/koschwei/tth/LegacyRun2_2018_AH_v1/ttHTobb_M125_TuneCP5_13TeV-powheg-pythia8/LegacyRun2_2018_AH_v1/190706_075307/0000/tree_182.root = 25000
root://t3dcachedb.psi.ch//pnfs/psi.ch/cms/trivcat/store/user/koschwei/tth/LegacyRun2_2018_AH_v1/ttHTobb_M125_TuneCP5_13TeV-powheg-pythia8/LegacyRun2_2018_AH_v1/190706_075307/0000/tree_179.root = 25000
root://t3dcachedb.psi.ch//pnfs/psi.ch/cms/trivcat/store/user/koschwei/tth/LegacyRun2_2018_AH_v1/ttHTobb_M125_TuneCP5_13TeV-powheg-pythia8/LegacyRun2_2018_AH_v1/190706_075307/0000/tree_186.root = 25000
root://t3dcachedb.psi.ch//pnfs/psi.ch/cms/trivcat/store/user/koschwei/tth/LegacyRun2_2018_AH_v1/ttHTobb_M125_TuneCP5_13TeV-powheg-pythia8/LegacyRun2_2018_AH_v1/190706_075307/0000/tree_171.root = 25000
root://t3dcachedb.psi.ch//pnfs/psi.ch/cms/trivcat/store/user/koschwei/tth/LegacyRun2_2018_AH_v1/ttHTobb_M125_TuneCP5_13TeV-powheg-pythia8/LegacyRun2_2018_AH_v1/190706_075307/0000/tree_177.root = 25000
root://t3dcachedb.psi.ch//pnfs/psi.ch/cms/trivcat/store/user/koschwei/tth/LegacyRun2_2018_AH_v1/ttHTobb_M125_TuneCP5_13TeV-powheg-pythia8/LegacyRun2_2018_AH_v1/190706_075307/0000/tree_174.root = 25000
root://t3dcachedb.psi.ch//pnfs/psi.ch/cms/trivcat/store/user/koschwei/tth/LegacyRun2_2018_AH_v1/ttHTobb_M125_TuneCP5_13TeV-powheg-pythia8/LegacyRun2_2018_AH_v1/190706_075307/0000/tree_176.root = 25000
root://t3dcachedb.psi.ch//pnfs/psi.ch/cms/trivcat/store/user/koschwei/tth/LegacyRun2_2018_AH_v1/ttHTobb_M125_TuneCP5_13TeV-powheg-pythia8/LegacyRun2_2018_AH_v1/190706_075307/0000/tree_172.root = 25000
root://t3dcachedb.psi.ch//pnfs/psi.ch/cms/trivcat/store/user/koschwei/tth/LegacyRun2_2018_AH_v1/ttHTobb_M125_TuneCP5_13TeV-powheg-pythia8/LegacyRun2_2018_AH_v1/190706_075307/0000/tree_173.root = 25000
root://t3dcachedb.psi.ch//pnfs/psi.ch/cms/trivcat/store/user/koschwei/tth/LegacyRun2_2018_AH_v1/ttHTobb_M125_TuneCP5_13TeV-powheg-pythia8/LegacyRun2_2018_AH_v1/190706_075307/0000/tree_185.root = 25000
root://t3dcachedb.psi.ch//pnfs/psi.ch/cms/trivcat/store/user/koschwei/tth/LegacyRun2_2018_AH_v1/ttHTobb_M125_TuneCP5_13TeV-powheg-pythia8/LegacyRun2_2018_AH_v1/190706_075307/0000/tree_189.root = 25000
root://t3dcachedb.psi.ch//pnfs/psi.ch/cms/trivcat/store/user/koschwei/tth/LegacyRun2_2018_AH_v1/ttHTobb_M125_TuneCP5_13TeV-powheg-pythia8/LegacyRun2_2018_AH_v1/190706_075307/0000/tree_183.root = 25000
root://t3dcachedb.psi.ch//pnfs/psi.ch/cms/trivcat/store/user/koschwei/tth/LegacyRun2_2018_AH_v1/ttHTobb_M125_TuneCP5_13TeV-powheg-pythia8/LegacyRun2_2018_AH_v1/190706_075307/0000/tree_187.root = 25000
root://t3dcachedb.psi.ch//pnfs/psi.ch/cms/trivcat/store/user/koschwei/tth/LegacyRun2_2018_AH_v1/ttHTobb_M125_TuneCP5_13TeV-powheg-pythia8/LegacyRun2_2018_AH_v1/190706_075307/0000/tree_188.root = 25000
root://t3dcachedb.psi.ch//pnfs/psi.ch/cms/trivcat/store/user/koschwei/tth/LegacyRun2_2018_AH_v1/ttHTobb_M125_TuneCP5_13TeV-powheg-pythia8/LegacyRun2_2018_AH_v1/190706_075307/0000/tree_169.root = 25000
root://t3dcachedb.psi.ch//pnfs/psi.ch/cms/trivcat/store/user/koschwei/tth/LegacyRun2_2018_AH_v1/ttHTobb_M125_TuneCP5_13TeV-powheg-pythia8/LegacyRun2_2018_AH_v1/190706_075307/0000/tree_209.root = 25000
root://t3dcachedb.psi.ch//pnfs/psi.ch/cms/trivcat/store/user/koschwei/tth/LegacyRun2_2018_AH_v1/ttHTobb_M125_TuneCP5_13TeV-powheg-pythia8/LegacyRun2_2018_AH_v1/190706_075307/0000/tree_211.root = 25000
root://t3dcachedb.psi.ch//pnfs/psi.ch/cms/trivcat/store/user/koschwei/tth/LegacyRun2_2018_AH_v1/ttHTobb_M125_TuneCP5_13TeV-powheg-pythia8/LegacyRun2_2018_AH_v1/190706_075307/0000/tree_264.root = 25000
root://t3dcachedb.psi.ch//pnfs/psi.ch/cms/trivcat/store/user/koschwei/tth/LegacyRun2_2018_AH_v1/ttHTobb_M125_TuneCP5_13TeV-powheg-pythia8/LegacyRun2_2018_AH_v1/190706_075307/0000/tree_249.root = 25000
root://t3dcachedb.psi.ch//pnfs/psi.ch/cms/trivcat/store/user/koschwei/tth/LegacyRun2_2018_AH_v1/ttHTobb_M125_TuneCP5_13TeV-powheg-pythia8/LegacyRun2_2018_AH_v1/190706_075307/0000/tree_212.root = 25000
root://t3dcachedb.psi.ch//pnfs/psi.ch/cms/trivcat/store/user/koschwei/tth/LegacyRun2_2018_AH_v1/ttHTobb_M125_TuneCP5_13TeV-powheg-pythia8/LegacyRun2_2018_AH_v1/190706_075307/0000/tree_245.root = 25000
root://t3dcachedb.psi.ch//pnfs/psi.ch/cms/trivcat/store/user/koschwei/tth/LegacyRun2_2018_AH_v1/ttHTobb_M125_TuneCP5_13TeV-powheg-pythia8/LegacyRun2_2018_AH_v1/190706_075307/0000/tree_259.root = 25000
root://t3dcachedb.psi.ch//pnfs/psi.ch/cms/trivcat/store/user/koschwei/tth/LegacyRun2_2018_AH_v1/ttHTobb_M125_TuneCP5_13TeV-powheg-pythia8/LegacyRun2_2018_AH_v1/190706_075307/0000/tree_254.root = 25000
root://t3dcachedb.psi.ch//pnfs/psi.ch/cms/trivcat/store/user/koschwei/tth/LegacyRun2_2018_AH_v1/ttHTobb_M125_TuneCP5_13TeV-powheg-pythia8/LegacyRun2_2018_AH_v1/190706_075307/0000/tree_251.root = 25000
root://t3dcachedb.psi.ch//pnfs/psi.ch/cms/trivcat/store/user/koschwei/tth/LegacyRun2_2018_AH_v1/ttHTobb_M125_TuneCP5_13TeV-powheg-pythia8/LegacyRun2_2018_AH_v1/190706_075307/0000/tree_216.root = 25000
root://t3dcachedb.psi.ch//pnfs/psi.ch/cms/trivcat/store/user/koschwei/tth/LegacyRun2_2018_AH_v1/ttHTobb_M125_TuneCP5_13TeV-powheg-pythia8/LegacyRun2_2018_AH_v1/190706_075307/0000/tree_218.root = 25000
root://t3dcachedb.psi.ch//pnfs/psi.ch/cms/trivcat/store/user/koschwei/tth/LegacyRun2_2018_AH_v1/ttHTobb_M125_TuneCP5_13TeV-powheg-pythia8/LegacyRun2_2018_AH_v1/190706_075307/0000/tree_263.root = 25000
root://t3dcachedb.psi.ch//pnfs/psi.ch/cms/trivcat/store/user/koschwei/tth/LegacyRun2_2018_AH_v1/ttHTobb_M125_TuneCP5_13TeV-powheg-pythia8/LegacyRun2_2018_AH_v1/190706_075307/0000/tree_255.root = 25000
root://t3dcachedb.psi.ch//pnfs/psi.ch/cms/trivcat/store/user/koschwei/tth/LegacyRun2_2018_AH_v1/ttHTobb_M125_TuneCP5_13TeV-powheg-pythia8/LegacyRun2_2018_AH_v1/190706_075307/0000/tree_243.root = 25000
root://t3dcachedb.psi.ch//pnfs/psi.ch/cms/trivcat/store/user/koschwei/tth/LegacyRun2_2018_AH_v1/ttHTobb_M125_TuneCP5_13TeV-powheg-pythia8/LegacyRun2_2018_AH_v1/190706_075307/0000/tree_266.root = 25000
root://t3dcachedb.psi.ch//pnfs/psi.ch/cms/trivcat/store/user/koschwei/tth/LegacyRun2_2018_AH_v1/ttHTobb_M125_TuneCP5_13TeV-powheg-pythia8/LegacyRun2_2018_AH_v1/190706_075307/0000/tree_247.root = 25000
root://t3dcachedb.psi.ch//pnfs/psi.ch/cms/trivcat/store/user/koschwei/tth/LegacyRun2_2018_AH_v1/ttHTobb_M125_TuneCP5_13TeV-powheg-pythia8/LegacyRun2_2018_AH_v1/190706_075307/0000/tree_258.root = 25000
root://t3dcachedb.psi.ch//pnfs/psi.ch/cms/trivcat/store/user/koschwei/tth/LegacyRun2_2018_AH_v1/ttHTobb_M125_TuneCP5_13TeV-powheg-pythia8/LegacyRun2_2018_AH_v1/190706_075307/0000/tree_256.root = 25000
root://t3dcachedb.psi.ch//pnfs/psi.ch/cms/trivcat/store/user/koschwei/tth/LegacyRun2_2018_AH_v1/ttHTobb_M125_TuneCP5_13TeV-powheg-pythia8/LegacyRun2_2018_AH_v1/190706_075307/0000/tree_250.root = 25000
root://t3dcachedb.psi.ch//pnfs/psi.ch/cms/trivcat/store/user/koschwei/tth/LegacyRun2_2018_AH_v1/ttHTobb_M125_TuneCP5_13TeV-powheg-pythia8/LegacyRun2_2018_AH_v1/190706_075307/0000/tree_269.root = 25000
root://t3dcachedb.psi.ch//pnfs/psi.ch/cms/trivcat/store/user/koschwei/tth/LegacyRun2_2018_AH_v1/ttHTobb_M125_TuneCP5_13TeV-powheg-pythia8/LegacyRun2_2018_AH_v1/190706_075307/0000/tree_260.root = 25000
root://t3dcachedb.psi.ch//pnfs/psi.ch/cms/trivcat/store/user/koschwei/tth/LegacyRun2_2018_AH_v1/ttHTobb_M125_TuneCP5_13TeV-powheg-pythia8/LegacyRun2_2018_AH_v1/190706_075307/0000/tree_268.root = 25000
root://t3dcachedb.psi.ch//pnfs/psi.ch/cms/trivcat/store/user/koschwei/tth/LegacyRun2_2018_AH_v1/ttHTobb_M125_TuneCP5_13TeV-powheg-pythia8/LegacyRun2_2018_AH_v1/190706_075307/0000/tree_214.root = 25000
root://t3dcachedb.psi.ch//pnfs/psi.ch/cms/trivcat/store/user/koschwei/tth/LegacyRun2_2018_AH_v1/ttHTobb_M125_TuneCP5_13TeV-powheg-pythia8/LegacyRun2_2018_AH_v1/190706_075307/0000/tree_240.root = 25000
root://t3dcachedb.psi.ch//pnfs/psi.ch/cms/trivcat/store/user/koschwei/tth/LegacyRun2_2018_AH_v1/ttHTobb_M125_TuneCP5_13TeV-powheg-pythia8/LegacyRun2_2018_AH_v1/190706_075307/0000/tree_210.root = 25000
root://t3dcachedb.psi.ch//pnfs/psi.ch/cms/trivcat/store/user/koschwei/tth/LegacyRun2_2018_AH_v1/ttHTobb_M125_TuneCP5_13TeV-powheg-pythia8/LegacyRun2_2018_AH_v1/190706_075307/0000/tree_253.root = 25000
root://t3dcachedb.psi.ch//pnfs/psi.ch/cms/trivcat/store/user/koschwei/tth/LegacyRun2_2018_AH_v1/ttHTobb_M125_TuneCP5_13TeV-powheg-pythia8/LegacyRun2_2018_AH_v1/190706_075307/0000/tree_246.root = 25000
root://t3dcachedb.psi.ch//pnfs/psi.ch/cms/trivcat/store/user/koschwei/tth/LegacyRun2_2018_AH_v1/ttHTobb_M125_TuneCP5_13TeV-powheg-pythia8/LegacyRun2_2018_AH_v1/190706_075307/0000/tree_252.root = 25000
root://t3dcachedb.psi.ch//pnfs/psi.ch/cms/trivcat/store/user/koschwei/tth/LegacyRun2_2018_AH_v1/ttHTobb_M125_TuneCP5_13TeV-powheg-pythia8/LegacyRun2_2018_AH_v1/190706_075307/0000/tree_244.root = 25000
root://t3dcachedb.psi.ch//pnfs/psi.ch/cms/trivcat/store/user/koschwei/tth/LegacyRun2_2018_AH_v1/ttHTobb_M125_TuneCP5_13TeV-powheg-pythia8/LegacyRun2_2018_AH_v1/190706_075307/0000/tree_248.root = 25000
root://t3dcachedb.psi.ch//pnfs/psi.ch/cms/trivcat/store/user/koschwei/tth/LegacyRun2_2018_AH_v1/ttHTobb_M125_TuneCP5_13TeV-powheg-pythia8/LegacyRun2_2018_AH_v1/190706_075307/0000/tree_267.root = 25000
root://t3dcachedb.psi.ch//pnfs/psi.ch/cms/trivcat/store/user/koschwei/tth/LegacyRun2_2018_AH_v1/ttHTobb_M125_TuneCP5_13TeV-powheg-pythia8/LegacyRun2_2018_AH_v1/190706_075307/0000/tree_242.root = 25000
root://t3dcachedb.psi.ch//pnfs/psi.ch/cms/trivcat/store/user/koschwei/tth/LegacyRun2_2018_AH_v1/ttHTobb_M125_TuneCP5_13TeV-powheg-pythia8/LegacyRun2_2018_AH_v1/190706_075307/0000/tree_241.root = 25000
root://t3dcachedb.psi.ch//pnfs/psi.ch/cms/trivcat/store/user/koschwei/tth/LegacyRun2_2018_AH_v1/ttHTobb_M125_TuneCP5_13TeV-powheg-pythia8/LegacyRun2_2018_AH_v1/190706_075307/0000/tree_215.root = 25000
root://t3dcachedb.psi.ch//pnfs/psi.ch/cms/trivcat/store/user/koschwei/tth/LegacyRun2_2018_AH_v1/ttHTobb_M125_TuneCP5_13TeV-powheg-pythia8/LegacyRun2_2018_AH_v1/190706_075307/0000/tree_217.root = 25000
root://t3dcachedb.psi.ch//pnfs/psi.ch/cms/trivcat/store/user/koschwei/tth/LegacyRun2_2018_AH_v1/ttHTobb_M125_TuneCP5_13TeV-powheg-pythia8/LegacyRun2_2018_AH_v1/190706_075307/0000/tree_213.root = 25000
root://t3dcachedb.psi.ch//pnfs/psi.ch/cms/trivcat/store/user/koschwei/tth/LegacyRun2_2018_AH_v1/ttHTobb_M125_TuneCP5_13TeV-powheg-pythia8/LegacyRun2_2018_AH_v1/190706_075307/0000/tree_257.root = 25000
root://t3dcachedb.psi.ch//pnfs/psi.ch/cms/trivcat/store/user/koschwei/tth/LegacyRun2_2018_AH_v1/ttHTobb_M125_TuneCP5_13TeV-powheg-pythia8/LegacyRun2_2018_AH_v1/190706_075307/0000/tree_261.root = 25000
root://t3dcachedb.psi.ch//pnfs/psi.ch/cms/trivcat/store/user/koschwei/tth/LegacyRun2_2018_AH_v1/ttHTobb_M125_TuneCP5_13TeV-powheg-pythia8/LegacyRun2_2018_AH_v1/190706_075307/0000/tree_219.root = 25000
root://t3dcachedb.psi.ch//pnfs/psi.ch/cms/trivcat/store/user/koschwei/tth/LegacyRun2_2018_AH_v1/ttHTobb_M125_TuneCP5_13TeV-powheg-pythia8/LegacyRun2_2018_AH_v1/190706_075307/0000/tree_262.root = 25000
root://t3dcachedb.psi.ch//pnfs/psi.ch/cms/trivcat/store/user/koschwei/tth/LegacyRun2_2018_AH_v1/ttHTobb_M125_TuneCP5_13TeV-powheg-pythia8/LegacyRun2_2018_AH_v1/190706_075307/0000/tree_200.root = 25000
root://t3dcachedb.psi.ch//pnfs/psi.ch/cms/trivcat/store/user/koschwei/tth/LegacyRun2_2018_AH_v1/ttHTobb_M125_TuneCP5_13TeV-powheg-pythia8/LegacyRun2_2018_AH_v1/190706_075307/0000/tree_207.root = 25000
root://t3dcachedb.psi.ch//pnfs/psi.ch/cms/trivcat/store/user/koschwei/tth/LegacyRun2_2018_AH_v1/ttHTobb_M125_TuneCP5_13TeV-powheg-pythia8/LegacyRun2_2018_AH_v1/190706_075307/0000/tree_202.root = 25000
root://t3dcachedb.psi.ch//pnfs/psi.ch/cms/trivcat/store/user/koschwei/tth/LegacyRun2_2018_AH_v1/ttHTobb_M125_TuneCP5_13TeV-powheg-pythia8/LegacyRun2_2018_AH_v1/190706_075307/0000/tree_265.root = 25000
root://t3dcachedb.psi.ch//pnfs/psi.ch/cms/trivcat/store/user/koschwei/tth/LegacyRun2_2018_AH_v1/ttHTobb_M125_TuneCP5_13TeV-powheg-pythia8/LegacyRun2_2018_AH_v1/190706_075307/0000/tree_206.root = 25000
root://t3dcachedb.psi.ch//pnfs/psi.ch/cms/trivcat/store/user/koschwei/tth/LegacyRun2_2018_AH_v1/ttHTobb_M125_TuneCP5_13TeV-powheg-pythia8/LegacyRun2_2018_AH_v1/190706_075307/0000/tree_205.root = 25000
root://t3dcachedb.psi.ch//pnfs/psi.ch/cms/trivcat/store/user/koschwei/tth/LegacyRun2_2018_AH_v1/ttHTobb_M125_TuneCP5_13TeV-powheg-pythia8/LegacyRun2_2018_AH_v1/190706_075307/0000/tree_201.root = 25000
root://t3dcachedb.psi.ch//pnfs/psi.ch/cms/trivcat/store/user/koschwei/tth/LegacyRun2_2018_AH_v1/ttHTobb_M125_TuneCP5_13TeV-powheg-pythia8/LegacyRun2_2018_AH_v1/190706_075307/0000/tree_208.root = 25000
root://t3dcachedb.psi.ch//pnfs/psi.ch/cms/trivcat/store/user/koschwei/tth/LegacyRun2_2018_AH_v1/ttHTobb_M125_TuneCP5_13TeV-powheg-pythia8/LegacyRun2_2018_AH_v1/190706_075307/0000/tree_203.root = 25000
root://t3dcachedb.psi.ch//pnfs/psi.ch/cms/trivcat/store/user/koschwei/tth/LegacyRun2_2018_AH_v1/ttHTobb_M125_TuneCP5_13TeV-powheg-pythia8/LegacyRun2_2018_AH_v1/190706_075307/0000/tree_295.root = 25000
root://t3dcachedb.psi.ch//pnfs/psi.ch/cms/trivcat/store/user/koschwei/tth/LegacyRun2_2018_AH_v1/ttHTobb_M125_TuneCP5_13TeV-powheg-pythia8/LegacyRun2_2018_AH_v1/190706_075307/0000/tree_204.root = 25000
root://t3dcachedb.psi.ch//pnfs/psi.ch/cms/trivcat/store/user/koschwei/tth/LegacyRun2_2018_AH_v1/ttHTobb_M125_TuneCP5_13TeV-powheg-pythia8/LegacyRun2_2018_AH_v1/190706_075307/0000/tree_294.root = 25000
root://t3dcachedb.psi.ch//pnfs/psi.ch/cms/trivcat/store/user/koschwei/tth/LegacyRun2_2018_AH_v1/ttHTobb_M125_TuneCP5_13TeV-powheg-pythia8/LegacyRun2_2018_AH_v1/190706_075307/0000/tree_292.root = 25000
root://t3dcachedb.psi.ch//pnfs/psi.ch/cms/trivcat/store/user/koschwei/tth/LegacyRun2_2018_AH_v1/ttHTobb_M125_TuneCP5_13TeV-powheg-pythia8/LegacyRun2_2018_AH_v1/190706_075307/0000/tree_293.root = 25000
root://t3dcachedb.psi.ch//pnfs/psi.ch/cms/trivcat/store/user/koschwei/tth/LegacyRun2_2018_AH_v1/ttHTobb_M125_TuneCP5_13TeV-powheg-pythia8/LegacyRun2_2018_AH_v1/190706_075307/0000/tree_290.root = 25000
root://t3dcachedb.psi.ch//pnfs/psi.ch/cms/trivcat/store/user/koschwei/tth/LegacyRun2_2018_AH_v1/ttHTobb_M125_TuneCP5_13TeV-powheg-pythia8/LegacyRun2_2018_AH_v1/190706_075307/0000/tree_297.root = 25000
root://t3dcachedb.psi.ch//pnfs/psi.ch/cms/trivcat/store/user/koschwei/tth/LegacyRun2_2018_AH_v1/ttHTobb_M125_TuneCP5_13TeV-powheg-pythia8/LegacyRun2_2018_AH_v1/190706_075307/0000/tree_291.root = 25000
root://t3dcachedb.psi.ch//pnfs/psi.ch/cms/trivcat/store/user/koschwei/tth/LegacyRun2_2018_AH_v1/ttHTobb_M125_TuneCP5_13TeV-powheg-pythia8/LegacyRun2_2018_AH_v1/190706_075307/0000/tree_296.root = 25000
root://t3dcachedb.psi.ch//pnfs/psi.ch/cms/trivcat/store/user/koschwei/tth/LegacyRun2_2018_AH_v1/ttHTobb_M125_TuneCP5_13TeV-powheg-pythia8/LegacyRun2_2018_AH_v1/190706_075307/0000/tree_299.root = 25000
root://t3dcachedb.psi.ch//pnfs/psi.ch/cms/trivcat/store/user/koschwei/tth/LegacyRun2_2018_AH_v1/ttHTobb_M125_TuneCP5_13TeV-powheg-pythia8/LegacyRun2_2018_AH_v1/190706_075307/0000/tree_298.root = 25000
root://t3dcachedb.psi.ch//pnfs/psi.ch/cms/trivcat/store/user/koschwei/tth/LegacyRun2_2018_AH_v1/ttHTobb_M125_TuneCP5_13TeV-powheg-pythia8/LegacyRun2_2018_AH_v1/190706_075307/0000/tree_338.root = 25000
root://t3dcachedb.psi.ch//pnfs/psi.ch/cms/trivcat/store/user/koschwei/tth/LegacyRun2_2018_AH_v1/ttHTobb_M125_TuneCP5_13TeV-powheg-pythia8/LegacyRun2_2018_AH_v1/190706_075307/0000/tree_340.root = 25000
root://t3dcachedb.psi.ch//pnfs/psi.ch/cms/trivcat/store/user/koschwei/tth/LegacyRun2_2018_AH_v1/ttHTobb_M125_TuneCP5_13TeV-powheg-pythia8/LegacyRun2_2018_AH_v1/190706_075307/0000/tree_330.root = 25000
root://t3dcachedb.psi.ch//pnfs/psi.ch/cms/trivcat/store/user/koschwei/tth/LegacyRun2_2018_AH_v1/ttHTobb_M125_TuneCP5_13TeV-powheg-pythia8/LegacyRun2_2018_AH_v1/190706_075307/0000/tree_328.root = 25000
root://t3dcachedb.psi.ch//pnfs/psi.ch/cms/trivcat/store/user/koschwei/tth/LegacyRun2_2018_AH_v1/ttHTobb_M125_TuneCP5_13TeV-powheg-pythia8/LegacyRun2_2018_AH_v1/190706_075307/0000/tree_337.root = 25000
root://t3dcachedb.psi.ch//pnfs/psi.ch/cms/trivcat/store/user/koschwei/tth/LegacyRun2_2018_AH_v1/ttHTobb_M125_TuneCP5_13TeV-powheg-pythia8/LegacyRun2_2018_AH_v1/190706_075307/0000/tree_331.root = 25000
root://t3dcachedb.psi.ch//pnfs/psi.ch/cms/trivcat/store/user/koschwei/tth/LegacyRun2_2018_AH_v1/ttHTobb_M125_TuneCP5_13TeV-powheg-pythia8/LegacyRun2_2018_AH_v1/190706_075307/0000/tree_326.root = 25000
root://t3dcachedb.psi.ch//pnfs/psi.ch/cms/trivcat/store/user/koschwei/tth/LegacyRun2_2018_AH_v1/ttHTobb_M125_TuneCP5_13TeV-powheg-pythia8/LegacyRun2_2018_AH_v1/190706_075307/0000/tree_333.root = 25000
root://t3dcachedb.psi.ch//pnfs/psi.ch/cms/trivcat/store/user/koschwei/tth/LegacyRun2_2018_AH_v1/ttHTobb_M125_TuneCP5_13TeV-powheg-pythia8/LegacyRun2_2018_AH_v1/190706_075307/0000/tree_332.root = 25000
root://t3dcachedb.psi.ch//pnfs/psi.ch/cms/trivcat/store/user/koschwei/tth/LegacyRun2_2018_AH_v1/ttHTobb_M125_TuneCP5_13TeV-powheg-pythia8/LegacyRun2_2018_AH_v1/190706_075307/0000/tree_321.root = 25000
root://t3dcachedb.psi.ch//pnfs/psi.ch/cms/trivcat/store/user/koschwei/tth/LegacyRun2_2018_AH_v1/ttHTobb_M125_TuneCP5_13TeV-powheg-pythia8/LegacyRun2_2018_AH_v1/190706_075307/0000/tree_335.root = 25000
root://t3dcachedb.psi.ch//pnfs/psi.ch/cms/trivcat/store/user/koschwei/tth/LegacyRun2_2018_AH_v1/ttHTobb_M125_TuneCP5_13TeV-powheg-pythia8/LegacyRun2_2018_AH_v1/190706_075307/0000/tree_329.root = 25000
root://t3dcachedb.psi.ch//pnfs/psi.ch/cms/trivcat/store/user/koschwei/tth/LegacyRun2_2018_AH_v1/ttHTobb_M125_TuneCP5_13TeV-powheg-pythia8/LegacyRun2_2018_AH_v1/190706_075307/0000/tree_325.root = 25000
root://t3dcachedb.psi.ch//pnfs/psi.ch/cms/trivcat/store/user/koschwei/tth/LegacyRun2_2018_AH_v1/ttHTobb_M125_TuneCP5_13TeV-powheg-pythia8/LegacyRun2_2018_AH_v1/190706_075307/0000/tree_336.root = 25000
root://t3dcachedb.psi.ch//pnfs/psi.ch/cms/trivcat/store/user/koschwei/tth/LegacyRun2_2018_AH_v1/ttHTobb_M125_TuneCP5_13TeV-powheg-pythia8/LegacyRun2_2018_AH_v1/190706_075307/0000/tree_323.root = 25000
root://t3dcachedb.psi.ch//pnfs/psi.ch/cms/trivcat/store/user/koschwei/tth/LegacyRun2_2018_AH_v1/ttHTobb_M125_TuneCP5_13TeV-powheg-pythia8/LegacyRun2_2018_AH_v1/190706_075307/0000/tree_322.root = 25000
root://t3dcachedb.psi.ch//pnfs/psi.ch/cms/trivcat/store/user/koschwei/tth/LegacyRun2_2018_AH_v1/ttHTobb_M125_TuneCP5_13TeV-powheg-pythia8/LegacyRun2_2018_AH_v1/190706_075307/0000/tree_339.root = 25000
root://t3dcachedb.psi.ch//pnfs/psi.ch/cms/trivcat/store/user/koschwei/tth/LegacyRun2_2018_AH_v1/ttHTobb_M125_TuneCP5_13TeV-powheg-pythia8/LegacyRun2_2018_AH_v1/190706_075307/0000/tree_343.root = 25000
root://t3dcachedb.psi.ch//pnfs/psi.ch/cms/trivcat/store/user/koschwei/tth/LegacyRun2_2018_AH_v1/ttHTobb_M125_TuneCP5_13TeV-powheg-pythia8/LegacyRun2_2018_AH_v1/190706_075307/0000/tree_345.root = 25000
root://t3dcachedb.psi.ch//pnfs/psi.ch/cms/trivcat/store/user/koschwei/tth/LegacyRun2_2018_AH_v1/ttHTobb_M125_TuneCP5_13TeV-powheg-pythia8/LegacyRun2_2018_AH_v1/190706_075307/0000/tree_344.root = 25000
root://t3dcachedb.psi.ch//pnfs/psi.ch/cms/trivcat/store/user/koschwei/tth/LegacyRun2_2018_AH_v1/ttHTobb_M125_TuneCP5_13TeV-powheg-pythia8/LegacyRun2_2018_AH_v1/190706_075307/0000/tree_348.root = 25000
root://t3dcachedb.psi.ch//pnfs/psi.ch/cms/trivcat/store/user/koschwei/tth/LegacyRun2_2018_AH_v1/ttHTobb_M125_TuneCP5_13TeV-powheg-pythia8/LegacyRun2_2018_AH_v1/190706_075307/0000/tree_347.root = 25000
root://t3dcachedb.psi.ch//pnfs/psi.ch/cms/trivcat/store/user/koschwei/tth/LegacyRun2_2018_AH_v1/ttHTobb_M125_TuneCP5_13TeV-powheg-pythia8/LegacyRun2_2018_AH_v1/190706_075307/0000/tree_346.root = 25000
root://t3dcachedb.psi.ch//pnfs/psi.ch/cms/trivcat/store/user/koschwei/tth/LegacyRun2_2018_AH_v1/ttHTobb_M125_TuneCP5_13TeV-powheg-pythia8/LegacyRun2_2018_AH_v1/190706_075307/0000/tree_349.root = 25000
root://t3dcachedb.psi.ch//pnfs/psi.ch/cms/trivcat/store/user/koschwei/tth/LegacyRun2_2018_AH_v1/ttHTobb_M125_TuneCP5_13TeV-powheg-pythia8/LegacyRun2_2018_AH_v1/190706_075307/0000/tree_334.root = 25000
root://t3dcachedb.psi.ch//pnfs/psi.ch/cms/trivcat/store/user/koschwei/tth/LegacyRun2_2018_AH_v1/ttHTobb_M125_TuneCP5_13TeV-powheg-pythia8/LegacyRun2_2018_AH_v1/190706_075307/0000/tree_327.root = 25000
root://t3dcachedb.psi.ch//pnfs/psi.ch/cms/trivcat/store/user/koschwei/tth/LegacyRun2_2018_AH_v1/ttHTobb_M125_TuneCP5_13TeV-powheg-pythia8/LegacyRun2_2018_AH_v1/190706_075307/0000/tree_320.root = 25000
root://t3dcachedb.psi.ch//pnfs/psi.ch/cms/trivcat/store/user/koschwei/tth/LegacyRun2_2018_AH_v1/ttHTobb_M125_TuneCP5_13TeV-powheg-pythia8/LegacyRun2_2018_AH_v1/190706_075307/0000/tree_324.root = 25000
root://t3dcachedb.psi.ch//pnfs/psi.ch/cms/trivcat/store/user/koschwei/tth/LegacyRun2_2018_AH_v1/ttHTobb_M125_TuneCP5_13TeV-powheg-pythia8/LegacyRun2_2018_AH_v1/190706_075307/0000/tree_342.root = 25000
root://t3dcachedb.psi.ch//pnfs/psi.ch/cms/trivcat/store/user/koschwei/tth/LegacyRun2_2018_AH_v1/ttHTobb_M125_TuneCP5_13TeV-powheg-pythia8/LegacyRun2_2018_AH_v1/190706_075307/0000/tree_341.root = 25000
root://t3dcachedb.psi.ch//pnfs/psi.ch/cms/trivcat/store/user/koschwei/tth/LegacyRun2_2018_AH_v1/ttHTobb_M125_TuneCP5_13TeV-powheg-pythia8/LegacyRun2_2018_AH_v1/190706_075307/0000/tree_372.root = 25000
root://t3dcachedb.psi.ch//pnfs/psi.ch/cms/trivcat/store/user/koschwei/tth/LegacyRun2_2018_AH_v1/ttHTobb_M125_TuneCP5_13TeV-powheg-pythia8/LegacyRun2_2018_AH_v1/190706_075307/0000/tree_371.root = 25000
root://t3dcachedb.psi.ch//pnfs/psi.ch/cms/trivcat/store/user/koschwei/tth/LegacyRun2_2018_AH_v1/ttHTobb_M125_TuneCP5_13TeV-powheg-pythia8/LegacyRun2_2018_AH_v1/190706_075307/0000/tree_370.root = 25000
root://t3dcachedb.psi.ch//pnfs/psi.ch/cms/trivcat/store/user/koschwei/tth/LegacyRun2_2018_AH_v1/ttHTobb_M125_TuneCP5_13TeV-powheg-pythia8/LegacyRun2_2018_AH_v1/190706_075307/0000/tree_374.root = 25000
root://t3dcachedb.psi.ch//pnfs/psi.ch/cms/trivcat/store/user/koschwei/tth/LegacyRun2_2018_AH_v1/ttHTobb_M125_TuneCP5_13TeV-powheg-pythia8/LegacyRun2_2018_AH_v1/190706_075307/0000/tree_379.root = 25000
root://t3dcachedb.psi.ch//pnfs/psi.ch/cms/trivcat/store/user/koschwei/tth/LegacyRun2_2018_AH_v1/ttHTobb_M125_TuneCP5_13TeV-powheg-pythia8/LegacyRun2_2018_AH_v1/190706_075307/0000/tree_375.root = 25000
root://t3dcachedb.psi.ch//pnfs/psi.ch/cms/trivcat/store/user/koschwei/tth/LegacyRun2_2018_AH_v1/ttHTobb_M125_TuneCP5_13TeV-powheg-pythia8/LegacyRun2_2018_AH_v1/190706_075307/0000/tree_381.root = 25000
root://t3dcachedb.psi.ch//pnfs/psi.ch/cms/trivcat/store/user/koschwei/tth/LegacyRun2_2018_AH_v1/ttHTobb_M125_TuneCP5_13TeV-powheg-pythia8/LegacyRun2_2018_AH_v1/190706_075307/0000/tree_376.root = 25000
root://t3dcachedb.psi.ch//pnfs/psi.ch/cms/trivcat/store/user/koschwei/tth/LegacyRun2_2018_AH_v1/ttHTobb_M125_TuneCP5_13TeV-powheg-pythia8/LegacyRun2_2018_AH_v1/190706_075307/0000/tree_377.root = 25000
root://t3dcachedb.psi.ch//pnfs/psi.ch/cms/trivcat/store/user/koschwei/tth/LegacyRun2_2018_AH_v1/ttHTobb_M125_TuneCP5_13TeV-powheg-pythia8/LegacyRun2_2018_AH_v1/190706_075307/0000/tree_373.root = 25000
root://t3dcachedb.psi.ch//pnfs/psi.ch/cms/trivcat/store/user/koschwei/tth/LegacyRun2_2018_AH_v1/ttHTobb_M125_TuneCP5_13TeV-powheg-pythia8/LegacyRun2_2018_AH_v1/190706_075307/0000/tree_406.root = 25000
root://t3dcachedb.psi.ch//pnfs/psi.ch/cms/trivcat/store/user/koschwei/tth/LegacyRun2_2018_AH_v1/ttHTobb_M125_TuneCP5_13TeV-powheg-pythia8/LegacyRun2_2018_AH_v1/190706_075307/0000/tree_405.root = 25000
root://t3dcachedb.psi.ch//pnfs/psi.ch/cms/trivcat/store/user/koschwei/tth/LegacyRun2_2018_AH_v1/ttHTobb_M125_TuneCP5_13TeV-powheg-pythia8/LegacyRun2_2018_AH_v1/190706_075307/0000/tree_407.root = 25000
root://t3dcachedb.psi.ch//pnfs/psi.ch/cms/trivcat/store/user/koschwei/tth/LegacyRun2_2018_AH_v1/ttHTobb_M125_TuneCP5_13TeV-powheg-pythia8/LegacyRun2_2018_AH_v1/190706_075307/0000/tree_409.root = 25000
root://t3dcachedb.psi.ch//pnfs/psi.ch/cms/trivcat/store/user/koschwei/tth/LegacyRun2_2018_AH_v1/ttHTobb_M125_TuneCP5_13TeV-powheg-pythia8/LegacyRun2_2018_AH_v1/190706_075307/0000/tree_410.root = 25000
root://t3dcachedb.psi.ch//pnfs/psi.ch/cms/trivcat/store/user/koschwei/tth/LegacyRun2_2018_AH_v1/ttHTobb_M125_TuneCP5_13TeV-powheg-pythia8/LegacyRun2_2018_AH_v1/190706_075307/0000/tree_403.root = 25000
root://t3dcachedb.psi.ch//pnfs/psi.ch/cms/trivcat/store/user/koschwei/tth/LegacyRun2_2018_AH_v1/ttHTobb_M125_TuneCP5_13TeV-powheg-pythia8/LegacyRun2_2018_AH_v1/190706_075307/0000/tree_386.root = 25000
root://t3dcachedb.psi.ch//pnfs/psi.ch/cms/trivcat/store/user/koschwei/tth/LegacyRun2_2018_AH_v1/ttHTobb_M125_TuneCP5_13TeV-powheg-pythia8/LegacyRun2_2018_AH_v1/190706_075307/0000/tree_388.root = 25000
root://t3dcachedb.psi.ch//pnfs/psi.ch/cms/trivcat/store/user/koschwei/tth/LegacyRun2_2018_AH_v1/ttHTobb_M125_TuneCP5_13TeV-powheg-pythia8/LegacyRun2_2018_AH_v1/190706_075307/0000/tree_404.root = 25000
root://t3dcachedb.psi.ch//pnfs/psi.ch/cms/trivcat/store/user/koschwei/tth/LegacyRun2_2018_AH_v1/ttHTobb_M125_TuneCP5_13TeV-powheg-pythia8/LegacyRun2_2018_AH_v1/190706_075307/0000/tree_402.root = 25000
root://t3dcachedb.psi.ch//pnfs/psi.ch/cms/trivcat/store/user/koschwei/tth/LegacyRun2_2018_AH_v1/ttHTobb_M125_TuneCP5_13TeV-powheg-pythia8/LegacyRun2_2018_AH_v1/190706_075307/0000/tree_385.root = 25000
root://t3dcachedb.psi.ch//pnfs/psi.ch/cms/trivcat/store/user/koschwei/tth/LegacyRun2_2018_AH_v1/ttHTobb_M125_TuneCP5_13TeV-powheg-pythia8/LegacyRun2_2018_AH_v1/190706_075307/0000/tree_383.root = 25000
root://t3dcachedb.psi.ch//pnfs/psi.ch/cms/trivcat/store/user/koschwei/tth/LegacyRun2_2018_AH_v1/ttHTobb_M125_TuneCP5_13TeV-powheg-pythia8/LegacyRun2_2018_AH_v1/190706_075307/0000/tree_421.root = 25000
root://t3dcachedb.psi.ch//pnfs/psi.ch/cms/trivcat/store/user/koschwei/tth/LegacyRun2_2018_AH_v1/ttHTobb_M125_TuneCP5_13TeV-powheg-pythia8/LegacyRun2_2018_AH_v1/190706_075307/0000/tree_392.root = 25000
root://t3dcachedb.psi.ch//pnfs/psi.ch/cms/trivcat/store/user/koschwei/tth/LegacyRun2_2018_AH_v1/ttHTobb_M125_TuneCP5_13TeV-powheg-pythia8/LegacyRun2_2018_AH_v1/190706_075307/0000/tree_417.root = 25000
root://t3dcachedb.psi.ch//pnfs/psi.ch/cms/trivcat/store/user/koschwei/tth/LegacyRun2_2018_AH_v1/ttHTobb_M125_TuneCP5_13TeV-powheg-pythia8/LegacyRun2_2018_AH_v1/190706_075307/0000/tree_416.root = 25000
root://t3dcachedb.psi.ch//pnfs/psi.ch/cms/trivcat/store/user/koschwei/tth/LegacyRun2_2018_AH_v1/ttHTobb_M125_TuneCP5_13TeV-powheg-pythia8/LegacyRun2_2018_AH_v1/190706_075307/0000/tree_390.root = 25000
root://t3dcachedb.psi.ch//pnfs/psi.ch/cms/trivcat/store/user/koschwei/tth/LegacyRun2_2018_AH_v1/ttHTobb_M125_TuneCP5_13TeV-powheg-pythia8/LegacyRun2_2018_AH_v1/190706_075307/0000/tree_384.root = 25000
root://t3dcachedb.psi.ch//pnfs/psi.ch/cms/trivcat/store/user/koschwei/tth/LegacyRun2_2018_AH_v1/ttHTobb_M125_TuneCP5_13TeV-powheg-pythia8/LegacyRun2_2018_AH_v1/190706_075307/0000/tree_419.root = 25000
root://t3dcachedb.psi.ch//pnfs/psi.ch/cms/trivcat/store/user/koschwei/tth/LegacyRun2_2018_AH_v1/ttHTobb_M125_TuneCP5_13TeV-powheg-pythia8/LegacyRun2_2018_AH_v1/190706_075307/0000/tree_397.root = 25000
root://t3dcachedb.psi.ch//pnfs/psi.ch/cms/trivcat/store/user/koschwei/tth/LegacyRun2_2018_AH_v1/ttHTobb_M125_TuneCP5_13TeV-powheg-pythia8/LegacyRun2_2018_AH_v1/190706_075307/0000/tree_389.root = 25000
root://t3dcachedb.psi.ch//pnfs/psi.ch/cms/trivcat/store/user/koschwei/tth/LegacyRun2_2018_AH_v1/ttHTobb_M125_TuneCP5_13TeV-powheg-pythia8/LegacyRun2_2018_AH_v1/190706_075307/0000/tree_415.root = 25000
root://t3dcachedb.psi.ch//pnfs/psi.ch/cms/trivcat/store/user/koschwei/tth/LegacyRun2_2018_AH_v1/ttHTobb_M125_TuneCP5_13TeV-powheg-pythia8/LegacyRun2_2018_AH_v1/190706_075307/0000/tree_395.root = 25000
root://t3dcachedb.psi.ch//pnfs/psi.ch/cms/trivcat/store/user/koschwei/tth/LegacyRun2_2018_AH_v1/ttHTobb_M125_TuneCP5_13TeV-powheg-pythia8/LegacyRun2_2018_AH_v1/190706_075307/0000/tree_418.root = 25000
root://t3dcachedb.psi.ch//pnfs/psi.ch/cms/trivcat/store/user/koschwei/tth/LegacyRun2_2018_AH_v1/ttHTobb_M125_TuneCP5_13TeV-powheg-pythia8/LegacyRun2_2018_AH_v1/190706_075307/0000/tree_391.root = 25000
root://t3dcachedb.psi.ch//pnfs/psi.ch/cms/trivcat/store/user/koschwei/tth/LegacyRun2_2018_AH_v1/ttHTobb_M125_TuneCP5_13TeV-powheg-pythia8/LegacyRun2_2018_AH_v1/190706_075307/0000/tree_382.root = 25000
root://t3dcachedb.psi.ch//pnfs/psi.ch/cms/trivcat/store/user/koschwei/tth/LegacyRun2_2018_AH_v1/ttHTobb_M125_TuneCP5_13TeV-powheg-pythia8/LegacyRun2_2018_AH_v1/190706_075307/0000/tree_420.root = 25000
root://t3dcachedb.psi.ch//pnfs/psi.ch/cms/trivcat/store/user/koschwei/tth/LegacyRun2_2018_AH_v1/ttHTobb_M125_TuneCP5_13TeV-powheg-pythia8/LegacyRun2_2018_AH_v1/190706_075307/0000/tree_401.root = 25000
root://t3dcachedb.psi.ch//pnfs/psi.ch/cms/trivcat/store/user/koschwei/tth/LegacyRun2_2018_AH_v1/ttHTobb_M125_TuneCP5_13TeV-powheg-pythia8/LegacyRun2_2018_AH_v1/190706_075307/0000/tree_387.root = 25000
root://t3dcachedb.psi.ch//pnfs/psi.ch/cms/trivcat/store/user/koschwei/tth/LegacyRun2_2018_AH_v1/ttHTobb_M125_TuneCP5_13TeV-powheg-pythia8/LegacyRun2_2018_AH_v1/190706_075307/0000/tree_396.root = 25000
root://t3dcachedb.psi.ch//pnfs/psi.ch/cms/trivcat/store/user/koschwei/tth/LegacyRun2_2018_AH_v1/ttHTobb_M125_TuneCP5_13TeV-powheg-pythia8/LegacyRun2_2018_AH_v1/190706_075307/0000/tree_408.root = 25000
root://t3dcachedb.psi.ch//pnfs/psi.ch/cms/trivcat/store/user/koschwei/tth/LegacyRun2_2018_AH_v1/ttHTobb_M125_TuneCP5_13TeV-powheg-pythia8/LegacyRun2_2018_AH_v1/190706_075307/0000/tree_394.root = 25000
root://t3dcachedb.psi.ch//pnfs/psi.ch/cms/trivcat/store/user/koschwei/tth/LegacyRun2_2018_AH_v1/ttHTobb_M125_TuneCP5_13TeV-powheg-pythia8/LegacyRun2_2018_AH_v1/190706_075307/0000/tree_380.root = 25000
root://t3dcachedb.psi.ch//pnfs/psi.ch/cms/trivcat/store/user/koschwei/tth/LegacyRun2_2018_AH_v1/ttHTobb_M125_TuneCP5_13TeV-powheg-pythia8/LegacyRun2_2018_AH_v1/190706_075307/0000/tree_412.root = 25000
root://t3dcachedb.psi.ch//pnfs/psi.ch/cms/trivcat/store/user/koschwei/tth/LegacyRun2_2018_AH_v1/ttHTobb_M125_TuneCP5_13TeV-powheg-pythia8/LegacyRun2_2018_AH_v1/190706_075307/0000/tree_378.root = 25000
root://t3dcachedb.psi.ch//pnfs/psi.ch/cms/trivcat/store/user/koschwei/tth/LegacyRun2_2018_AH_v1/ttHTobb_M125_TuneCP5_13TeV-powheg-pythia8/LegacyRun2_2018_AH_v1/190706_075307/0000/tree_393.root = 25000
root://t3dcachedb.psi.ch//pnfs/psi.ch/cms/trivcat/store/user/koschwei/tth/LegacyRun2_2018_AH_v1/ttHTobb_M125_TuneCP5_13TeV-powheg-pythia8/LegacyRun2_2018_AH_v1/190706_075307/0000/tree_414.root = 25000
root://t3dcachedb.psi.ch//pnfs/psi.ch/cms/trivcat/store/user/koschwei/tth/LegacyRun2_2018_AH_v1/ttHTobb_M125_TuneCP5_13TeV-powheg-pythia8/LegacyRun2_2018_AH_v1/190706_075307/0000/tree_424.root = 25000
root://t3dcachedb.psi.ch//pnfs/psi.ch/cms/trivcat/store/user/koschwei/tth/LegacyRun2_2018_AH_v1/ttHTobb_M125_TuneCP5_13TeV-powheg-pythia8/LegacyRun2_2018_AH_v1/190706_075307/0000/tree_428.root = 25000
root://t3dcachedb.psi.ch//pnfs/psi.ch/cms/trivcat/store/user/koschwei/tth/LegacyRun2_2018_AH_v1/ttHTobb_M125_TuneCP5_13TeV-powheg-pythia8/LegacyRun2_2018_AH_v1/190706_075307/0000/tree_423.root = 25000
root://t3dcachedb.psi.ch//pnfs/psi.ch/cms/trivcat/store/user/koschwei/tth/LegacyRun2_2018_AH_v1/ttHTobb_M125_TuneCP5_13TeV-powheg-pythia8/LegacyRun2_2018_AH_v1/190706_075307/0000/tree_427.root = 25000
root://t3dcachedb.psi.ch//pnfs/psi.ch/cms/trivcat/store/user/koschwei/tth/LegacyRun2_2018_AH_v1/ttHTobb_M125_TuneCP5_13TeV-powheg-pythia8/LegacyRun2_2018_AH_v1/190706_075307/0000/tree_426.root = 25000
root://t3dcachedb.psi.ch//pnfs/psi.ch/cms/trivcat/store/user/koschwei/tth/LegacyRun2_2018_AH_v1/ttHTobb_M125_TuneCP5_13TeV-powheg-pythia8/LegacyRun2_2018_AH_v1/190706_075307/0000/tree_429.root = 25000
root://t3dcachedb.psi.ch//pnfs/psi.ch/cms/trivcat/store/user/koschwei/tth/LegacyRun2_2018_AH_v1/ttHTobb_M125_TuneCP5_13TeV-powheg-pythia8/LegacyRun2_2018_AH_v1/190706_075307/0000/tree_422.root = 25000
root://t3dcachedb.psi.ch//pnfs/psi.ch/cms/trivcat/store/user/koschwei/tth/LegacyRun2_2018_AH_v1/ttHTobb_M125_TuneCP5_13TeV-powheg-pythia8/LegacyRun2_2018_AH_v1/190706_075307/0000/tree_413.root = 25000
root://t3dcachedb.psi.ch//pnfs/psi.ch/cms/trivcat/store/user/koschwei/tth/LegacyRun2_2018_AH_v1/ttHTobb_M125_TuneCP5_13TeV-powheg-pythia8/LegacyRun2_2018_AH_v1/190706_075307/0000/tree_453.root = 25000
root://t3dcachedb.psi.ch//pnfs/psi.ch/cms/trivcat/store/user/koschwei/tth/LegacyRun2_2018_AH_v1/ttHTobb_M125_TuneCP5_13TeV-powheg-pythia8/LegacyRun2_2018_AH_v1/190706_075307/0000/tree_450.root = 25000
root://t3dcachedb.psi.ch//pnfs/psi.ch/cms/trivcat/store/user/koschwei/tth/LegacyRun2_2018_AH_v1/ttHTobb_M125_TuneCP5_13TeV-powheg-pythia8/LegacyRun2_2018_AH_v1/190706_075307/0000/tree_451.root = 25000
root://t3dcachedb.psi.ch//pnfs/psi.ch/cms/trivcat/store/user/koschwei/tth/LegacyRun2_2018_AH_v1/ttHTobb_M125_TuneCP5_13TeV-powheg-pythia8/LegacyRun2_2018_AH_v1/190706_075307/0000/tree_454.root = 25000
root://t3dcachedb.psi.ch//pnfs/psi.ch/cms/trivcat/store/user/koschwei/tth/LegacyRun2_2018_AH_v1/ttHTobb_M125_TuneCP5_13TeV-powheg-pythia8/LegacyRun2_2018_AH_v1/190706_075307/0000/tree_456.root = 25000
root://t3dcachedb.psi.ch//pnfs/psi.ch/cms/trivcat/store/user/koschwei/tth/LegacyRun2_2018_AH_v1/ttHTobb_M125_TuneCP5_13TeV-powheg-pythia8/LegacyRun2_2018_AH_v1/190706_075307/0000/tree_464.root = 25000
root://t3dcachedb.psi.ch//pnfs/psi.ch/cms/trivcat/store/user/koschwei/tth/LegacyRun2_2018_AH_v1/ttHTobb_M125_TuneCP5_13TeV-powheg-pythia8/LegacyRun2_2018_AH_v1/190706_075307/0000/tree_452.root = 25000
root://t3dcachedb.psi.ch//pnfs/psi.ch/cms/trivcat/store/user/koschwei/tth/LegacyRun2_2018_AH_v1/ttHTobb_M125_TuneCP5_13TeV-powheg-pythia8/LegacyRun2_2018_AH_v1/190706_075307/0000/tree_459.root = 25000
root://t3dcachedb.psi.ch//pnfs/psi.ch/cms/trivcat/store/user/koschwei/tth/LegacyRun2_2018_AH_v1/ttHTobb_M125_TuneCP5_13TeV-powheg-pythia8/LegacyRun2_2018_AH_v1/190706_075307/0000/tree_461.root = 25000
root://t3dcachedb.psi.ch//pnfs/psi.ch/cms/trivcat/store/user/koschwei/tth/LegacyRun2_2018_AH_v1/ttHTobb_M125_TuneCP5_13TeV-powheg-pythia8/LegacyRun2_2018_AH_v1/190706_075307/0000/tree_468.root = 25000
root://t3dcachedb.psi.ch//pnfs/psi.ch/cms/trivcat/store/user/koschwei/tth/LegacyRun2_2018_AH_v1/ttHTobb_M125_TuneCP5_13TeV-powheg-pythia8/LegacyRun2_2018_AH_v1/190706_075307/0000/tree_462.root = 25000
root://t3dcachedb.psi.ch//pnfs/psi.ch/cms/trivcat/store/user/koschwei/tth/LegacyRun2_2018_AH_v1/ttHTobb_M125_TuneCP5_13TeV-powheg-pythia8/LegacyRun2_2018_AH_v1/190706_075307/0000/tree_469.root = 25000
root://t3dcachedb.psi.ch//pnfs/psi.ch/cms/trivcat/store/user/koschwei/tth/LegacyRun2_2018_AH_v1/ttHTobb_M125_TuneCP5_13TeV-powheg-pythia8/LegacyRun2_2018_AH_v1/190706_075307/0000/tree_465.root = 25000
root://t3dcachedb.psi.ch//pnfs/psi.ch/cms/trivcat/store/user/koschwei/tth/LegacyRun2_2018_AH_v1/ttHTobb_M125_TuneCP5_13TeV-powheg-pythia8/LegacyRun2_2018_AH_v1/190706_075307/0000/tree_467.root = 25000
root://t3dcachedb.psi.ch//pnfs/psi.ch/cms/trivcat/store/user/koschwei/tth/LegacyRun2_2018_AH_v1/ttHTobb_M125_TuneCP5_13TeV-powheg-pythia8/LegacyRun2_2018_AH_v1/190706_075307/0000/tree_455.root = 25000
root://t3dcachedb.psi.ch//pnfs/psi.ch/cms/trivcat/store/user/koschwei/tth/LegacyRun2_2018_AH_v1/ttHTobb_M125_TuneCP5_13TeV-powheg-pythia8/LegacyRun2_2018_AH_v1/190706_075307/0000/tree_474.root = 11000
root://t3dcachedb.psi.ch//pnfs/psi.ch/cms/trivcat/store/user/koschwei/tth/LegacyRun2_2018_AH_v1/ttHTobb_M125_TuneCP5_13TeV-powheg-pythia8/LegacyRun2_2018_AH_v1/190706_075307/0000/tree_458.root = 25000
root://t3dcachedb.psi.ch//pnfs/psi.ch/cms/trivcat/store/user/koschwei/tth/LegacyRun2_2018_AH_v1/ttHTobb_M125_TuneCP5_13TeV-powheg-pythia8/LegacyRun2_2018_AH_v1/190706_075307/0000/tree_463.root = 25000
root://t3dcachedb.psi.ch//pnfs/psi.ch/cms/trivcat/store/user/koschwei/tth/LegacyRun2_2018_AH_v1/ttHTobb_M125_TuneCP5_13TeV-powheg-pythia8/LegacyRun2_2018_AH_v1/190706_075307/0000/tree_470.root = 25000
root://t3dcachedb.psi.ch//pnfs/psi.ch/cms/trivcat/store/user/koschwei/tth/LegacyRun2_2018_AH_v1/ttHTobb_M125_TuneCP5_13TeV-powheg-pythia8/LegacyRun2_2018_AH_v1/190706_075307/0000/tree_473.root = 25000
root://t3dcachedb.psi.ch//pnfs/psi.ch/cms/trivcat/store/user/koschwei/tth/LegacyRun2_2018_AH_v1/ttHTobb_M125_TuneCP5_13TeV-powheg-pythia8/LegacyRun2_2018_AH_v1/190706_075307/0000/tree_466.root = 25000
root://t3dcachedb.psi.ch//pnfs/psi.ch/cms/trivcat/store/user/koschwei/tth/LegacyRun2_2018_AH_v1/ttHTobb_M125_TuneCP5_13TeV-powheg-pythia8/LegacyRun2_2018_AH_v1/190706_075307/0000/tree_457.root = 25000
root://t3dcachedb.psi.ch//pnfs/psi.ch/cms/trivcat/store/user/koschwei/tth/LegacyRun2_2018_AH_v1/ttHTobb_M125_TuneCP5_13TeV-powheg-pythia8/LegacyRun2_2018_AH_v1/190706_075307/0000/tree_460.root = 25000
root://t3dcachedb.psi.ch//pnfs/psi.ch/cms/trivcat/store/user/koschwei/tth/LegacyRun2_2018_AH_v1/ttHTobb_M125_TuneCP5_13TeV-powheg-pythia8/LegacyRun2_2018_AH_v1/190706_075307/0000/tree_472.root = 25000
root://t3dcachedb.psi.ch//pnfs/psi.ch/cms/trivcat/store/user/koschwei/tth/LegacyRun2_2018_AH_v1/ttHTobb_M125_TuneCP5_13TeV-powheg-pythia8/LegacyRun2_2018_AH_v1/190706_075307/0000/tree_471.root = 25000
root://t3dcachedb.psi.ch//pnfs/psi.ch/cms/trivcat/store/user/koschwei/tth/LegacyRun2_2018_AH_v1/ttHTobb_M125_TuneCP5_13TeV-powheg-pythia8/LegacyRun2_2018_AH_v1/190706_075307/0000/tree_85.root = 25000
root://t3dcachedb.psi.ch//pnfs/psi.ch/cms/trivcat/store/user/koschwei/tth/LegacyRun2_2018_AH_v1/ttHTobb_M125_TuneCP5_13TeV-powheg-pythia8/LegacyRun2_2018_AH_v1/190706_075307/0000/tree_425.root = 25000
root://t3dcachedb.psi.ch//pnfs/psi.ch/cms/trivcat/store/user/koschwei/tth/LegacyRun2_2018_AH_v1/ttHTobb_M125_TuneCP5_13TeV-powheg-pythia8/LegacyRun2_2018_AH_v1/190706_075307/0000/tree_411.root = 25000
root://t3dcachedb.psi.ch//pnfs/psi.ch/cms/trivcat/store/user/koschwei/tth/LegacyRun2_2018_AH_v1/ttHTobb_M125_TuneCP5_13TeV-powheg-pythia8/LegacyRun2_2018_AH_v1/190706_075307/0000/tree_398.root = 25000
root://t3dcachedb.psi.ch//pnfs/psi.ch/cms/trivcat/store/user/koschwei/tth/LegacyRun2_2018_AH_v1/ttHTobb_M125_TuneCP5_13TeV-powheg-pythia8/LegacyRun2_2018_AH_v1/190706_075307/0000/tree_51.root = 25000
root://t3dcachedb.psi.ch//pnfs/psi.ch/cms/trivcat/store/user/koschwei/tth/LegacyRun2_2018_AH_v1/ttHTobb_M125_TuneCP5_13TeV-powheg-pythia8/LegacyRun2_2018_AH_v1/190706_075307/0000/tree_399.root = 25000
root://t3dcachedb.psi.ch//pnfs/psi.ch/cms/trivcat/store/user/koschwei/tth/LegacyRun2_2018_AH_v1/ttHTobb_M125_TuneCP5_13TeV-powheg-pythia8/LegacyRun2_2018_AH_v1/190706_075307/0000/tree_52.root = 25000
root://t3dcachedb.psi.ch//pnfs/psi.ch/cms/trivcat/store/user/koschwei/tth/LegacyRun2_2018_AH_v1/ttHTobb_M125_TuneCP5_13TeV-powheg-pythia8/LegacyRun2_2018_AH_v1/190706_075307/0000/tree_53.root = 25000
root://t3dcachedb.psi.ch//pnfs/psi.ch/cms/trivcat/store/user/koschwei/tth/LegacyRun2_2018_AH_v1/ttHTobb_M125_TuneCP5_13TeV-powheg-pythia8/LegacyRun2_2018_AH_v1/190706_075307/0000/tree_54.root = 25000
root://t3dcachedb.psi.ch//pnfs/psi.ch/cms/trivcat/store/user/koschwei/tth/LegacyRun2_2018_AH_v1/ttHTobb_M125_TuneCP5_13TeV-powheg-pythia8/LegacyRun2_2018_AH_v1/190706_075307/0000/tree_55.root = 25000
root://t3dcachedb.psi.ch//pnfs/psi.ch/cms/trivcat/store/user/koschwei/tth/LegacyRun2_2018_AH_v1/ttHTobb_M125_TuneCP5_13TeV-powheg-pythia8/LegacyRun2_2018_AH_v1/190706_075307/0000/tree_56.root = 25000
root://t3dcachedb.psi.ch//pnfs/psi.ch/cms/trivcat/store/user/koschwei/tth/LegacyRun2_2018_AH_v1/ttHTobb_M125_TuneCP5_13TeV-powheg-pythia8/LegacyRun2_2018_AH_v1/190706_075307/0000/tree_57.root = 25000
root://t3dcachedb.psi.ch//pnfs/psi.ch/cms/trivcat/store/user/koschwei/tth/LegacyRun2_2018_AH_v1/ttHTobb_M125_TuneCP5_13TeV-powheg-pythia8/LegacyRun2_2018_AH_v1/190706_075307/0000/tree_58.root = 25000
root://t3dcachedb.psi.ch//pnfs/psi.ch/cms/trivcat/store/user/koschwei/tth/LegacyRun2_2018_AH_v1/ttHTobb_M125_TuneCP5_13TeV-powheg-pythia8/LegacyRun2_2018_AH_v1/190706_075307/0000/tree_59.root = 25000
root://t3dcachedb.psi.ch//pnfs/psi.ch/cms/trivcat/store/user/koschwei/tth/LegacyRun2_2018_AH_v1/ttHTobb_M125_TuneCP5_13TeV-powheg-pythia8/LegacyRun2_2018_AH_v1/190706_075307/0000/tree_300.root = 25000
root://t3dcachedb.psi.ch//pnfs/psi.ch/cms/trivcat/store/user/koschwei/tth/LegacyRun2_2018_AH_v1/ttHTobb_M125_TuneCP5_13TeV-powheg-pythia8/LegacyRun2_2018_AH_v1/190706_075307/0000/tree_301.root = 25000
root://t3dcachedb.psi.ch//pnfs/psi.ch/cms/trivcat/store/user/koschwei/tth/LegacyRun2_2018_AH_v1/ttHTobb_M125_TuneCP5_13TeV-powheg-pythia8/LegacyRun2_2018_AH_v1/190706_075307/0000/tree_220.root = 25000
root://t3dcachedb.psi.ch//pnfs/psi.ch/cms/trivcat/store/user/koschwei/tth/LegacyRun2_2018_AH_v1/ttHTobb_M125_TuneCP5_13TeV-powheg-pythia8/LegacyRun2_2018_AH_v1/190706_075307/0000/tree_302.root = 25000
root://t3dcachedb.psi.ch//pnfs/psi.ch/cms/trivcat/store/user/koschwei/tth/LegacyRun2_2018_AH_v1/ttHTobb_M125_TuneCP5_13TeV-powheg-pythia8/LegacyRun2_2018_AH_v1/190706_075307/0000/tree_221.root = 25000
root://t3dcachedb.psi.ch//pnfs/psi.ch/cms/trivcat/store/user/koschwei/tth/LegacyRun2_2018_AH_v1/ttHTobb_M125_TuneCP5_13TeV-powheg-pythia8/LegacyRun2_2018_AH_v1/190706_075307/0000/tree_140.root = 25000
root://t3dcachedb.psi.ch//pnfs/psi.ch/cms/trivcat/store/user/koschwei/tth/LegacyRun2_2018_AH_v1/ttHTobb_M125_TuneCP5_13TeV-powheg-pythia8/LegacyRun2_2018_AH_v1/190706_075307/0000/tree_303.root = 25000
root://t3dcachedb.psi.ch//pnfs/psi.ch/cms/trivcat/store/user/koschwei/tth/LegacyRun2_2018_AH_v1/ttHTobb_M125_TuneCP5_13TeV-powheg-pythia8/LegacyRun2_2018_AH_v1/190706_075307/0000/tree_222.root = 25000
root://t3dcachedb.psi.ch//pnfs/psi.ch/cms/trivcat/store/user/koschwei/tth/LegacyRun2_2018_AH_v1/ttHTobb_M125_TuneCP5_13TeV-powheg-pythia8/LegacyRun2_2018_AH_v1/190706_075307/0000/tree_141.root = 25000
root://t3dcachedb.psi.ch//pnfs/psi.ch/cms/trivcat/store/user/koschwei/tth/LegacyRun2_2018_AH_v1/ttHTobb_M125_TuneCP5_13TeV-powheg-pythia8/LegacyRun2_2018_AH_v1/190706_075307/0000/tree_430.root = 25000
root://t3dcachedb.psi.ch//pnfs/psi.ch/cms/trivcat/store/user/koschwei/tth/LegacyRun2_2018_AH_v1/ttHTobb_M125_TuneCP5_13TeV-powheg-pythia8/LegacyRun2_2018_AH_v1/190706_075307/0000/tree_304.root = 25000
root://t3dcachedb.psi.ch//pnfs/psi.ch/cms/trivcat/store/user/koschwei/tth/LegacyRun2_2018_AH_v1/ttHTobb_M125_TuneCP5_13TeV-powheg-pythia8/LegacyRun2_2018_AH_v1/190706_075307/0000/tree_223.root = 25000
root://t3dcachedb.psi.ch//pnfs/psi.ch/cms/trivcat/store/user/koschwei/tth/LegacyRun2_2018_AH_v1/ttHTobb_M125_TuneCP5_13TeV-powheg-pythia8/LegacyRun2_2018_AH_v1/190706_075307/0000/tree_142.root = 25000
root://t3dcachedb.psi.ch//pnfs/psi.ch/cms/trivcat/store/user/koschwei/tth/LegacyRun2_2018_AH_v1/ttHTobb_M125_TuneCP5_13TeV-powheg-pythia8/LegacyRun2_2018_AH_v1/190706_075307/0000/tree_431.root = 25000
root://t3dcachedb.psi.ch//pnfs/psi.ch/cms/trivcat/store/user/koschwei/tth/LegacyRun2_2018_AH_v1/ttHTobb_M125_TuneCP5_13TeV-powheg-pythia8/LegacyRun2_2018_AH_v1/190706_075307/0000/tree_350.root = 25000
root://t3dcachedb.psi.ch//pnfs/psi.ch/cms/trivcat/store/user/koschwei/tth/LegacyRun2_2018_AH_v1/ttHTobb_M125_TuneCP5_13TeV-powheg-pythia8/LegacyRun2_2018_AH_v1/190706_075307/0000/tree_305.root = 25000
root://t3dcachedb.psi.ch//pnfs/psi.ch/cms/trivcat/store/user/koschwei/tth/LegacyRun2_2018_AH_v1/ttHTobb_M125_TuneCP5_13TeV-powheg-pythia8/LegacyRun2_2018_AH_v1/190706_075307/0000/tree_224.root = 25000
root://t3dcachedb.psi.ch//pnfs/psi.ch/cms/trivcat/store/user/koschwei/tth/LegacyRun2_2018_AH_v1/ttHTobb_M125_TuneCP5_13TeV-powheg-pythia8/LegacyRun2_2018_AH_v1/190706_075307/0000/tree_143.root = 25000
root://t3dcachedb.psi.ch//pnfs/psi.ch/cms/trivcat/store/user/koschwei/tth/LegacyRun2_2018_AH_v1/ttHTobb_M125_TuneCP5_13TeV-powheg-pythia8/LegacyRun2_2018_AH_v1/190706_075307/0000/tree_432.root = 25000
root://t3dcachedb.psi.ch//pnfs/psi.ch/cms/trivcat/store/user/koschwei/tth/LegacyRun2_2018_AH_v1/ttHTobb_M125_TuneCP5_13TeV-powheg-pythia8/LegacyRun2_2018_AH_v1/190706_075307/0000/tree_351.root = 25000
root://t3dcachedb.psi.ch//pnfs/psi.ch/cms/trivcat/store/user/koschwei/tth/LegacyRun2_2018_AH_v1/ttHTobb_M125_TuneCP5_13TeV-powheg-pythia8/LegacyRun2_2018_AH_v1/190706_075307/0000/tree_306.root = 25000
root://t3dcachedb.psi.ch//pnfs/psi.ch/cms/trivcat/store/user/koschwei/tth/LegacyRun2_2018_AH_v1/ttHTobb_M125_TuneCP5_13TeV-powheg-pythia8/LegacyRun2_2018_AH_v1/190706_075307/0000/tree_270.root = 25000
root://t3dcachedb.psi.ch//pnfs/psi.ch/cms/trivcat/store/user/koschwei/tth/LegacyRun2_2018_AH_v1/ttHTobb_M125_TuneCP5_13TeV-powheg-pythia8/LegacyRun2_2018_AH_v1/190706_075307/0000/tree_225.root = 25000
root://t3dcachedb.psi.ch//pnfs/psi.ch/cms/trivcat/store/user/koschwei/tth/LegacyRun2_2018_AH_v1/ttHTobb_M125_TuneCP5_13TeV-powheg-pythia8/LegacyRun2_2018_AH_v1/190706_075307/0000/tree_144.root = 25000
root://t3dcachedb.psi.ch//pnfs/psi.ch/cms/trivcat/store/user/koschwei/tth/LegacyRun2_2018_AH_v1/ttHTobb_M125_TuneCP5_13TeV-powheg-pythia8/LegacyRun2_2018_AH_v1/190706_075307/0000/tree_433.root = 25000
root://t3dcachedb.psi.ch//pnfs/psi.ch/cms/trivcat/store/user/koschwei/tth/LegacyRun2_2018_AH_v1/ttHTobb_M125_TuneCP5_13TeV-powheg-pythia8/LegacyRun2_2018_AH_v1/190706_075307/0000/tree_352.root = 25000
root://t3dcachedb.psi.ch//pnfs/psi.ch/cms/trivcat/store/user/koschwei/tth/LegacyRun2_2018_AH_v1/ttHTobb_M125_TuneCP5_13TeV-powheg-pythia8/LegacyRun2_2018_AH_v1/190706_075307/0000/tree_307.root = 25000
root://t3dcachedb.psi.ch//pnfs/psi.ch/cms/trivcat/store/user/koschwei/tth/LegacyRun2_2018_AH_v1/ttHTobb_M125_TuneCP5_13TeV-powheg-pythia8/LegacyRun2_2018_AH_v1/190706_075307/0000/tree_271.root = 25000
root://t3dcachedb.psi.ch//pnfs/psi.ch/cms/trivcat/store/user/koschwei/tth/LegacyRun2_2018_AH_v1/ttHTobb_M125_TuneCP5_13TeV-powheg-pythia8/LegacyRun2_2018_AH_v1/190706_075307/0000/tree_226.root = 25000
root://t3dcachedb.psi.ch//pnfs/psi.ch/cms/trivcat/store/user/koschwei/tth/LegacyRun2_2018_AH_v1/ttHTobb_M125_TuneCP5_13TeV-powheg-pythia8/LegacyRun2_2018_AH_v1/190706_075307/0000/tree_190.root = 25000
root://t3dcachedb.psi.ch//pnfs/psi.ch/cms/trivcat/store/user/koschwei/tth/LegacyRun2_2018_AH_v1/ttHTobb_M125_TuneCP5_13TeV-powheg-pythia8/LegacyRun2_2018_AH_v1/190706_075307/0000/tree_145.root = 25000
root://t3dcachedb.psi.ch//pnfs/psi.ch/cms/trivcat/store/user/koschwei/tth/LegacyRun2_2018_AH_v1/ttHTobb_M125_TuneCP5_13TeV-powheg-pythia8/LegacyRun2_2018_AH_v1/190706_075307/0000/tree_434.root = 25000
root://t3dcachedb.psi.ch//pnfs/psi.ch/cms/trivcat/store/user/koschwei/tth/LegacyRun2_2018_AH_v1/ttHTobb_M125_TuneCP5_13TeV-powheg-pythia8/LegacyRun2_2018_AH_v1/190706_075307/0000/tree_353.root = 25000
root://t3dcachedb.psi.ch//pnfs/psi.ch/cms/trivcat/store/user/koschwei/tth/LegacyRun2_2018_AH_v1/ttHTobb_M125_TuneCP5_13TeV-powheg-pythia8/LegacyRun2_2018_AH_v1/190706_075307/0000/tree_308.root = 25000
root://t3dcachedb.psi.ch//pnfs/psi.ch/cms/trivcat/store/user/koschwei/tth/LegacyRun2_2018_AH_v1/ttHTobb_M125_TuneCP5_13TeV-powheg-pythia8/LegacyRun2_2018_AH_v1/190706_075307/0000/tree_272.root = 25000
root://t3dcachedb.psi.ch//pnfs/psi.ch/cms/trivcat/store/user/koschwei/tth/LegacyRun2_2018_AH_v1/ttHTobb_M125_TuneCP5_13TeV-powheg-pythia8/LegacyRun2_2018_AH_v1/190706_075307/0000/tree_227.root = 25000
root://t3dcachedb.psi.ch//pnfs/psi.ch/cms/trivcat/store/user/koschwei/tth/LegacyRun2_2018_AH_v1/ttHTobb_M125_TuneCP5_13TeV-powheg-pythia8/LegacyRun2_2018_AH_v1/190706_075307/0000/tree_191.root = 25000
root://t3dcachedb.psi.ch//pnfs/psi.ch/cms/trivcat/store/user/koschwei/tth/LegacyRun2_2018_AH_v1/ttHTobb_M125_TuneCP5_13TeV-powheg-pythia8/LegacyRun2_2018_AH_v1/190706_075307/0000/tree_146.root = 25000
root://t3dcachedb.psi.ch//pnfs/psi.ch/cms/trivcat/store/user/koschwei/tth/LegacyRun2_2018_AH_v1/ttHTobb_M125_TuneCP5_13TeV-powheg-pythia8/LegacyRun2_2018_AH_v1/190706_075307/0000/tree_435.root = 25000
root://t3dcachedb.psi.ch//pnfs/psi.ch/cms/trivcat/store/user/koschwei/tth/LegacyRun2_2018_AH_v1/ttHTobb_M125_TuneCP5_13TeV-powheg-pythia8/LegacyRun2_2018_AH_v1/190706_075307/0000/tree_354.root = 25000
root://t3dcachedb.psi.ch//pnfs/psi.ch/cms/trivcat/store/user/koschwei/tth/LegacyRun2_2018_AH_v1/ttHTobb_M125_TuneCP5_13TeV-powheg-pythia8/LegacyRun2_2018_AH_v1/190706_075307/0000/tree_309.root = 25000
root://t3dcachedb.psi.ch//pnfs/psi.ch/cms/trivcat/store/user/koschwei/tth/LegacyRun2_2018_AH_v1/ttHTobb_M125_TuneCP5_13TeV-powheg-pythia8/LegacyRun2_2018_AH_v1/190706_075307/0000/tree_273.root = 25000
root://t3dcachedb.psi.ch//pnfs/psi.ch/cms/trivcat/store/user/koschwei/tth/LegacyRun2_2018_AH_v1/ttHTobb_M125_TuneCP5_13TeV-powheg-pythia8/LegacyRun2_2018_AH_v1/190706_075307/0000/tree_228.root = 25000
root://t3dcachedb.psi.ch//pnfs/psi.ch/cms/trivcat/store/user/koschwei/tth/LegacyRun2_2018_AH_v1/ttHTobb_M125_TuneCP5_13TeV-powheg-pythia8/LegacyRun2_2018_AH_v1/190706_075307/0000/tree_192.root = 25000
root://t3dcachedb.psi.ch//pnfs/psi.ch/cms/trivcat/store/user/koschwei/tth/LegacyRun2_2018_AH_v1/ttHTobb_M125_TuneCP5_13TeV-powheg-pythia8/LegacyRun2_2018_AH_v1/190706_075307/0000/tree_147.root = 25000
root://t3dcachedb.psi.ch//pnfs/psi.ch/cms/trivcat/store/user/koschwei/tth/LegacyRun2_2018_AH_v1/ttHTobb_M125_TuneCP5_13TeV-powheg-pythia8/LegacyRun2_2018_AH_v1/190706_075307/0000/tree_436.root = 25000
root://t3dcachedb.psi.ch//pnfs/psi.ch/cms/trivcat/store/user/koschwei/tth/LegacyRun2_2018_AH_v1/ttHTobb_M125_TuneCP5_13TeV-powheg-pythia8/LegacyRun2_2018_AH_v1/190706_075307/0000/tree_355.root = 25000
root://t3dcachedb.psi.ch//pnfs/psi.ch/cms/trivcat/store/user/koschwei/tth/LegacyRun2_2018_AH_v1/ttHTobb_M125_TuneCP5_13TeV-powheg-pythia8/LegacyRun2_2018_AH_v1/190706_075307/0000/tree_274.root = 25000
root://t3dcachedb.psi.ch//pnfs/psi.ch/cms/trivcat/store/user/koschwei/tth/LegacyRun2_2018_AH_v1/ttHTobb_M125_TuneCP5_13TeV-powheg-pythia8/LegacyRun2_2018_AH_v1/190706_075307/0000/tree_229.root = 25000
root://t3dcachedb.psi.ch//pnfs/psi.ch/cms/trivcat/store/user/koschwei/tth/LegacyRun2_2018_AH_v1/ttHTobb_M125_TuneCP5_13TeV-powheg-pythia8/LegacyRun2_2018_AH_v1/190706_075307/0000/tree_193.root = 25000
root://t3dcachedb.psi.ch//pnfs/psi.ch/cms/trivcat/store/user/koschwei/tth/LegacyRun2_2018_AH_v1/ttHTobb_M125_TuneCP5_13TeV-powheg-pythia8/LegacyRun2_2018_AH_v1/190706_075307/0000/tree_148.root = 25000
root://t3dcachedb.psi.ch//pnfs/psi.ch/cms/trivcat/store/user/koschwei/tth/LegacyRun2_2018_AH_v1/ttHTobb_M125_TuneCP5_13TeV-powheg-pythia8/LegacyRun2_2018_AH_v1/190706_075307/0000/tree_437.root = 25000
root://t3dcachedb.psi.ch//pnfs/psi.ch/cms/trivcat/store/user/koschwei/tth/LegacyRun2_2018_AH_v1/ttHTobb_M125_TuneCP5_13TeV-powheg-pythia8/LegacyRun2_2018_AH_v1/190706_075307/0000/tree_356.root = 25000
root://t3dcachedb.psi.ch//pnfs/psi.ch/cms/trivcat/store/user/koschwei/tth/LegacyRun2_2018_AH_v1/ttHTobb_M125_TuneCP5_13TeV-powheg-pythia8/LegacyRun2_2018_AH_v1/190706_075307/0000/tree_275.root = 25000
root://t3dcachedb.psi.ch//pnfs/psi.ch/cms/trivcat/store/user/koschwei/tth/LegacyRun2_2018_AH_v1/ttHTobb_M125_TuneCP5_13TeV-powheg-pythia8/LegacyRun2_2018_AH_v1/190706_075307/0000/tree_194.root = 25000
root://t3dcachedb.psi.ch//pnfs/psi.ch/cms/trivcat/store/user/koschwei/tth/LegacyRun2_2018_AH_v1/ttHTobb_M125_TuneCP5_13TeV-powheg-pythia8/LegacyRun2_2018_AH_v1/190706_075307/0000/tree_149.root = 25000
root://t3dcachedb.psi.ch//pnfs/psi.ch/cms/trivcat/store/user/koschwei/tth/LegacyRun2_2018_AH_v1/ttHTobb_M125_TuneCP5_13TeV-powheg-pythia8/LegacyRun2_2018_AH_v1/190706_075307/0000/tree_438.root = 25000
root://t3dcachedb.psi.ch//pnfs/psi.ch/cms/trivcat/store/user/koschwei/tth/LegacyRun2_2018_AH_v1/ttHTobb_M125_TuneCP5_13TeV-powheg-pythia8/LegacyRun2_2018_AH_v1/190706_075307/0000/tree_357.root = 25000
root://t3dcachedb.psi.ch//pnfs/psi.ch/cms/trivcat/store/user/koschwei/tth/LegacyRun2_2018_AH_v1/ttHTobb_M125_TuneCP5_13TeV-powheg-pythia8/LegacyRun2_2018_AH_v1/190706_075307/0000/tree_276.root = 25000
root://t3dcachedb.psi.ch//pnfs/psi.ch/cms/trivcat/store/user/koschwei/tth/LegacyRun2_2018_AH_v1/ttHTobb_M125_TuneCP5_13TeV-powheg-pythia8/LegacyRun2_2018_AH_v1/190706_075307/0000/tree_10.root = 25000
root://t3dcachedb.psi.ch//pnfs/psi.ch/cms/trivcat/store/user/koschwei/tth/LegacyRun2_2018_AH_v1/ttHTobb_M125_TuneCP5_13TeV-powheg-pythia8/LegacyRun2_2018_AH_v1/190706_075307/0000/tree_195.root = 25000
root://t3dcachedb.psi.ch//pnfs/psi.ch/cms/trivcat/store/user/koschwei/tth/LegacyRun2_2018_AH_v1/ttHTobb_M125_TuneCP5_13TeV-powheg-pythia8/LegacyRun2_2018_AH_v1/190706_075307/0000/tree_439.root = 25000
root://t3dcachedb.psi.ch//pnfs/psi.ch/cms/trivcat/store/user/koschwei/tth/LegacyRun2_2018_AH_v1/ttHTobb_M125_TuneCP5_13TeV-powheg-pythia8/LegacyRun2_2018_AH_v1/190706_075307/0000/tree_358.root = 25000
root://t3dcachedb.psi.ch//pnfs/psi.ch/cms/trivcat/store/user/koschwei/tth/LegacyRun2_2018_AH_v1/ttHTobb_M125_TuneCP5_13TeV-powheg-pythia8/LegacyRun2_2018_AH_v1/190706_075307/0000/tree_277.root = 25000
root://t3dcachedb.psi.ch//pnfs/psi.ch/cms/trivcat/store/user/koschwei/tth/LegacyRun2_2018_AH_v1/ttHTobb_M125_TuneCP5_13TeV-powheg-pythia8/LegacyRun2_2018_AH_v1/190706_075307/0000/tree_11.root = 25000
root://t3dcachedb.psi.ch//pnfs/psi.ch/cms/trivcat/store/user/koschwei/tth/LegacyRun2_2018_AH_v1/ttHTobb_M125_TuneCP5_13TeV-powheg-pythia8/LegacyRun2_2018_AH_v1/190706_075307/0000/tree_196.root = 25000
root://t3dcachedb.psi.ch//pnfs/psi.ch/cms/trivcat/store/user/koschwei/tth/LegacyRun2_2018_AH_v1/ttHTobb_M125_TuneCP5_13TeV-powheg-pythia8/LegacyRun2_2018_AH_v1/190706_075307/0000/tree_359.root = 25000
root://t3dcachedb.psi.ch//pnfs/psi.ch/cms/trivcat/store/user/koschwei/tth/LegacyRun2_2018_AH_v1/ttHTobb_M125_TuneCP5_13TeV-powheg-pythia8/LegacyRun2_2018_AH_v1/190706_075307/0000/tree_278.root = 25000
root://t3dcachedb.psi.ch//pnfs/psi.ch/cms/trivcat/store/user/koschwei/tth/LegacyRun2_2018_AH_v1/ttHTobb_M125_TuneCP5_13TeV-powheg-pythia8/LegacyRun2_2018_AH_v1/190706_075307/0000/tree_12.root = 25000
root://t3dcachedb.psi.ch//pnfs/psi.ch/cms/trivcat/store/user/koschwei/tth/LegacyRun2_2018_AH_v1/ttHTobb_M125_TuneCP5_13TeV-powheg-pythia8/LegacyRun2_2018_AH_v1/190706_075307/0000/tree_197.root = 25000
root://t3dcachedb.psi.ch//pnfs/psi.ch/cms/trivcat/store/user/koschwei/tth/LegacyRun2_2018_AH_v1/ttHTobb_M125_TuneCP5_13TeV-powheg-pythia8/LegacyRun2_2018_AH_v1/190706_075307/0000/tree_279.root = 25000
root://t3dcachedb.psi.ch//pnfs/psi.ch/cms/trivcat/store/user/koschwei/tth/LegacyRun2_2018_AH_v1/ttHTobb_M125_TuneCP5_13TeV-powheg-pythia8/LegacyRun2_2018_AH_v1/190706_075307/0000/tree_13.root = 25000
root://t3dcachedb.psi.ch//pnfs/psi.ch/cms/trivcat/store/user/koschwei/tth/LegacyRun2_2018_AH_v1/ttHTobb_M125_TuneCP5_13TeV-powheg-pythia8/LegacyRun2_2018_AH_v1/190706_075307/0000/tree_198.root = 25000
root://t3dcachedb.psi.ch//pnfs/psi.ch/cms/trivcat/store/user/koschwei/tth/LegacyRun2_2018_AH_v1/ttHTobb_M125_TuneCP5_13TeV-powheg-pythia8/LegacyRun2_2018_AH_v1/190706_075307/0000/tree_14.root = 25000
root://t3dcachedb.psi.ch//pnfs/psi.ch/cms/trivcat/store/user/koschwei/tth/LegacyRun2_2018_AH_v1/ttHTobb_M125_TuneCP5_13TeV-powheg-pythia8/LegacyRun2_2018_AH_v1/190706_075307/0000/tree_199.root = 25000
root://t3dcachedb.psi.ch//pnfs/psi.ch/cms/trivcat/store/user/koschwei/tth/LegacyRun2_2018_AH_v1/ttHTobb_M125_TuneCP5_13TeV-powheg-pythia8/LegacyRun2_2018_AH_v1/190706_075307/0000/tree_1.root = 25000
root://t3dcachedb.psi.ch//pnfs/psi.ch/cms/trivcat/store/user/koschwei/tth/LegacyRun2_2018_AH_v1/ttHTobb_M125_TuneCP5_13TeV-powheg-pythia8/LegacyRun2_2018_AH_v1/190706_075307/0000/tree_60.root = 25000
root://t3dcachedb.psi.ch//pnfs/psi.ch/cms/trivcat/store/user/koschwei/tth/LegacyRun2_2018_AH_v1/ttHTobb_M125_TuneCP5_13TeV-powheg-pythia8/LegacyRun2_2018_AH_v1/190706_075307/0000/tree_15.root = 25000
root://t3dcachedb.psi.ch//pnfs/psi.ch/cms/trivcat/store/user/koschwei/tth/LegacyRun2_2018_AH_v1/ttHTobb_M125_TuneCP5_13TeV-powheg-pythia8/LegacyRun2_2018_AH_v1/190706_075307/0000/tree_2.root = 25000
root://t3dcachedb.psi.ch//pnfs/psi.ch/cms/trivcat/store/user/koschwei/tth/LegacyRun2_2018_AH_v1/ttHTobb_M125_TuneCP5_13TeV-powheg-pythia8/LegacyRun2_2018_AH_v1/190706_075307/0000/tree_61.root = 25000
root://t3dcachedb.psi.ch//pnfs/psi.ch/cms/trivcat/store/user/koschwei/tth/LegacyRun2_2018_AH_v1/ttHTobb_M125_TuneCP5_13TeV-powheg-pythia8/LegacyRun2_2018_AH_v1/190706_075307/0000/tree_16.root = 25000
root://t3dcachedb.psi.ch//pnfs/psi.ch/cms/trivcat/store/user/koschwei/tth/LegacyRun2_2018_AH_v1/ttHTobb_M125_TuneCP5_13TeV-powheg-pythia8/LegacyRun2_2018_AH_v1/190706_075307/0000/tree_3.root = 25000
root://t3dcachedb.psi.ch//pnfs/psi.ch/cms/trivcat/store/user/koschwei/tth/LegacyRun2_2018_AH_v1/ttHTobb_M125_TuneCP5_13TeV-powheg-pythia8/LegacyRun2_2018_AH_v1/190706_075307/0000/tree_62.root = 25000
root://t3dcachedb.psi.ch//pnfs/psi.ch/cms/trivcat/store/user/koschwei/tth/LegacyRun2_2018_AH_v1/ttHTobb_M125_TuneCP5_13TeV-powheg-pythia8/LegacyRun2_2018_AH_v1/190706_075307/0000/tree_17.root = 25000
root://t3dcachedb.psi.ch//pnfs/psi.ch/cms/trivcat/store/user/koschwei/tth/LegacyRun2_2018_AH_v1/ttHTobb_M125_TuneCP5_13TeV-powheg-pythia8/LegacyRun2_2018_AH_v1/190706_075307/0000/tree_4.root = 25000
root://t3dcachedb.psi.ch//pnfs/psi.ch/cms/trivcat/store/user/koschwei/tth/LegacyRun2_2018_AH_v1/ttHTobb_M125_TuneCP5_13TeV-powheg-pythia8/LegacyRun2_2018_AH_v1/190706_075307/0000/tree_63.root = 25000
root://t3dcachedb.psi.ch//pnfs/psi.ch/cms/trivcat/store/user/koschwei/tth/LegacyRun2_2018_AH_v1/ttHTobb_M125_TuneCP5_13TeV-powheg-pythia8/LegacyRun2_2018_AH_v1/190706_075307/0000/tree_18.root = 25000
root://t3dcachedb.psi.ch//pnfs/psi.ch/cms/trivcat/store/user/koschwei/tth/LegacyRun2_2018_AH_v1/ttHTobb_M125_TuneCP5_13TeV-powheg-pythia8/LegacyRun2_2018_AH_v1/190706_075307/0000/tree_5.root = 25000
root://t3dcachedb.psi.ch//pnfs/psi.ch/cms/trivcat/store/user/koschwei/tth/LegacyRun2_2018_AH_v1/ttHTobb_M125_TuneCP5_13TeV-powheg-pythia8/LegacyRun2_2018_AH_v1/190706_075307/0000/tree_64.root = 25000
root://t3dcachedb.psi.ch//pnfs/psi.ch/cms/trivcat/store/user/koschwei/tth/LegacyRun2_2018_AH_v1/ttHTobb_M125_TuneCP5_13TeV-powheg-pythia8/LegacyRun2_2018_AH_v1/190706_075307/0000/tree_19.root = 25000
root://t3dcachedb.psi.ch//pnfs/psi.ch/cms/trivcat/store/user/koschwei/tth/LegacyRun2_2018_AH_v1/ttHTobb_M125_TuneCP5_13TeV-powheg-pythia8/LegacyRun2_2018_AH_v1/190706_075307/0000/tree_6.root = 25000
root://t3dcachedb.psi.ch//pnfs/psi.ch/cms/trivcat/store/user/koschwei/tth/LegacyRun2_2018_AH_v1/ttHTobb_M125_TuneCP5_13TeV-powheg-pythia8/LegacyRun2_2018_AH_v1/190706_075307/0000/tree_65.root = 25000
root://t3dcachedb.psi.ch//pnfs/psi.ch/cms/trivcat/store/user/koschwei/tth/LegacyRun2_2018_AH_v1/ttHTobb_M125_TuneCP5_13TeV-powheg-pythia8/LegacyRun2_2018_AH_v1/190706_075307/0000/tree_7.root = 25000
root://t3dcachedb.psi.ch//pnfs/psi.ch/cms/trivcat/store/user/koschwei/tth/LegacyRun2_2018_AH_v1/ttHTobb_M125_TuneCP5_13TeV-powheg-pythia8/LegacyRun2_2018_AH_v1/190706_075307/0000/tree_66.root = 25000
root://t3dcachedb.psi.ch//pnfs/psi.ch/cms/trivcat/store/user/koschwei/tth/LegacyRun2_2018_AH_v1/ttHTobb_M125_TuneCP5_13TeV-powheg-pythia8/LegacyRun2_2018_AH_v1/190706_075307/0000/tree_8.root = 25000
root://t3dcachedb.psi.ch//pnfs/psi.ch/cms/trivcat/store/user/koschwei/tth/LegacyRun2_2018_AH_v1/ttHTobb_M125_TuneCP5_13TeV-powheg-pythia8/LegacyRun2_2018_AH_v1/190706_075307/0000/tree_67.root = 25000
root://t3dcachedb.psi.ch//pnfs/psi.ch/cms/trivcat/store/user/koschwei/tth/LegacyRun2_2018_AH_v1/ttHTobb_M125_TuneCP5_13TeV-powheg-pythia8/LegacyRun2_2018_AH_v1/190706_075307/0000/tree_9.root = 25000
root://t3dcachedb.psi.ch//pnfs/psi.ch/cms/trivcat/store/user/koschwei/tth/LegacyRun2_2018_AH_v1/ttHTobb_M125_TuneCP5_13TeV-powheg-pythia8/LegacyRun2_2018_AH_v1/190706_075307/0000/tree_68.root = 25000
root://t3dcachedb.psi.ch//pnfs/psi.ch/cms/trivcat/store/user/koschwei/tth/LegacyRun2_2018_AH_v1/ttHTobb_M125_TuneCP5_13TeV-powheg-pythia8/LegacyRun2_2018_AH_v1/190706_075307/0000/tree_69.root = 25000
root://t3dcachedb.psi.ch//pnfs/psi.ch/cms/trivcat/store/user/koschwei/tth/LegacyRun2_2018_AH_v1/ttHTobb_M125_TuneCP5_13TeV-powheg-pythia8/LegacyRun2_2018_AH_v1/190706_075307/0000/tree_100.root = 25000
root://t3dcachedb.psi.ch//pnfs/psi.ch/cms/trivcat/store/user/koschwei/tth/LegacyRun2_2018_AH_v1/ttHTobb_M125_TuneCP5_13TeV-powheg-pythia8/LegacyRun2_2018_AH_v1/190706_075307/0000/tree_101.root = 25000
root://t3dcachedb.psi.ch//pnfs/psi.ch/cms/trivcat/store/user/koschwei/tth/LegacyRun2_2018_AH_v1/ttHTobb_M125_TuneCP5_13TeV-powheg-pythia8/LegacyRun2_2018_AH_v1/190706_075307/0000/tree_102.root = 25000
root://t3dcachedb.psi.ch//pnfs/psi.ch/cms/trivcat/store/user/koschwei/tth/LegacyRun2_2018_AH_v1/ttHTobb_M125_TuneCP5_13TeV-powheg-pythia8/LegacyRun2_2018_AH_v1/190706_075307/0000/tree_310.root = 25000
root://t3dcachedb.psi.ch//pnfs/psi.ch/cms/trivcat/store/user/koschwei/tth/LegacyRun2_2018_AH_v1/ttHTobb_M125_TuneCP5_13TeV-powheg-pythia8/LegacyRun2_2018_AH_v1/190706_075307/0000/tree_103.root = 25000
root://t3dcachedb.psi.ch//pnfs/psi.ch/cms/trivcat/store/user/koschwei/tth/LegacyRun2_2018_AH_v1/ttHTobb_M125_TuneCP5_13TeV-powheg-pythia8/LegacyRun2_2018_AH_v1/190706_075307/0000/tree_311.root = 25000
root://t3dcachedb.psi.ch//pnfs/psi.ch/cms/trivcat/store/user/koschwei/tth/LegacyRun2_2018_AH_v1/ttHTobb_M125_TuneCP5_13TeV-powheg-pythia8/LegacyRun2_2018_AH_v1/190706_075307/0000/tree_230.root = 25000
root://t3dcachedb.psi.ch//pnfs/psi.ch/cms/trivcat/store/user/koschwei/tth/LegacyRun2_2018_AH_v1/ttHTobb_M125_TuneCP5_13TeV-powheg-pythia8/LegacyRun2_2018_AH_v1/190706_075307/0000/tree_104.root = 25000
root://t3dcachedb.psi.ch//pnfs/psi.ch/cms/trivcat/store/user/koschwei/tth/LegacyRun2_2018_AH_v1/ttHTobb_M125_TuneCP5_13TeV-powheg-pythia8/LegacyRun2_2018_AH_v1/190706_075307/0000/tree_312.root = 25000
root://t3dcachedb.psi.ch//pnfs/psi.ch/cms/trivcat/store/user/koschwei/tth/LegacyRun2_2018_AH_v1/ttHTobb_M125_TuneCP5_13TeV-powheg-pythia8/LegacyRun2_2018_AH_v1/190706_075307/0000/tree_231.root = 25000
root://t3dcachedb.psi.ch//pnfs/psi.ch/cms/trivcat/store/user/koschwei/tth/LegacyRun2_2018_AH_v1/ttHTobb_M125_TuneCP5_13TeV-powheg-pythia8/LegacyRun2_2018_AH_v1/190706_075307/0000/tree_150.root = 25000
root://t3dcachedb.psi.ch//pnfs/psi.ch/cms/trivcat/store/user/koschwei/tth/LegacyRun2_2018_AH_v1/ttHTobb_M125_TuneCP5_13TeV-powheg-pythia8/LegacyRun2_2018_AH_v1/190706_075307/0000/tree_105.root = 25000
root://t3dcachedb.psi.ch//pnfs/psi.ch/cms/trivcat/store/user/koschwei/tth/LegacyRun2_2018_AH_v1/ttHTobb_M125_TuneCP5_13TeV-powheg-pythia8/LegacyRun2_2018_AH_v1/190706_075307/0000/tree_313.root = 25000
root://t3dcachedb.psi.ch//pnfs/psi.ch/cms/trivcat/store/user/koschwei/tth/LegacyRun2_2018_AH_v1/ttHTobb_M125_TuneCP5_13TeV-powheg-pythia8/LegacyRun2_2018_AH_v1/190706_075307/0000/tree_232.root = 25000
root://t3dcachedb.psi.ch//pnfs/psi.ch/cms/trivcat/store/user/koschwei/tth/LegacyRun2_2018_AH_v1/ttHTobb_M125_TuneCP5_13TeV-powheg-pythia8/LegacyRun2_2018_AH_v1/190706_075307/0000/tree_151.root = 25000
root://t3dcachedb.psi.ch//pnfs/psi.ch/cms/trivcat/store/user/koschwei/tth/LegacyRun2_2018_AH_v1/ttHTobb_M125_TuneCP5_13TeV-powheg-pythia8/LegacyRun2_2018_AH_v1/190706_075307/0000/tree_106.root = 25000
root://t3dcachedb.psi.ch//pnfs/psi.ch/cms/trivcat/store/user/koschwei/tth/LegacyRun2_2018_AH_v1/ttHTobb_M125_TuneCP5_13TeV-powheg-pythia8/LegacyRun2_2018_AH_v1/190706_075307/0000/tree_440.root = 25000
root://t3dcachedb.psi.ch//pnfs/psi.ch/cms/trivcat/store/user/koschwei/tth/LegacyRun2_2018_AH_v1/ttHTobb_M125_TuneCP5_13TeV-powheg-pythia8/LegacyRun2_2018_AH_v1/190706_075307/0000/tree_314.root = 25000
root://t3dcachedb.psi.ch//pnfs/psi.ch/cms/trivcat/store/user/koschwei/tth/LegacyRun2_2018_AH_v1/ttHTobb_M125_TuneCP5_13TeV-powheg-pythia8/LegacyRun2_2018_AH_v1/190706_075307/0000/tree_233.root = 25000
root://t3dcachedb.psi.ch//pnfs/psi.ch/cms/trivcat/store/user/koschwei/tth/LegacyRun2_2018_AH_v1/ttHTobb_M125_TuneCP5_13TeV-powheg-pythia8/LegacyRun2_2018_AH_v1/190706_075307/0000/tree_152.root = 25000
root://t3dcachedb.psi.ch//pnfs/psi.ch/cms/trivcat/store/user/koschwei/tth/LegacyRun2_2018_AH_v1/ttHTobb_M125_TuneCP5_13TeV-powheg-pythia8/LegacyRun2_2018_AH_v1/190706_075307/0000/tree_107.root = 25000
root://t3dcachedb.psi.ch//pnfs/psi.ch/cms/trivcat/store/user/koschwei/tth/LegacyRun2_2018_AH_v1/ttHTobb_M125_TuneCP5_13TeV-powheg-pythia8/LegacyRun2_2018_AH_v1/190706_075307/0000/tree_441.root = 25000
root://t3dcachedb.psi.ch//pnfs/psi.ch/cms/trivcat/store/user/koschwei/tth/LegacyRun2_2018_AH_v1/ttHTobb_M125_TuneCP5_13TeV-powheg-pythia8/LegacyRun2_2018_AH_v1/190706_075307/0000/tree_360.root = 25000
root://t3dcachedb.psi.ch//pnfs/psi.ch/cms/trivcat/store/user/koschwei/tth/LegacyRun2_2018_AH_v1/ttHTobb_M125_TuneCP5_13TeV-powheg-pythia8/LegacyRun2_2018_AH_v1/190706_075307/0000/tree_315.root = 25000
root://t3dcachedb.psi.ch//pnfs/psi.ch/cms/trivcat/store/user/koschwei/tth/LegacyRun2_2018_AH_v1/ttHTobb_M125_TuneCP5_13TeV-powheg-pythia8/LegacyRun2_2018_AH_v1/190706_075307/0000/tree_234.root = 25000
root://t3dcachedb.psi.ch//pnfs/psi.ch/cms/trivcat/store/user/koschwei/tth/LegacyRun2_2018_AH_v1/ttHTobb_M125_TuneCP5_13TeV-powheg-pythia8/LegacyRun2_2018_AH_v1/190706_075307/0000/tree_153.root = 25000
root://t3dcachedb.psi.ch//pnfs/psi.ch/cms/trivcat/store/user/koschwei/tth/LegacyRun2_2018_AH_v1/ttHTobb_M125_TuneCP5_13TeV-powheg-pythia8/LegacyRun2_2018_AH_v1/190706_075307/0000/tree_108.root = 25000
root://t3dcachedb.psi.ch//pnfs/psi.ch/cms/trivcat/store/user/koschwei/tth/LegacyRun2_2018_AH_v1/ttHTobb_M125_TuneCP5_13TeV-powheg-pythia8/LegacyRun2_2018_AH_v1/190706_075307/0000/tree_442.root = 25000
root://t3dcachedb.psi.ch//pnfs/psi.ch/cms/trivcat/store/user/koschwei/tth/LegacyRun2_2018_AH_v1/ttHTobb_M125_TuneCP5_13TeV-powheg-pythia8/LegacyRun2_2018_AH_v1/190706_075307/0000/tree_361.root = 25000
root://t3dcachedb.psi.ch//pnfs/psi.ch/cms/trivcat/store/user/koschwei/tth/LegacyRun2_2018_AH_v1/ttHTobb_M125_TuneCP5_13TeV-powheg-pythia8/LegacyRun2_2018_AH_v1/190706_075307/0000/tree_316.root = 25000
root://t3dcachedb.psi.ch//pnfs/psi.ch/cms/trivcat/store/user/koschwei/tth/LegacyRun2_2018_AH_v1/ttHTobb_M125_TuneCP5_13TeV-powheg-pythia8/LegacyRun2_2018_AH_v1/190706_075307/0000/tree_280.root = 25000
root://t3dcachedb.psi.ch//pnfs/psi.ch/cms/trivcat/store/user/koschwei/tth/LegacyRun2_2018_AH_v1/ttHTobb_M125_TuneCP5_13TeV-powheg-pythia8/LegacyRun2_2018_AH_v1/190706_075307/0000/tree_235.root = 25000
root://t3dcachedb.psi.ch//pnfs/psi.ch/cms/trivcat/store/user/koschwei/tth/LegacyRun2_2018_AH_v1/ttHTobb_M125_TuneCP5_13TeV-powheg-pythia8/LegacyRun2_2018_AH_v1/190706_075307/0000/tree_154.root = 25000
root://t3dcachedb.psi.ch//pnfs/psi.ch/cms/trivcat/store/user/koschwei/tth/LegacyRun2_2018_AH_v1/ttHTobb_M125_TuneCP5_13TeV-powheg-pythia8/LegacyRun2_2018_AH_v1/190706_075307/0000/tree_109.root = 25000
root://t3dcachedb.psi.ch//pnfs/psi.ch/cms/trivcat/store/user/koschwei/tth/LegacyRun2_2018_AH_v1/ttHTobb_M125_TuneCP5_13TeV-powheg-pythia8/LegacyRun2_2018_AH_v1/190706_075307/0000/tree_443.root = 25000
root://t3dcachedb.psi.ch//pnfs/psi.ch/cms/trivcat/store/user/koschwei/tth/LegacyRun2_2018_AH_v1/ttHTobb_M125_TuneCP5_13TeV-powheg-pythia8/LegacyRun2_2018_AH_v1/190706_075307/0000/tree_362.root = 25000
root://t3dcachedb.psi.ch//pnfs/psi.ch/cms/trivcat/store/user/koschwei/tth/LegacyRun2_2018_AH_v1/ttHTobb_M125_TuneCP5_13TeV-powheg-pythia8/LegacyRun2_2018_AH_v1/190706_075307/0000/tree_317.root = 25000
root://t3dcachedb.psi.ch//pnfs/psi.ch/cms/trivcat/store/user/koschwei/tth/LegacyRun2_2018_AH_v1/ttHTobb_M125_TuneCP5_13TeV-powheg-pythia8/LegacyRun2_2018_AH_v1/190706_075307/0000/tree_281.root = 25000
root://t3dcachedb.psi.ch//pnfs/psi.ch/cms/trivcat/store/user/koschwei/tth/LegacyRun2_2018_AH_v1/ttHTobb_M125_TuneCP5_13TeV-powheg-pythia8/LegacyRun2_2018_AH_v1/190706_075307/0000/tree_236.root = 25000
root://t3dcachedb.psi.ch//pnfs/psi.ch/cms/trivcat/store/user/koschwei/tth/LegacyRun2_2018_AH_v1/ttHTobb_M125_TuneCP5_13TeV-powheg-pythia8/LegacyRun2_2018_AH_v1/190706_075307/0000/tree_155.root = 25000
root://t3dcachedb.psi.ch//pnfs/psi.ch/cms/trivcat/store/user/koschwei/tth/LegacyRun2_2018_AH_v1/ttHTobb_M125_TuneCP5_13TeV-powheg-pythia8/LegacyRun2_2018_AH_v1/190706_075307/0000/tree_444.root = 25000
root://t3dcachedb.psi.ch//pnfs/psi.ch/cms/trivcat/store/user/koschwei/tth/LegacyRun2_2018_AH_v1/ttHTobb_M125_TuneCP5_13TeV-powheg-pythia8/LegacyRun2_2018_AH_v1/190706_075307/0000/tree_363.root = 25000
root://t3dcachedb.psi.ch//pnfs/psi.ch/cms/trivcat/store/user/koschwei/tth/LegacyRun2_2018_AH_v1/ttHTobb_M125_TuneCP5_13TeV-powheg-pythia8/LegacyRun2_2018_AH_v1/190706_075307/0000/tree_318.root = 25000
root://t3dcachedb.psi.ch//pnfs/psi.ch/cms/trivcat/store/user/koschwei/tth/LegacyRun2_2018_AH_v1/ttHTobb_M125_TuneCP5_13TeV-powheg-pythia8/LegacyRun2_2018_AH_v1/190706_075307/0000/tree_282.root = 25000
root://t3dcachedb.psi.ch//pnfs/psi.ch/cms/trivcat/store/user/koschwei/tth/LegacyRun2_2018_AH_v1/ttHTobb_M125_TuneCP5_13TeV-powheg-pythia8/LegacyRun2_2018_AH_v1/190706_075307/0000/tree_237.root = 25000
root://t3dcachedb.psi.ch//pnfs/psi.ch/cms/trivcat/store/user/koschwei/tth/LegacyRun2_2018_AH_v1/ttHTobb_M125_TuneCP5_13TeV-powheg-pythia8/LegacyRun2_2018_AH_v1/190706_075307/0000/tree_156.root = 25000
root://t3dcachedb.psi.ch//pnfs/psi.ch/cms/trivcat/store/user/koschwei/tth/LegacyRun2_2018_AH_v1/ttHTobb_M125_TuneCP5_13TeV-powheg-pythia8/LegacyRun2_2018_AH_v1/190706_075307/0000/tree_445.root = 25000
root://t3dcachedb.psi.ch//pnfs/psi.ch/cms/trivcat/store/user/koschwei/tth/LegacyRun2_2018_AH_v1/ttHTobb_M125_TuneCP5_13TeV-powheg-pythia8/LegacyRun2_2018_AH_v1/190706_075307/0000/tree_364.root = 24999
root://t3dcachedb.psi.ch//pnfs/psi.ch/cms/trivcat/store/user/koschwei/tth/LegacyRun2_2018_AH_v1/ttHTobb_M125_TuneCP5_13TeV-powheg-pythia8/LegacyRun2_2018_AH_v1/190706_075307/0000/tree_319.root = 25000
root://t3dcachedb.psi.ch//pnfs/psi.ch/cms/trivcat/store/user/koschwei/tth/LegacyRun2_2018_AH_v1/ttHTobb_M125_TuneCP5_13TeV-powheg-pythia8/LegacyRun2_2018_AH_v1/190706_075307/0000/tree_283.root = 25000
root://t3dcachedb.psi.ch//pnfs/psi.ch/cms/trivcat/store/user/koschwei/tth/LegacyRun2_2018_AH_v1/ttHTobb_M125_TuneCP5_13TeV-powheg-pythia8/LegacyRun2_2018_AH_v1/190706_075307/0000/tree_238.root = 25000
root://t3dcachedb.psi.ch//pnfs/psi.ch/cms/trivcat/store/user/koschwei/tth/LegacyRun2_2018_AH_v1/ttHTobb_M125_TuneCP5_13TeV-powheg-pythia8/LegacyRun2_2018_AH_v1/190706_075307/0000/tree_157.root = 25000
root://t3dcachedb.psi.ch//pnfs/psi.ch/cms/trivcat/store/user/koschwei/tth/LegacyRun2_2018_AH_v1/ttHTobb_M125_TuneCP5_13TeV-powheg-pythia8/LegacyRun2_2018_AH_v1/190706_075307/0000/tree_446.root = 25000
root://t3dcachedb.psi.ch//pnfs/psi.ch/cms/trivcat/store/user/koschwei/tth/LegacyRun2_2018_AH_v1/ttHTobb_M125_TuneCP5_13TeV-powheg-pythia8/LegacyRun2_2018_AH_v1/190706_075307/0000/tree_365.root = 25000
root://t3dcachedb.psi.ch//pnfs/psi.ch/cms/trivcat/store/user/koschwei/tth/LegacyRun2_2018_AH_v1/ttHTobb_M125_TuneCP5_13TeV-powheg-pythia8/LegacyRun2_2018_AH_v1/190706_075307/0000/tree_284.root = 25000
root://t3dcachedb.psi.ch//pnfs/psi.ch/cms/trivcat/store/user/koschwei/tth/LegacyRun2_2018_AH_v1/ttHTobb_M125_TuneCP5_13TeV-powheg-pythia8/LegacyRun2_2018_AH_v1/190706_075307/0000/tree_239.root = 25000
root://t3dcachedb.psi.ch//pnfs/psi.ch/cms/trivcat/store/user/koschwei/tth/LegacyRun2_2018_AH_v1/ttHTobb_M125_TuneCP5_13TeV-powheg-pythia8/LegacyRun2_2018_AH_v1/190706_075307/0000/tree_158.root = 25000
root://t3dcachedb.psi.ch//pnfs/psi.ch/cms/trivcat/store/user/koschwei/tth/LegacyRun2_2018_AH_v1/ttHTobb_M125_TuneCP5_13TeV-powheg-pythia8/LegacyRun2_2018_AH_v1/190706_075307/0000/tree_447.root = 25000
root://t3dcachedb.psi.ch//pnfs/psi.ch/cms/trivcat/store/user/koschwei/tth/LegacyRun2_2018_AH_v1/ttHTobb_M125_TuneCP5_13TeV-powheg-pythia8/LegacyRun2_2018_AH_v1/190706_075307/0000/tree_366.root = 25000
root://t3dcachedb.psi.ch//pnfs/psi.ch/cms/trivcat/store/user/koschwei/tth/LegacyRun2_2018_AH_v1/ttHTobb_M125_TuneCP5_13TeV-powheg-pythia8/LegacyRun2_2018_AH_v1/190706_075307/0000/tree_285.root = 25000
root://t3dcachedb.psi.ch//pnfs/psi.ch/cms/trivcat/store/user/koschwei/tth/LegacyRun2_2018_AH_v1/ttHTobb_M125_TuneCP5_13TeV-powheg-pythia8/LegacyRun2_2018_AH_v1/190706_075307/0000/tree_159.root = 25000
root://t3dcachedb.psi.ch//pnfs/psi.ch/cms/trivcat/store/user/koschwei/tth/LegacyRun2_2018_AH_v1/ttHTobb_M125_TuneCP5_13TeV-powheg-pythia8/LegacyRun2_2018_AH_v1/190706_075307/0000/tree_448.root = 25000
root://t3dcachedb.psi.ch//pnfs/psi.ch/cms/trivcat/store/user/koschwei/tth/LegacyRun2_2018_AH_v1/ttHTobb_M125_TuneCP5_13TeV-powheg-pythia8/LegacyRun2_2018_AH_v1/190706_075307/0000/tree_367.root = 25000
root://t3dcachedb.psi.ch//pnfs/psi.ch/cms/trivcat/store/user/koschwei/tth/LegacyRun2_2018_AH_v1/ttHTobb_M125_TuneCP5_13TeV-powheg-pythia8/LegacyRun2_2018_AH_v1/190706_075307/0000/tree_286.root = 25000
root://t3dcachedb.psi.ch//pnfs/psi.ch/cms/trivcat/store/user/koschwei/tth/LegacyRun2_2018_AH_v1/ttHTobb_M125_TuneCP5_13TeV-powheg-pythia8/LegacyRun2_2018_AH_v1/190706_075307/0000/tree_20.root = 25000
root://t3dcachedb.psi.ch//pnfs/psi.ch/cms/trivcat/store/user/koschwei/tth/LegacyRun2_2018_AH_v1/ttHTobb_M125_TuneCP5_13TeV-powheg-pythia8/LegacyRun2_2018_AH_v1/190706_075307/0000/tree_449.root = 25000
root://t3dcachedb.psi.ch//pnfs/psi.ch/cms/trivcat/store/user/koschwei/tth/LegacyRun2_2018_AH_v1/ttHTobb_M125_TuneCP5_13TeV-powheg-pythia8/LegacyRun2_2018_AH_v1/190706_075307/0000/tree_368.root = 25000
root://t3dcachedb.psi.ch//pnfs/psi.ch/cms/trivcat/store/user/koschwei/tth/LegacyRun2_2018_AH_v1/ttHTobb_M125_TuneCP5_13TeV-powheg-pythia8/LegacyRun2_2018_AH_v1/190706_075307/0000/tree_287.root = 25000
root://t3dcachedb.psi.ch//pnfs/psi.ch/cms/trivcat/store/user/koschwei/tth/LegacyRun2_2018_AH_v1/ttHTobb_M125_TuneCP5_13TeV-powheg-pythia8/LegacyRun2_2018_AH_v1/190706_075307/0000/tree_21.root = 25000
root://t3dcachedb.psi.ch//pnfs/psi.ch/cms/trivcat/store/user/koschwei/tth/LegacyRun2_2018_AH_v1/ttHTobb_M125_TuneCP5_13TeV-powheg-pythia8/LegacyRun2_2018_AH_v1/190706_075307/0000/tree_369.root = 25000
root://t3dcachedb.psi.ch//pnfs/psi.ch/cms/trivcat/store/user/koschwei/tth/LegacyRun2_2018_AH_v1/ttHTobb_M125_TuneCP5_13TeV-powheg-pythia8/LegacyRun2_2018_AH_v1/190706_075307/0000/tree_288.root = 25000
root://t3dcachedb.psi.ch//pnfs/psi.ch/cms/trivcat/store/user/koschwei/tth/LegacyRun2_2018_AH_v1/ttHTobb_M125_TuneCP5_13TeV-powheg-pythia8/LegacyRun2_2018_AH_v1/190706_075307/0000/tree_22.root = 25000
root://t3dcachedb.psi.ch//pnfs/psi.ch/cms/trivcat/store/user/koschwei/tth/LegacyRun2_2018_AH_v1/ttHTobb_M125_TuneCP5_13TeV-powheg-pythia8/LegacyRun2_2018_AH_v1/190706_075307/0000/tree_289.root = 25000
root://t3dcachedb.psi.ch//pnfs/psi.ch/cms/trivcat/store/user/koschwei/tth/LegacyRun2_2018_AH_v1/ttHTobb_M125_TuneCP5_13TeV-powheg-pythia8/LegacyRun2_2018_AH_v1/190706_075307/0000/tree_23.root = 25000
root://t3dcachedb.psi.ch//pnfs/psi.ch/cms/trivcat/store/user/koschwei/tth/LegacyRun2_2018_AH_v1/ttHTobb_M125_TuneCP5_13TeV-powheg-pythia8/LegacyRun2_2018_AH_v1/190706_075307/0000/tree_24.root = 25000
root://t3dcachedb.psi.ch//pnfs/psi.ch/cms/trivcat/store/user/koschwei/tth/LegacyRun2_2018_AH_v1/ttHTobb_M125_TuneCP5_13TeV-powheg-pythia8/LegacyRun2_2018_AH_v1/190706_075307/0000/tree_70.root = 25000
root://t3dcachedb.psi.ch//pnfs/psi.ch/cms/trivcat/store/user/koschwei/tth/LegacyRun2_2018_AH_v1/ttHTobb_M125_TuneCP5_13TeV-powheg-pythia8/LegacyRun2_2018_AH_v1/190706_075307/0000/tree_25.root = 25000
root://t3dcachedb.psi.ch//pnfs/psi.ch/cms/trivcat/store/user/koschwei/tth/LegacyRun2_2018_AH_v1/ttHTobb_M125_TuneCP5_13TeV-powheg-pythia8/LegacyRun2_2018_AH_v1/190706_075307/0000/tree_71.root = 25000
root://t3dcachedb.psi.ch//pnfs/psi.ch/cms/trivcat/store/user/koschwei/tth/LegacyRun2_2018_AH_v1/ttHTobb_M125_TuneCP5_13TeV-powheg-pythia8/LegacyRun2_2018_AH_v1/190706_075307/0000/tree_26.root = 25000
root://t3dcachedb.psi.ch//pnfs/psi.ch/cms/trivcat/store/user/koschwei/tth/LegacyRun2_2018_AH_v1/ttHTobb_M125_TuneCP5_13TeV-powheg-pythia8/LegacyRun2_2018_AH_v1/190706_075307/0000/tree_72.root = 25000
root://t3dcachedb.psi.ch//pnfs/psi.ch/cms/trivcat/store/user/koschwei/tth/LegacyRun2_2018_AH_v1/ttHTobb_M125_TuneCP5_13TeV-powheg-pythia8/LegacyRun2_2018_AH_v1/190706_075307/0000/tree_27.root = 25000
root://t3dcachedb.psi.ch//pnfs/psi.ch/cms/trivcat/store/user/koschwei/tth/LegacyRun2_2018_AH_v1/ttHTobb_M125_TuneCP5_13TeV-powheg-pythia8/LegacyRun2_2018_AH_v1/190706_075307/0000/tree_73.root = 25000
root://t3dcachedb.psi.ch//pnfs/psi.ch/cms/trivcat/store/user/koschwei/tth/LegacyRun2_2018_AH_v1/ttHTobb_M125_TuneCP5_13TeV-powheg-pythia8/LegacyRun2_2018_AH_v1/190706_075307/0000/tree_28.root = 25000
root://t3dcachedb.psi.ch//pnfs/psi.ch/cms/trivcat/store/user/koschwei/tth/LegacyRun2_2018_AH_v1/ttHTobb_M125_TuneCP5_13TeV-powheg-pythia8/LegacyRun2_2018_AH_v1/190706_075307/0000/tree_74.root = 25000
root://t3dcachedb.psi.ch//pnfs/psi.ch/cms/trivcat/store/user/koschwei/tth/LegacyRun2_2018_AH_v1/ttHTobb_M125_TuneCP5_13TeV-powheg-pythia8/LegacyRun2_2018_AH_v1/190706_075307/0000/tree_29.root = 25000
root://t3dcachedb.psi.ch//pnfs/psi.ch/cms/trivcat/store/user/koschwei/tth/LegacyRun2_2018_AH_v1/ttHTobb_M125_TuneCP5_13TeV-powheg-pythia8/LegacyRun2_2018_AH_v1/190706_075307/0000/tree_75.root = 25000
root://t3dcachedb.psi.ch//pnfs/psi.ch/cms/trivcat/store/user/koschwei/tth/LegacyRun2_2018_AH_v1/ttHTobb_M125_TuneCP5_13TeV-powheg-pythia8/LegacyRun2_2018_AH_v1/190706_075307/0000/tree_76.root = 25000
root://t3dcachedb.psi.ch//pnfs/psi.ch/cms/trivcat/store/user/koschwei/tth/LegacyRun2_2018_AH_v1/ttHTobb_M125_TuneCP5_13TeV-powheg-pythia8/LegacyRun2_2018_AH_v1/190706_075307/0000/tree_77.root = 25000
root://t3dcachedb.psi.ch//pnfs/psi.ch/cms/trivcat/store/user/koschwei/tth/LegacyRun2_2018_AH_v1/ttHTobb_M125_TuneCP5_13TeV-powheg-pythia8/LegacyRun2_2018_AH_v1/190706_075307/0000/tree_78.root = 25000
root://t3dcachedb.psi.ch//pnfs/psi.ch/cms/trivcat/store/user/koschwei/tth/LegacyRun2_2018_AH_v1/ttHTobb_M125_TuneCP5_13TeV-powheg-pythia8/LegacyRun2_2018_AH_v1/190706_075307/0000/tree_79.root = 25000
root://t3dcachedb.psi.ch//pnfs/psi.ch/cms/trivcat/store/user/koschwei/tth/LegacyRun2_2018_AH_v1/ttHTobb_M125_TuneCP5_13TeV-powheg-pythia8/LegacyRun2_2018_AH_v1/190706_075307/0000/tree_110.root = 25000
root://t3dcachedb.psi.ch//pnfs/psi.ch/cms/trivcat/store/user/koschwei/tth/LegacyRun2_2018_AH_v1/ttHTobb_M125_TuneCP5_13TeV-powheg-pythia8/LegacyRun2_2018_AH_v1/190706_075307/0000/tree_111.root = 25000
root://t3dcachedb.psi.ch//pnfs/psi.ch/cms/trivcat/store/user/koschwei/tth/LegacyRun2_2018_AH_v1/ttHTobb_M125_TuneCP5_13TeV-powheg-pythia8/LegacyRun2_2018_AH_v1/190706_075307/0000/tree_400.root = 25000
root://t3dcachedb.psi.ch//pnfs/psi.ch/cms/trivcat/store/user/koschwei/tth/LegacyRun2_2018_AH_v1/ttHTobb_M125_TuneCP5_13TeV-powheg-pythia8/LegacyRun2_2018_AH_v1/190706_075307/0000/tree_112.root = 25000
