{
  "unweighted": {
    "mu": {
      "MEM": 0.4091661870479584,
      "selJets_DeltaR_jj_avg": 2.226874828338623,
      "R_2": 0.3327304720878601,
      "Detaj_6": 2.290461540222168,
      "H_0": 1.4426751136779785,
      "bJets_Mass_jj_max": 413.4736633300781,
      "sphericity": 0.3220909535884857,
      "H_3": 0.31568223237991333,
      "H_4": 0.329350084066391,
      "H_5": 0.28366777300834656,
      "R_4": 0.22317087650299072,
      "R_3": 0.19312874972820282,
      "H_1": 0.4559490978717804,
      "selJets_DeltaR_jj_min": 0.5909880995750427,
      "jets_bsort_eta_1": -0.003037253161892295,
      "H_2": 0.5062858462333679,
      "aplanarity": 0.0709933415055275,
      "jets_bsort_eta_0": -0.005880683660507202,
      "jets_bsort_pt_1": 108.17435455322266,
      "R_1": 0.21979956328868866,
      "selJets_DeltaR_jj_max": 3.8703653812408447
    },
    "std": {
      "MEM": 0.35287484526634216,
      "selJets_DeltaR_jj_avg": 0.24001280963420868,
      "R_2": 0.16715304553508759,
      "Detaj_6": 0.6760215163230896,
      "H_0": 0.761967658996582,
      "bJets_Mass_jj_max": 294.7839660644531,
      "sphericity": 0.18593630194664001,
      "H_3": 0.3729172646999359,
      "H_4": 0.2829833924770355,
      "H_5": 0.2437959760427475,
      "R_4": 0.11673573404550552,
      "R_3": 0.11394358426332474,
      "H_1": 0.76407790184021,
      "selJets_DeltaR_jj_min": 0.1292782723903656,
      "jets_bsort_eta_1": 1.0842009782791138,
      "H_2": 0.49939730763435364,
      "aplanarity": 0.05879240110516548,
      "jets_bsort_eta_0": 1.0197715759277344,
      "jets_bsort_pt_1": 90.64341735839844,
      "R_1": 0.21188905835151672,
      "selJets_DeltaR_jj_max": 0.5398104190826416
    }
  }
}