{
  "LayerInitializerBias": "zeros",
  "LayerInitializerKernel": "random_uniform",
  "activation": "relu",
  "batchSize": 20000,
  "dropoutSeed": null,
  "earlyStop": false,
  "earlyStopMonitor": "val_loss",
  "inputDimention": 21,
  "isBinary": true,
  "layerDimention": [
    100,
    100,
    100
  ],
  "loss": "binary_crossentropy",
  "metrics": [
    "acc"
  ],
  "modelBuilt": true,
  "modelCompiled": true,
  "modelEvaluationTest": [
    0.5271849677260291,
    0.7413989735829439
  ],
  "modelTrained": true,
  "nLayer": 3,
  "name": "DNNBinaryCombined_v1p0_wDecay",
  "net": null,
  "outputActivation": "sigmoid",
  "useWeightDecay": true,
  "varWeights": {
    "MEM": 8.754844665527344,
    "selJets_DeltaR_jj_avg": 3.9109315872192383,
    "R_2": 2.547621488571167,
    "Detaj_6": 2.8107848167419434,
    "H_0": 2.972365140914917,
    "bJets_Mass_jj_max": 3.418766736984253,
    "sphericity": 1.660343050956726,
    "H_3": 1.076535940170288,
    "H_4": 2.541405439376831,
    "H_5": 2.661928415298462,
    "R_4": 2.892073154449463,
    "R_3": 1.82712721824646,
    "H_1": 1.166284441947937,
    "selJets_DeltaR_jj_min": 2.4548611640930176,
    "jets_bsort_eta_1": 1.2443149089813232,
    "H_2": 1.2549623250961304,
    "aplanarity": 2.10929799079895,
    "jets_bsort_eta_0": 1.3141988515853882,
    "jets_bsort_pt_1": 2.832885503768921,
    "R_1": 1.5240734815597534,
    "selJets_DeltaR_jj_max": 1.0775091648101807
  },
  "weightDecayLambda": 0.0004
}