{
  "LayerInitializerBias": "zeros",
  "LayerInitializerKernel": "random_uniform",
  "activation": "relu",
  "batchSize": 1000,
  "dropoutSeed": null,
  "earlyStop": true,
  "earlyStopMonitor": "val_loss",
  "inputDimention": 15,
  "isBinary": true,
  "layerDimention": [
    100,
    100,
    100
  ],
  "loss": "binary_crossentropy",
  "metrics": [
    "acc"
  ],
  "modelBuilt": true,
  "modelCompiled": true,
  "modelEvaluationTest": [
    0.5726124359319695,
    0.702854129593277
  ],
  "modelTrained": true,
  "nLayer": 3,
  "name": "TestDNNMulti_wDecay",
  "net": null,
  "outputActivation": "sigmoid",
  "useWeightDecay": true,
  "varWeights": {
    "met_pt": 3.6590890884399414,
    "jets_bsort_eta_1": 2.8034470081329346,
    "jets_bsort_eta_0": 2.493274211883545,
    "MEM": 5.639498233795166,
    "jets_pt_4": 3.4511148929595947,
    "selJets_DeltaR_jj_avg": 4.045328140258789,
    "selJets_DeltaR_jj_min": 3.1701204776763916,
    "aplanarity": 3.140346050262451,
    "H_5": 3.1504404544830322,
    "Detaj_7": 3.0951573848724365,
    "jets_eta_3": 2.7756187915802,
    "jets_eta_2": 2.6466448307037354,
    "selJets_DeltaR_jj_max": 2.978916883468628,
    "jets_eta_1": 2.2625136375427246,
    "R_4": 3.2540812492370605
  },
  "weightDecayLambda": 0.0001
}