{
  "unweighted": {
    "mu": {
      "MEM": 0.42314761877059937,
      "jets_pt_0": 231.52932739257812,
      "selJets_DeltaR_jj_avg": 2.2268145084381104,
      "R_2": 0.3327002227306366,
      "Detaj_6": 2.290262460708618,
      "H_0": 1.4427074193954468,
      "bJets_Mass_jj_max": 413.4166259765625,
      "bJets_DeltaR_jj_max": 3.3914284706115723,
      "sphericity": 0.3221229314804077,
      "H_3": 0.31568074226379395,
      "H_4": 0.3293245732784271,
      "H_5": 0.2836603820323944,
      "R_4": 0.22314634919166565,
      "R_3": 0.1931249499320984,
      "H_1": 0.4559813439846039,
      "selJets_DeltaR_jj_min": 0.5910035371780396,
      "jets_bsort_eta_1": -0.003038017312064767,
      "H_2": 0.5062623620033264,
      "aplanarity": 0.0710090845823288,
      "jets_pt_1": 160.2195281982422,
      "jets_bsort_eta_0": -0.005833943374454975,
      "jets_bsort_pt_1": 108.17498779296875,
      "jets_bsort_pt_0": 111.96087646484375,
      "R_1": 0.21980367600917816,
      "selJets_DeltaR_jj_max": 3.870208740234375
    },
    "std": {
      "MEM": 0.35620859265327454,
      "jets_pt_0": 129.61802673339844,
      "selJets_DeltaR_jj_avg": 0.23999804258346558,
      "R_2": 0.1671496033668518,
      "Detaj_6": 0.6760209202766418,
      "H_0": 0.7620784640312195,
      "bJets_Mass_jj_max": 294.70867919921875,
      "bJets_DeltaR_jj_max": 0.5936225652694702,
      "sphericity": 0.18594582378864288,
      "H_3": 0.37294501066207886,
      "H_4": 0.2829943001270294,
      "H_5": 0.24380072951316833,
      "R_4": 0.11672259867191315,
      "R_3": 0.11393613368272781,
      "H_1": 0.7641883492469788,
      "selJets_DeltaR_jj_min": 0.12929506599903107,
      "jets_bsort_eta_1": 1.0841411352157593,
      "H_2": 0.499464213848114,
      "aplanarity": 0.058802779763936996,
      "jets_pt_1": 86.20551300048828,
      "jets_bsort_eta_0": 1.0196951627731323,
      "jets_bsort_pt_1": 90.6430892944336,
      "jets_bsort_pt_0": 85.18777465820312,
      "R_1": 0.21189169585704803,
      "selJets_DeltaR_jj_max": 0.5397665500640869
    }
  }
}