                   H_0 : 5.029
                   R_2 : 4.619
                   R_3 : 3.741
             jets_pt_4 : 3.707
                   H_5 : 3.662
            aplanarity : 3.643
  selJets_DeltaR_jj_avg : 3.466
  selJets_DeltaR_jj_min : 3.262
      jets_bsort_eta_1 : 3.234
                   R_1 : 3.206
                met_pt : 3.153
               Detaj_7 : 3.146
            sphericity : 3.093
  selJets_DeltaR_jj_max : 3.082
                   R_4 : 2.976
             jets_pt_6 : 2.938
      jets_bsort_eta_0 : 2.759
                   H_4 : 2.554
            jets_eta_3 : 2.216
            jets_eta_4 : 1.926
