{
    "QCD1000": {
        "7j": {
            "3t": {
                "CR": 0.6121506860068423,
                "CR2": 1.0828024766906261,
                "SR": 0.6480149236605538,
                "VR": 1.1221895224188045
            },
            "4t": {
                "CR": 0.6376224599784063,
                "CR2": 1.1543765296916977,
                "SR": 0.6350601630832194,
                "VR": 1.0103169603288638
            }
        },
        "8j": {
            "3t": {
                "CR": 0.5589667429634244,
                "CR2": 1.0590097302622172,
                "SR": 0.6067184133936366,
                "VR": 1.0604314181460779
            },
            "4t": {
                "CR": 0.5771174707366077,
                "CR2": 1.0304067043276663,
                "SR": 0.5659892383912735,
                "VR": 1.1951017057593187
            }
        },
        "9j": {
            "3t": {
                "CR": 0.5029102710296273,
                "CR2": 1.0823981908953946,
                "SR": 0.5359002226990316,
                "VR": 1.0324758269921552
            },
            "4t": {
                "CR": 0.5198804467329522,
                "CR2": 0.9827193246419206,
                "SR": 0.649595285398045,
                "VR": 1.0437516475607986
            }
        },
        "ge7j": {
            "3t": {
                "CR": 0.5680164157170655,
                "CR2": 1.0746109796344345,
                "SR": 0.5942739734377401,
                "VR": 1.0730238419025493
            },
            "4t": {
                "CR": 0.5479665996405025,
                "CR2": 1.0233722694782283,
                "SR": 0.6068280430328268,
                "VR": 1.0963726129497051
            }
        },
        "ge8j": {
            "3t": {
                "CR": -1,
                "CR2": -1,
                "SR": -1,
                "VR": -1
            },
            "4t": {
                "CR": -1,
                "CR2": -1,
                "SR": -1,
                "VR": -1
            }
        }
    },
    "QCD1500": {
        "7j": {
            "3t": {
                "CR": 0.6292959471777704,
                "CR2": 1.0754869585020659,
                "SR": 0.6342168237224219,
                "VR": 1.1437455325307486
            },
            "4t": {
                "CR": 0.613009707180397,
                "CR2": 0.9816151072493429,
                "SR": 0.6948237300705116,
                "VR": 1.0468669431486703
            }
        },
        "8j": {
            "3t": {
                "CR": 0.5824960012354686,
                "CR2": 1.0678367429669202,
                "SR": 0.639068255879975,
                "VR": 1.1509908760781293
            },
            "4t": {
                "CR": 0.576366806219257,
                "CR2": 1.0261238692011985,
                "SR": 0.5956399827203567,
                "VR": 1.0585149740362823
            }
        },
        "9j": {
            "3t": {
                "CR": 0.5415698086811451,
                "CR2": 1.0853008252701835,
                "SR": 0.5311578874170638,
                "VR": 1.0635506453246975
            },
            "4t": {
                "CR": 0.5203252493196191,
                "CR2": 0.9977910294965336,
                "SR": 0.5800435172405641,
                "VR": 1.0495531566768865
            }
        },
        "ge7j": {
            "3t": {
                "CR": 0.5829463800811354,
                "CR2": 1.0752110379399382,
                "SR": 0.5938365732377531,
                "VR": 1.1226748255908912
            },
            "4t": {
                "CR": 0.5467595942647038,
                "CR2": 1.011304625122233,
                "SR": 0.5619736808602382,
                "VR": 1.0717207383227585
            }
        },
        "ge8j": {
            "3t": {
                "CR": -1,
                "CR2": -1,
                "SR": -1,
                "VR": -1
            },
            "4t": {
                "CR": -1,
                "CR2": -1,
                "SR": -1,
                "VR": -1
            }
        }
    },
    "QCD2000": {
        "7j": {
            "3t": {
                "CR": 0.648741346555457,
                "CR2": 1.0941787646788945,
                "SR": 0.6502174549962327,
                "VR": 1.1778661887295097
            },
            "4t": {
                "CR": 0.5186944860115089,
                "CR2": 1.1111939084830031,
                "SR": 0.49455037314129535,
                "VR": 0.9829426476158083
            }
        },
        "8j": {
            "3t": {
                "CR": 0.597278101086969,
                "CR2": 1.09467456223087,
                "SR": 0.6229260380768181,
                "VR": 1.106731547845042
            },
            "4t": {
                "CR": 0.6236026155031271,
                "CR2": 0.9740551531881292,
                "SR": 1.0521151103124413,
                "VR": 0.9540187130098375
            }
        },
        "9j": {
            "3t": {
                "CR": 0.5802269598382037,
                "CR2": 1.086818350385395,
                "SR": 0.5665362815457715,
                "VR": 0.9547503778989056
            },
            "4t": {
                "CR": 0.5155575926769588,
                "CR2": 1.0666138069600668,
                "SR": 0.5414521614389297,
                "VR": 1.1151340238194876
            }
        },
        "ge7j": {
            "3t": {
                "CR": 0.6098585117122473,
                "CR2": 1.0967952295096388,
                "SR": 0.5983696549985797,
                "VR": 1.0746944715521747
            },
            "4t": {
                "CR": 0.5523138947782544,
                "CR2": 1.0242581743231687,
                "SR": 0.5736310204297446,
                "VR": 1.0495117524445714
            }
        },
        "ge8j": {
            "3t": {
                "CR": -1,
                "CR2": -1,
                "SR": -1,
                "VR": -1
            },
            "4t": {
                "CR": -1,
                "CR2": -1,
                "SR": -1,
                "VR": -1
            }
        }
    },
    "QCD300": {
        "7j": {
            "3t": {
                "CR": 0.6145108171770589,
                "CR2": 1.0114877568606422,
                "SR": 0.603676394822917,
                "VR": 1.03670221418116
            },
            "4t": {
                "CR": 0.7176372945854143,
                "CR2": 0.9028150405787032,
                "SR": 0.6722008603666213,
                "VR": 1.2973674254765213
            }
        },
        "8j": {
            "3t": {
                "CR": 0.4748369920804576,
                "CR2": 0.992446492748722,
                "SR": 0.3673797351735399,
                "VR": 0.7944382774499209
            },
            "4t": {
                "CR": 0.4537389747626395,
                "CR2": 1.0581060339666915,
                "SR": 0.656464059443355,
                "VR": 0.5877834977280143
            }
        },
        "9j": {
            "3t": {
                "CR": 0.45278865327641865,
                "CR2": 0.8963449996215785,
                "SR": 0.5069252177598451,
                "VR": 0.6829260072079508
            },
            "4t": {
                "CR": 1.0030803304363336,
                "CR2": 0.8135676738518108,
                "SR": 1,
                "VR": 1
            }
        },
        "ge7j": {
            "3t": {
                "CR": 0.5392490181613524,
                "CR2": 0.9704873398532453,
                "SR": 0.4872799527490382,
                "VR": 0.9139085751034909
            },
            "4t": {
                "CR": 0.5773866284649009,
                "CR2": 0.9073670432898658,
                "SR": 0.6628200456780803,
                "VR": 0.8926289119628585
            }
        },
        "ge8j": {
            "3t": {
                "CR": -1,
                "CR2": -1,
                "SR": -1,
                "VR": -1
            },
            "4t": {
                "CR": -1,
                "CR2": -1,
                "SR": -1,
                "VR": -1
            }
        }
    },
    "QCD500": {
        "7j": {
            "3t": {
                "CR": 0.5666140255660921,
                "CR2": 0.992710489356578,
                "SR": 0.6156944083557458,
                "VR": 1.0512507394382415
            },
            "4t": {
                "CR": 0.5834052013743972,
                "CR2": 0.9738364532587697,
                "SR": 0.6922551398709476,
                "VR": 0.99424403181779
            }
        },
        "8j": {
            "3t": {
                "CR": 0.53224845777883,
                "CR2": 0.9888449660759335,
                "SR": 0.5448184392812084,
                "VR": 0.986139773943951
            },
            "4t": {
                "CR": 0.5719604461790844,
                "CR2": 0.9471118165206773,
                "SR": 0.6507264523710876,
                "VR": 1.0703233166577877
            }
        },
        "9j": {
            "3t": {
                "CR": 0.4983529359304638,
                "CR2": 0.942689361615267,
                "SR": 0.45537088549278365,
                "VR": 1.0132861840689462
            },
            "4t": {
                "CR": 0.3802445615347945,
                "CR2": 0.8533229794196322,
                "SR": 0.4750663145588816,
                "VR": 1.0305931606279208
            }
        },
        "ge7j": {
            "3t": {
                "CR": 0.5465318520994724,
                "CR2": 0.9877192609373453,
                "SR": 0.5651173394233715,
                "VR": 1.0295769929892542
            },
            "4t": {
                "CR": 0.5183710806769375,
                "CR2": 0.9261364253916126,
                "SR": 0.5983770602282981,
                "VR": 1.0334753758010167
            }
        },
        "ge8j": {
            "3t": {
                "CR": -1,
                "CR2": -1,
                "SR": -1,
                "VR": -1
            },
            "4t": {
                "CR": -1,
                "CR2": -1,
                "SR": -1,
                "VR": -1
            }
        }
    },
    "QCD700": {
        "7j": {
            "3t": {
                "CR": 0.6001658470370392,
                "CR2": 1.0584568418906342,
                "SR": 0.635562779537866,
                "VR": 1.074925121338796
            },
            "4t": {
                "CR": 0.5817023059797499,
                "CR2": 1.0482134855810856,
                "SR": 0.6305799254904414,
                "VR": 1.132116395339948
            }
        },
        "8j": {
            "3t": {
                "CR": 0.5421567099260244,
                "CR2": 1.0407342728174764,
                "SR": 0.5726415005020746,
                "VR": 1.0462160127099687
            },
            "4t": {
                "CR": 0.5673885632327827,
                "CR2": 0.9896811002845863,
                "SR": 0.6330594402321382,
                "VR": 1.056904910274913
            }
        },
        "9j": {
            "3t": {
                "CR": 0.48606626740737036,
                "CR2": 1.0016631834768817,
                "SR": 0.49012265547354517,
                "VR": 1.0211747649005443
            },
            "4t": {
                "CR": 0.45690641077296285,
                "CR2": 0.898830596900454,
                "SR": 0.6270655445582144,
                "VR": 1.0774219994568144
            }
        },
        "ge7j": {
            "3t": {
                "CR": 0.557038833622917,
                "CR2": 1.043648514746945,
                "SR": 0.5827098541144015,
                "VR": 1.0585825871412644
            },
            "4t": {
                "CR": 0.5330633973683218,
                "CR2": 0.9762469249256335,
                "SR": 0.6293544373843741,
                "VR": 1.0926004230903128
            }
        },
        "ge8j": {
            "3t": {
                "CR": -1,
                "CR2": -1,
                "SR": -1,
                "VR": -1
            },
            "4t": {
                "CR": -1,
                "CR2": -1,
                "SR": -1,
                "VR": -1
            }
        }
    },
    "SingleMuon": {
        "7j": {
            "3t": {
                "CR": -1,
                "CR2": -1,
                "SR": -1,
                "VR": -1
            },
            "4t": {
                "CR": -1,
                "CR2": -1,
                "SR": -1,
                "VR": -1
            }
        },
        "8j": {
            "3t": {
                "CR": -1,
                "CR2": -1,
                "SR": -1,
                "VR": -1
            },
            "4t": {
                "CR": -1,
                "CR2": -1,
                "SR": -1,
                "VR": -1
            }
        },
        "9j": {
            "3t": {
                "CR": -1,
                "CR2": -1,
                "SR": -1,
                "VR": -1
            },
            "4t": {
                "CR": -1,
                "CR2": -1,
                "SR": -1,
                "VR": -1
            }
        },
        "ge7j": {
            "3t": {
                "CR": -1,
                "CR2": -1,
                "SR": -1,
                "VR": -1
            },
            "4t": {
                "CR": -1,
                "CR2": -1,
                "SR": -1,
                "VR": -1
            }
        },
        "ge8j": {
            "3t": {
                "CR": -1,
                "CR2": -1,
                "SR": -1,
                "VR": -1
            },
            "4t": {
                "CR": -1,
                "CR2": -1,
                "SR": -1,
                "VR": -1
            }
        }
    },
    "TTbar_dl": {
        "7j": {
            "3t": {
                "CR": 0.42590301429725297,
                "CR2": 0.7527009726358431,
                "SR": 0.4472264884012265,
                "VR": 0.7802260208322415
            },
            "4t": {
                "CR": 0.39146662150664807,
                "CR2": 0.6646270715160957,
                "SR": 0.5252304244373777,
                "VR": 0.6584055928706719
            }
        },
        "8j": {
            "3t": {
                "CR": 0.3836820060737919,
                "CR2": 0.7418229789076056,
                "SR": 0.4043410359612583,
                "VR": 0.7222309253506972
            },
            "4t": {
                "CR": 0.3700514607056849,
                "CR2": 0.6478559431888871,
                "SR": 0.430057713654728,
                "VR": 0.8154949289939036
            }
        },
        "9j": {
            "3t": {
                "CR": 0.3535625209798276,
                "CR2": 0.6572905642469715,
                "SR": 0.3575029689356977,
                "VR": 0.7007143252346711
            },
            "4t": {
                "CR": 0.34454771596111006,
                "CR2": 0.6306330596179364,
                "SR": 0.37085220273498165,
                "VR": 0.7688379318514493
            }
        },
        "ge7j": {
            "3t": {
                "CR": 0.3974221051594153,
                "CR2": 0.7349831658539603,
                "SR": 0.4110487839635086,
                "VR": 0.7480994500502061
            },
            "4t": {
                "CR": 0.36863326909363386,
                "CR2": 0.644318508341414,
                "SR": 0.4241320411964428,
                "VR": 0.7612911304866552
            }
        },
        "ge8j": {
            "3t": {
                "CR": -1,
                "CR2": -1,
                "SR": -1,
                "VR": -1
            },
            "4t": {
                "CR": -1,
                "CR2": -1,
                "SR": -1,
                "VR": -1
            }
        }
    },
    "TTbar_fh": {
        "7j": {
            "3t": {
                "CR": 0.8784526776018651,
                "CR2": 1.0940239892274477,
                "SR": 0.8902506576339336,
                "VR": 1.0946346864135212
            },
            "4t": {
                "CR": 0.8902412966355912,
                "CR2": 1.058741480362272,
                "SR": 0.9250670507570755,
                "VR": 1.0819672984728037
            }
        },
        "8j": {
            "3t": {
                "CR": 0.8080459098139788,
                "CR2": 1.0875659288427866,
                "SR": 0.8224328786518939,
                "VR": 1.0921198991258156
            },
            "4t": {
                "CR": 0.8193893623032573,
                "CR2": 1.0577344659882462,
                "SR": 0.865065694956248,
                "VR": 1.0804732802342645
            }
        },
        "9j": {
            "3t": {
                "CR": 0.7339005635076591,
                "CR2": 1.077261594297144,
                "SR": 0.7501911001411016,
                "VR": 1.0861875311751508
            },
            "4t": {
                "CR": 0.7250556642514892,
                "CR2": 1.0442559300599699,
                "SR": 0.7667720140855157,
                "VR": 1.0657986845540568
            }
        },
        "ge7j": {
            "3t": {
                "CR": 0.8217616212817915,
                "CR2": 1.0891000941230342,
                "SR": 0.8281761969888308,
                "VR": 1.09219733324707
            },
            "4t": {
                "CR": 0.7947842443554272,
                "CR2": 1.0541796046679068,
                "SR": 0.8277986202493665,
                "VR": 1.0759134501704943
            }
        },
        "ge8j": {
            "3t": {
                "CR": -1,
                "CR2": -1,
                "SR": -1,
                "VR": -1
            },
            "4t": {
                "CR": -1,
                "CR2": -1,
                "SR": -1,
                "VR": -1
            }
        }
    },
    "TTbar_sl": {
        "7j": {
            "3t": {
                "CR": 0.6241057313476507,
                "CR2": 0.9250007619416666,
                "SR": 0.646892859636132,
                "VR": 0.9614529605884223
            },
            "4t": {
                "CR": 0.6260315481463884,
                "CR2": 0.8503062583830872,
                "SR": 0.6874156400000582,
                "VR": 0.9380549104564975
            }
        },
        "8j": {
            "3t": {
                "CR": 0.5655282918169581,
                "CR2": 0.8998689190939302,
                "SR": 0.5871099421611926,
                "VR": 0.9335509212026094
            },
            "4t": {
                "CR": 0.5684846288660291,
                "CR2": 0.8248169534966574,
                "SR": 0.6242835128836656,
                "VR": 0.9379434387328291
            }
        },
        "9j": {
            "3t": {
                "CR": 0.511518626707312,
                "CR2": 0.8891505589208732,
                "SR": 0.5270788202727948,
                "VR": 0.8947454302368146
            },
            "4t": {
                "CR": 0.49471155269512107,
                "CR2": 0.7834938455622348,
                "SR": 0.546943984779009,
                "VR": 0.9151847647600915
            }
        },
        "ge7j": {
            "3t": {
                "CR": 0.5818513703164323,
                "CR2": 0.9097412508112473,
                "SR": 0.5971582769546387,
                "VR": 0.9368697989788553
            },
            "4t": {
                "CR": 0.5515133431855768,
                "CR2": 0.8192178706931931,
                "SR": 0.6012890046248398,
                "VR": 0.9268327541052732
            }
        },
        "ge8j": {
            "3t": {
                "CR": -1,
                "CR2": -1,
                "SR": -1,
                "VR": -1
            },
            "4t": {
                "CR": -1,
                "CR2": -1,
                "SR": -1,
                "VR": -1
            }
        }
    },
    "WJetsToQQ600": {
        "7j": {
            "3t": {
                "CR": 0.7939233511470056,
                "CR2": 1.1070212481939297,
                "SR": 0.7797308418141906,
                "VR": 1.0329883977467216
            },
            "4t": {
                "CR": 0.8054719372837954,
                "CR2": 1.1117602844563041,
                "SR": 0.7329816178383134,
                "VR": 0.7790910505578198
            }
        },
        "8j": {
            "3t": {
                "CR": 0.7076788470751086,
                "CR2": 1.05084360310055,
                "SR": 0.7544482252601343,
                "VR": 1.0138209299889644
            },
            "4t": {
                "CR": 0.6992716986917203,
                "CR2": 1.0533351174232402,
                "SR": 0.7881230279579737,
                "VR": 0.8553222773989843
            }
        },
        "9j": {
            "3t": {
                "CR": 0.6296347770919671,
                "CR2": 1.0338786276435354,
                "SR": 0.6286979410635037,
                "VR": 1.2317353697872466
            },
            "4t": {
                "CR": 0.5654745803858721,
                "CR2": 0.9250756852499648,
                "SR": 0.7596714641239027,
                "VR": 1
            }
        },
        "ge7j": {
            "3t": {
                "CR": 0.7396484332108512,
                "CR2": 1.080958190613082,
                "SR": 0.7422836682987425,
                "VR": 1.0502375889050382
            },
            "4t": {
                "CR": 0.6760348224090372,
                "CR2": 1.0335746669048969,
                "SR": 0.7739210792857093,
                "VR": 0.8475192189664873
            }
        },
        "ge8j": {
            "3t": {
                "CR": -1,
                "CR2": -1,
                "SR": -1,
                "VR": -1
            },
            "4t": {
                "CR": -1,
                "CR2": -1,
                "SR": -1,
                "VR": -1
            }
        }
    },
    "WJetsToQQ800": {
        "7j": {
            "3t": {
                "CR": 0.7720298018017321,
                "CR2": 1.1388009495550022,
                "SR": 0.8189029903831342,
                "VR": 1.0733071415135274
            },
            "4t": {
                "CR": 0.768241836803636,
                "CR2": 1.1237638114760484,
                "SR": 0.8143683136608728,
                "VR": 1.3562115125817915
            }
        },
        "8j": {
            "3t": {
                "CR": 0.7381145639986315,
                "CR2": 1.0932967125657689,
                "SR": 0.7519626467370355,
                "VR": 1.090744949118785
            },
            "4t": {
                "CR": 0.7052950268347367,
                "CR2": 1.0771045297454724,
                "SR": 0.7361337364677368,
                "VR": 1.1339800878856798
            }
        },
        "9j": {
            "3t": {
                "CR": 0.6757754505503403,
                "CR2": 1.1201663313479495,
                "SR": 0.6815444326336583,
                "VR": 1.0169789555736874
            },
            "4t": {
                "CR": 0.6185497517967805,
                "CR2": 1.0701989211616239,
                "SR": 0.5758944087276978,
                "VR": 1.1295762217924668
            }
        },
        "ge7j": {
            "3t": {
                "CR": 0.73745463586497,
                "CR2": 1.1192979524315796,
                "SR": 0.7506676927683479,
                "VR": 1.061561680246977
            },
            "4t": {
                "CR": 0.6608344086943158,
                "CR2": 1.0895604251068298,
                "SR": 0.6694705132410684,
                "VR": 1.14301402374523
            }
        },
        "ge8j": {
            "3t": {
                "CR": -1,
                "CR2": -1,
                "SR": -1,
                "VR": -1
            },
            "4t": {
                "CR": -1,
                "CR2": -1,
                "SR": -1,
                "VR": -1
            }
        }
    },
    "WjetstoQQ400": {
        "7j": {
            "3t": {
                "CR": 0.7712985119658514,
                "CR2": 1.0451822178850612,
                "SR": 0.6775760213650717,
                "VR": 0.9561414154454168
            },
            "4t": {
                "CR": 0.7901613632704605,
                "CR2": 1.019494822467632,
                "SR": 0.8108461956217939,
                "VR": 1
            }
        },
        "8j": {
            "3t": {
                "CR": 0.7351067568245427,
                "CR2": 1.037360948795482,
                "SR": 0.6765837844725926,
                "VR": 1.0654170936961083
            },
            "4t": {
                "CR": 0.5311997469252974,
                "CR2": 1.0096210942819024,
                "SR": 1.0749343761667773,
                "VR": 0.760854106258292
            }
        },
        "9j": {
            "3t": {
                "CR": 0.5185131157504473,
                "CR2": 1.149654188113336,
                "SR": 0.6001496764427667,
                "VR": 1.0268336342763957
            },
            "4t": {
                "CR": 0.6828026893873567,
                "CR2": 1.1898948664179898,
                "SR": 0.806424109138414,
                "VR": 1
            }
        },
        "ge7j": {
            "3t": {
                "CR": 0.7313748484028747,
                "CR2": 1.0432660746438678,
                "SR": 0.6634015164757195,
                "VR": 1.017947250952232
            },
            "4t": {
                "CR": 0.6386411029595515,
                "CR2": 1.0162226669739862,
                "SR": 0.9137000031971981,
                "VR": 0.760854106258292
            }
        },
        "ge8j": {
            "3t": {
                "CR": -1,
                "CR2": -1,
                "SR": -1,
                "VR": -1
            },
            "4t": {
                "CR": -1,
                "CR2": -1,
                "SR": -1,
                "VR": -1
            }
        }
    },
    "ZJetsToQQ400": {
        "7j": {
            "3t": {
                "CR": 0.742204994199469,
                "CR2": 1.053124644571946,
                "SR": 0.7622508734444747,
                "VR": 1.0254217013668383
            },
            "4t": {
                "CR": 0.7506232997189762,
                "CR2": 1.0194914775393111,
                "SR": 0.7792853998688503,
                "VR": 0.984748946138991
            }
        },
        "8j": {
            "3t": {
                "CR": 0.6484300282268763,
                "CR2": 0.9600256810442012,
                "SR": 0.6417106608980222,
                "VR": 1.0826239746760393
            },
            "4t": {
                "CR": 0.6924183142745194,
                "CR2": 0.908596357093971,
                "SR": 0.8737970820211431,
                "VR": 1.0095732275659313
            }
        },
        "9j": {
            "3t": {
                "CR": 0.6858737711235564,
                "CR2": 0.8360709099837087,
                "SR": 0.5756956457092737,
                "VR": 1.051308601632216
            },
            "4t": {
                "CR": 0.6514799886621626,
                "CR2": 0.6746521517112968,
                "SR": 0.5671843074602464,
                "VR": 0.7992960580932793
            }
        },
        "ge7j": {
            "3t": {
                "CR": 0.7097300826375068,
                "CR2": 1.008054497485389,
                "SR": 0.6978843509265448,
                "VR": 1.0454595806726499
            },
            "4t": {
                "CR": 0.700556747153817,
                "CR2": 0.8831634961099374,
                "SR": 0.7602103204003634,
                "VR": 0.9508364986574219
            }
        },
        "ge8j": {
            "3t": {
                "CR": -1,
                "CR2": -1,
                "SR": -1,
                "VR": -1
            },
            "4t": {
                "CR": -1,
                "CR2": -1,
                "SR": -1,
                "VR": -1
            }
        }
    },
    "ZJetsToQQ600": {
        "7j": {
            "3t": {
                "CR": 0.7064055452777096,
                "CR2": 1.0699843494803876,
                "SR": 0.732802731803954,
                "VR": 1.0674254351916832
            },
            "4t": {
                "CR": 0.7139127302369274,
                "CR2": 1.0111713730614371,
                "SR": 0.7217030361412344,
                "VR": 1.0426759709792732
            }
        },
        "8j": {
            "3t": {
                "CR": 0.6636110012261474,
                "CR2": 1.041946210941034,
                "SR": 0.660173140318366,
                "VR": 1.0626297454680245
            },
            "4t": {
                "CR": 0.7122460274352631,
                "CR2": 1.0550712379970735,
                "SR": 0.6505037204008226,
                "VR": 1.043202096731094
            }
        },
        "9j": {
            "3t": {
                "CR": 0.6042892631016008,
                "CR2": 1.026883408178911,
                "SR": 0.5405940715113027,
                "VR": 0.9992747561095343
            },
            "4t": {
                "CR": 0.5901196993698701,
                "CR2": 0.9516711804643022,
                "SR": 0.5120768456900306,
                "VR": 0.9764500803179023
            }
        },
        "ge7j": {
            "3t": {
                "CR": 0.6819089969693845,
                "CR2": 1.0560662952578006,
                "SR": 0.6853260772004164,
                "VR": 1.0615373789997131
            },
            "4t": {
                "CR": 0.6832701950245091,
                "CR2": 1.013677387221202,
                "SR": 0.6366328487211689,
                "VR": 1.0295268109638256
            }
        },
        "ge8j": {
            "3t": {
                "CR": -1,
                "CR2": -1,
                "SR": -1,
                "VR": -1
            },
            "4t": {
                "CR": -1,
                "CR2": -1,
                "SR": -1,
                "VR": -1
            }
        }
    },
    "ZJetsToQQ800": {
        "7j": {
            "3t": {
                "CR": 0.724024466672451,
                "CR2": 1.1051199796341762,
                "SR": 0.7422525924158158,
                "VR": 1.1523444600414097
            },
            "4t": {
                "CR": 0.703706259627172,
                "CR2": 1.1141614885552615,
                "SR": 0.742151120592738,
                "VR": 1.1297150180350461
            }
        },
        "8j": {
            "3t": {
                "CR": 0.670093972801191,
                "CR2": 1.094404831993069,
                "SR": 0.7043061684159311,
                "VR": 1.1135037322346728
            },
            "4t": {
                "CR": 0.6726699849629448,
                "CR2": 1.0536624699167383,
                "SR": 0.685820271497827,
                "VR": 1.0365346394484598
            }
        },
        "9j": {
            "3t": {
                "CR": 0.6170809944612298,
                "CR2": 1.042870767726129,
                "SR": 0.6200012466819497,
                "VR": 1.1358383953814908
            },
            "4t": {
                "CR": 0.6116568581374212,
                "CR2": 1.0177204791055185,
                "SR": 0.6327814455079507,
                "VR": 1.0397417040205623
            }
        },
        "ge7j": {
            "3t": {
                "CR": 0.6841093031621455,
                "CR2": 1.0923213465510244,
                "SR": 0.7007811603429082,
                "VR": 1.1366586115927977
            },
            "4t": {
                "CR": 0.6567525740838565,
                "CR2": 1.0534912526353064,
                "SR": 0.6824494853168425,
                "VR": 1.0520213653493016
            }
        },
        "ge8j": {
            "3t": {
                "CR": -1,
                "CR2": -1,
                "SR": -1,
                "VR": -1
            },
            "4t": {
                "CR": -1,
                "CR2": -1,
                "SR": -1,
                "VR": -1
            }
        }
    },
    "data": {
        "7j": {
            "3t": {
                "CR": -1,
                "CR2": -1,
                "SR": -1,
                "VR": -1
            },
            "4t": {
                "CR": -1,
                "CR2": -1,
                "SR": -1,
                "VR": -1
            }
        },
        "8j": {
            "3t": {
                "CR": -1,
                "CR2": -1,
                "SR": -1,
                "VR": -1
            },
            "4t": {
                "CR": -1,
                "CR2": -1,
                "SR": -1,
                "VR": -1
            }
        },
        "9j": {
            "3t": {
                "CR": -1,
                "CR2": -1,
                "SR": -1,
                "VR": -1
            },
            "4t": {
                "CR": -1,
                "CR2": -1,
                "SR": -1,
                "VR": -1
            }
        },
        "ge7j": {
            "3t": {
                "CR": -1,
                "CR2": -1,
                "SR": -1,
                "VR": -1
            },
            "4t": {
                "CR": -1,
                "CR2": -1,
                "SR": -1,
                "VR": -1
            }
        },
        "ge8j": {
            "3t": {
                "CR": -1,
                "CR2": -1,
                "SR": -1,
                "VR": -1
            },
            "4t": {
                "CR": -1,
                "CR2": -1,
                "SR": -1,
                "VR": -1
            }
        }
    },
    "st_s": {
        "7j": {
            "3t": {
                "CR": 0.5963110838598402,
                "CR2": 0.9035063206978057,
                "SR": 0.6533556958567338,
                "VR": 0.9001565972294311
            },
            "4t": {
                "CR": 0.4046293228594713,
                "CR2": 0.7457041922510756,
                "SR": 0.3870573465611163,
                "VR": 1
            }
        },
        "8j": {
            "3t": {
                "CR": 0.5437189881978809,
                "CR2": 0.8843022231070374,
                "SR": 0.5945485435094676,
                "VR": 0.7184123628252089
            },
            "4t": {
                "CR": 0.5374830651580266,
                "CR2": 1.4866120972419068,
                "SR": 0.4510633614968802,
                "VR": 1.448574319755853
            }
        },
        "9j": {
            "3t": {
                "CR": 0.3177617909390286,
                "CR2": 1.134987842066683,
                "SR": 0.4570593661601886,
                "VR": 1.0824482254007433
            },
            "4t": {
                "CR": 0.3636107915109122,
                "CR2": 0.9809684012498401,
                "SR": 1,
                "VR": 1
            }
        },
        "ge7j": {
            "3t": {
                "CR": 0.5229705839709204,
                "CR2": 0.9211561693416856,
                "SR": 0.6108372821168162,
                "VR": 0.8227272039346032
            },
            "4t": {
                "CR": 0.4208456970372583,
                "CR2": 0.8343395734520188,
                "SR": 0.5328726658427754,
                "VR": 1.448574319755853
            }
        },
        "ge8j": {
            "3t": {
                "CR": -1,
                "CR2": -1,
                "SR": -1,
                "VR": -1
            },
            "4t": {
                "CR": -1,
                "CR2": -1,
                "SR": -1,
                "VR": -1
            }
        }
    },
    "st_t": {
        "7j": {
            "3t": {
                "CR": 0.7507688118978991,
                "CR2": 1.0634795252313167,
                "SR": 0.8013658419874485,
                "VR": 1.0757817279277535
            },
            "4t": {
                "CR": 0.7610220382984022,
                "CR2": 1.0619601182480078,
                "SR": 0.8022698957494542,
                "VR": 1.11274909510698
            }
        },
        "8j": {
            "3t": {
                "CR": 0.6682135179409512,
                "CR2": 1.047559640461641,
                "SR": 0.7072486803672894,
                "VR": 1.143764904829811
            },
            "4t": {
                "CR": 0.73884813001412,
                "CR2": 0.9521017242102885,
                "SR": 0.9400707901547036,
                "VR": 0.9922632283571884
            }
        },
        "9j": {
            "3t": {
                "CR": 0.5625706392608787,
                "CR2": 1.0593233721959494,
                "SR": 0.6010083293949221,
                "VR": 1.0316481462974663
            },
            "4t": {
                "CR": 0.6459084441211936,
                "CR2": 1.091228496579204,
                "SR": 0.7835598115506829,
                "VR": 1.4289322653907397
            }
        },
        "ge7j": {
            "3t": {
                "CR": 0.6808780469573609,
                "CR2": 1.0611860363859211,
                "SR": 0.7226303646191148,
                "VR": 1.0863875064818151
            },
            "4t": {
                "CR": 0.7054770628438067,
                "CR2": 1.059418793721256,
                "SR": 0.8326745658979796,
                "VR": 1.1842397175374366
            }
        },
        "ge8j": {
            "3t": {
                "CR": -1,
                "CR2": -1,
                "SR": -1,
                "VR": -1
            },
            "4t": {
                "CR": -1,
                "CR2": -1,
                "SR": -1,
                "VR": -1
            }
        }
    },
    "st_tw": {
        "7j": {
            "3t": {
                "CR": 0.8243381431239748,
                "CR2": 1.0610461350103146,
                "SR": 0.8240685410488071,
                "VR": 1.038798489406683
            },
            "4t": {
                "CR": 0.8359444373318189,
                "CR2": 1.0057586759882005,
                "SR": 0.9266101568454936,
                "VR": 1.147141502244328
            }
        },
        "8j": {
            "3t": {
                "CR": 0.7557550138666265,
                "CR2": 1.049976471915395,
                "SR": 0.7746980255212003,
                "VR": 1.1108961137013673
            },
            "4t": {
                "CR": 0.7559767170684584,
                "CR2": 1.0220063744412906,
                "SR": 0.8346932007063251,
                "VR": 1.0185662622799136
            }
        },
        "9j": {
            "3t": {
                "CR": 0.6941279135977694,
                "CR2": 1.0184882244971427,
                "SR": 0.7121814851266165,
                "VR": 0.9906789565788382
            },
            "4t": {
                "CR": 0.6907151478411703,
                "CR2": 0.9850162708037021,
                "SR": 0.7760029008710362,
                "VR": 0.9656486204255591
            }
        },
        "ge7j": {
            "3t": {
                "CR": 0.7832226461677233,
                "CR2": 1.0509857650932373,
                "SR": 0.787231446842209,
                "VR": 1.053213617829508
            },
            "4t": {
                "CR": 0.7543276445300449,
                "CR2": 1.0061353606668995,
                "SR": 0.8190956459536356,
                "VR": 1.0376167537369951
            }
        },
        "ge8j": {
            "3t": {
                "CR": -1,
                "CR2": -1,
                "SR": -1,
                "VR": -1
            },
            "4t": {
                "CR": -1,
                "CR2": -1,
                "SR": -1,
                "VR": -1
            }
        }
    },
    "stbar_t": {
        "7j": {
            "3t": {
                "CR": 0.7718165875293896,
                "CR2": 0.9991996100489757,
                "SR": 0.8275161193135842,
                "VR": 1.027852675833351
            },
            "4t": {
                "CR": 0.7357269197360904,
                "CR2": 1.0632062996464071,
                "SR": 0.661380255604759,
                "VR": 1.057245654267214
            }
        },
        "8j": {
            "3t": {
                "CR": 0.6749667716911908,
                "CR2": 1.0159494857473428,
                "SR": 0.6939954369471333,
                "VR": 1.063075635608714
            },
            "4t": {
                "CR": 0.6941085323609433,
                "CR2": 1.0799246927220592,
                "SR": 0.7989503590209885,
                "VR": 1.1168809021506148
            }
        },
        "9j": {
            "3t": {
                "CR": 0.6491148640432663,
                "CR2": 0.8767904738709374,
                "SR": 0.7749914669644647,
                "VR": 0.9457481415529948
            },
            "4t": {
                "CR": 0.720846555341022,
                "CR2": 1.0837323823913327,
                "SR": 0.519545015201579,
                "VR": 1.3189063177727522
            }
        },
        "ge7j": {
            "3t": {
                "CR": 0.7198851532233109,
                "CR2": 0.9907621104015518,
                "SR": 0.759941073326743,
                "VR": 1.0213864917009214
            },
            "4t": {
                "CR": 0.699866870526261,
                "CR2": 1.0994595060305976,
                "SR": 0.6817769717308444,
                "VR": 1.2147482689488744
            }
        },
        "ge8j": {
            "3t": {
                "CR": -1,
                "CR2": -1,
                "SR": -1,
                "VR": -1
            },
            "4t": {
                "CR": -1,
                "CR2": -1,
                "SR": -1,
                "VR": -1
            }
        }
    },
    "stbar_tw": {
        "7j": {
            "3t": {
                "CR": 0.8297327725042263,
                "CR2": 1.0348221598152572,
                "SR": 0.8422740364862162,
                "VR": 1.0409014149832294
            },
            "4t": {
                "CR": 0.8601661759005091,
                "CR2": 0.9830692481260644,
                "SR": 0.8178421661776658,
                "VR": 0.95177152535292
            }
        },
        "8j": {
            "3t": {
                "CR": 0.7609950006276567,
                "CR2": 1.028114508726706,
                "SR": 0.7758670963400086,
                "VR": 1.0562486820836878
            },
            "4t": {
                "CR": 0.7355915405836689,
                "CR2": 0.9683907844504227,
                "SR": 0.8306722656014582,
                "VR": 0.7639283993643488
            }
        },
        "9j": {
            "3t": {
                "CR": 0.690427237748068,
                "CR2": 1.05980140674117,
                "SR": 0.7050784840630235,
                "VR": 1.0312483912782335
            },
            "4t": {
                "CR": 0.6643185487268635,
                "CR2": 1.0310859902339362,
                "SR": 0.730652988625921,
                "VR": 1.0591358283767829
            }
        },
        "ge7j": {
            "3t": {
                "CR": 0.7875995007250541,
                "CR2": 1.0347966175288192,
                "SR": 0.7948426273093673,
                "VR": 1.046651461624458
            },
            "4t": {
                "CR": 0.7494845071563123,
                "CR2": 0.9754041269197977,
                "SR": 0.79173941999953,
                "VR": 0.8837895256151912
            }
        },
        "ge8j": {
            "3t": {
                "CR": -1,
                "CR2": -1,
                "SR": -1,
                "VR": -1
            },
            "4t": {
                "CR": -1,
                "CR2": -1,
                "SR": -1,
                "VR": -1
            }
        }
    },
    "ttH_hbb": {
        "7j": {
            "3t": {
                "CR": 0.861412558784193,
                "CR2": 1.0541463171527166,
                "SR": 0.8750755136637954,
                "VR": 1.065313065560366
            },
            "4t": {
                "CR": 0.8741035676482708,
                "CR2": 1.0317999361731145,
                "SR": 0.9013655471088007,
                "VR": 1.0529769185247368
            }
        },
        "8j": {
            "3t": {
                "CR": 0.8122460244782643,
                "CR2": 1.054352296615571,
                "SR": 0.8289411980419457,
                "VR": 1.059968027619168
            },
            "4t": {
                "CR": 0.8234048723512138,
                "CR2": 1.0377439500514782,
                "SR": 0.85003750296198,
                "VR": 1.0553688490145876
            }
        },
        "9j": {
            "3t": {
                "CR": 0.749087257857571,
                "CR2": 1.05583057754228,
                "SR": 0.7589920572993035,
                "VR": 1.0628025324106238
            },
            "4t": {
                "CR": 0.7430040772869703,
                "CR2": 1.0300108930230978,
                "SR": 0.768413127017696,
                "VR": 1.047791758138819
            }
        },
        "ge7j": {
            "3t": {
                "CR": 0.8152870827748936,
                "CR2": 1.0548806734197806,
                "SR": 0.820909193404485,
                "VR": 1.0634682702233775
            },
            "4t": {
                "CR": 0.8051862483024596,
                "CR2": 1.0347365731566063,
                "SR": 0.8238703162723938,
                "VR": 1.0530152673993856
            }
        },
        "ge8j": {
            "3t": {
                "CR": -1,
                "CR2": -1,
                "SR": -1,
                "VR": -1
            },
            "4t": {
                "CR": -1,
                "CR2": -1,
                "SR": -1,
                "VR": -1
            }
        }
    },
    "ttH_nonhbb": {
        "7j": {
            "3t": {
                "CR": 0.7642588389753836,
                "CR2": 1.0186374612230458,
                "SR": 0.7710709289303388,
                "VR": 1.0238007899196842
            },
            "4t": {
                "CR": 0.7470073929327531,
                "CR2": 0.9579646551536016,
                "SR": 0.797245092320285,
                "VR": 0.9648379596470199
            }
        },
        "8j": {
            "3t": {
                "CR": 0.7260097589100852,
                "CR2": 1.0157350781006662,
                "SR": 0.7348237033728253,
                "VR": 1.0077608108335578
            },
            "4t": {
                "CR": 0.707076697697203,
                "CR2": 0.9559358806027544,
                "SR": 0.7514107521389443,
                "VR": 1.0082725455792751
            }
        },
        "9j": {
            "3t": {
                "CR": 0.6782208552777448,
                "CR2": 1.0285152388618652,
                "SR": 0.6782389212228982,
                "VR": 1.0204388927037598
            },
            "4t": {
                "CR": 0.6571121811346795,
                "CR2": 0.9679935074924539,
                "SR": 0.6805707673583191,
                "VR": 0.9768508421730835
            }
        },
        "ge7j": {
            "3t": {
                "CR": 0.7213210288975629,
                "CR2": 1.0211776431376713,
                "SR": 0.7187968928729327,
                "VR": 1.0162454750526673
            },
            "4t": {
                "CR": 0.6910666199008161,
                "CR2": 0.9619106107111707,
                "SR": 0.7164712747335209,
                "VR": 0.992461047341422
            }
        },
        "ge8j": {
            "3t": {
                "CR": -1,
                "CR2": -1,
                "SR": -1,
                "VR": -1
            },
            "4t": {
                "CR": -1,
                "CR2": -1,
                "SR": -1,
                "VR": -1
            }
        }
    },
    "ttw_wqq": {
        "7j": {
            "3t": {
                "CR": 0.8833245052364238,
                "CR2": 1.0158744911715136,
                "SR": 0.923029873075893,
                "VR": 1.0364892167198525
            },
            "4t": {
                "CR": 0.8654030929716944,
                "CR2": 0.9755493685856134,
                "SR": 0.9906817955777161,
                "VR": 1.127856305783749
            }
        },
        "8j": {
            "3t": {
                "CR": 0.8708606036768342,
                "CR2": 1.055467603225784,
                "SR": 0.852902024673081,
                "VR": 0.9197420095650136
            },
            "4t": {
                "CR": 0.842495474857596,
                "CR2": 1.0954879629665235,
                "SR": 0.9528192991884585,
                "VR": 0.8699475672462899
            }
        },
        "9j": {
            "3t": {
                "CR": 0.7672142133590031,
                "CR2": 1.0992206889309786,
                "SR": 0.8147530282787769,
                "VR": 1.0985752610490411
            },
            "4t": {
                "CR": 0.7869618923547693,
                "CR2": 1.0341292634471853,
                "SR": 0.8408428569659635,
                "VR": 0.832034911940688
            }
        },
        "ge7j": {
            "3t": {
                "CR": 0.8423843028698331,
                "CR2": 1.0521839851830703,
                "SR": 0.8579310914569187,
                "VR": 1.014624606680306
            },
            "4t": {
                "CR": 0.8152176448389793,
                "CR2": 1.0378734129903961,
                "SR": 0.9013437379654381,
                "VR": 0.8943320168281405
            }
        },
        "ge8j": {
            "3t": {
                "CR": -1,
                "CR2": -1,
                "SR": -1,
                "VR": -1
            },
            "4t": {
                "CR": -1,
                "CR2": -1,
                "SR": -1,
                "VR": -1
            }
        }
    },
    "ttz_zqq": {
        "7j": {
            "3t": {
                "CR": 0.8666045129198707,
                "CR2": 1.0751391796502094,
                "SR": 0.8938811468121483,
                "VR": 1.0565101140578472
            },
            "4t": {
                "CR": 0.8527256626576769,
                "CR2": 0.9443245225950829,
                "SR": 0.8674928097333198,
                "VR": 1.0422546505120254
            }
        },
        "8j": {
            "3t": {
                "CR": 0.8591908991173066,
                "CR2": 1.0673472428378399,
                "SR": 0.8550541516891651,
                "VR": 1.044044292797915
            },
            "4t": {
                "CR": 0.8120034458067922,
                "CR2": 1.0605490336003724,
                "SR": 0.8092973598799936,
                "VR": 0.9271924721439421
            }
        },
        "9j": {
            "3t": {
                "CR": 0.772668131474919,
                "CR2": 1.118202312557309,
                "SR": 0.792068494262333,
                "VR": 1.1548794072255961
            },
            "4t": {
                "CR": 0.7503183973234223,
                "CR2": 1.2417042242040863,
                "SR": 0.8138626225081655,
                "VR": 1.1590204068186045
            }
        },
        "ge7j": {
            "3t": {
                "CR": 0.8324430927166435,
                "CR2": 1.083082125514079,
                "SR": 0.8535036307352056,
                "VR": 1.0772776943463218
            },
            "4t": {
                "CR": 0.7921815442366364,
                "CR2": 1.0741745117366743,
                "SR": 0.8443019604645433,
                "VR": 1.010804902802174
            }
        },
        "ge8j": {
            "3t": {
                "CR": -1,
                "CR2": -1,
                "SR": -1,
                "VR": -1
            },
            "4t": {
                "CR": -1,
                "CR2": -1,
                "SR": -1,
                "VR": -1
            }
        }
    },
    "ww": {
        "7j": {
            "3t": {
                "CR": 0.6718505366504127,
                "CR2": 1.0946226090687414,
                "SR": 0.9769677393914334,
                "VR": 1
            },
            "4t": {
                "CR": 0.7409612246144524,
                "CR2": 0.953463354397158,
                "SR": 1,
                "VR": 1
            }
        },
        "8j": {
            "3t": {
                "CR": 0.9256761123859518,
                "CR2": 1.0500140070686752,
                "SR": 0.4932221905154511,
                "VR": 1.1313485205489664
            },
            "4t": {
                "CR": 0.9272580647187069,
                "CR2": 1,
                "SR": 1.0129130453680384,
                "VR": 1
            }
        },
        "9j": {
            "3t": {
                "CR": 0.8256686361669844,
                "CR2": 1.761954790496102,
                "SR": 1.1024885399654274,
                "VR": 1
            },
            "4t": {
                "CR": 0.6787398571722378,
                "CR2": 1,
                "SR": 1,
                "VR": 1
            }
        },
        "ge7j": {
            "3t": {
                "CR": 0.7261609333557211,
                "CR2": 1.1673126292391893,
                "SR": 1.0024390765263784,
                "VR": 1.1313485205489664
            },
            "4t": {
                "CR": 0.758114792797171,
                "CR2": 0.953463354397158,
                "SR": 1.0129130453680384,
                "VR": 1
            }
        },
        "ge8j": {
            "3t": {
                "CR": -1,
                "CR2": -1,
                "SR": -1,
                "VR": -1
            },
            "4t": {
                "CR": -1,
                "CR2": -1,
                "SR": -1,
                "VR": -1
            }
        }
    },
    "wz": {
        "7j": {
            "3t": {
                "CR": 0.8101308977595724,
                "CR2": 1.048607096792121,
                "SR": 0.8449786911473067,
                "VR": 1.6593519565374952
            },
            "4t": {
                "CR": 0.6703062080786525,
                "CR2": 0.6434886238044464,
                "SR": 1,
                "VR": 1.5361727317477594
            }
        },
        "8j": {
            "3t": {
                "CR": 0.6625383284378663,
                "CR2": 0.8834361865807091,
                "SR": 0.5698238865440359,
                "VR": 0.49897133863466586
            },
            "4t": {
                "CR": 0.7715348226367984,
                "CR2": 0.6987755799560647,
                "SR": 0.6997783244786662,
                "VR": 1
            }
        },
        "9j": {
            "3t": {
                "CR": 0.7917590274438208,
                "CR2": 1,
                "SR": 0.36630768199354974,
                "VR": 1.0022364827781558
            },
            "4t": {
                "CR": 0.25705782011549194,
                "CR2": 0.655255581783477,
                "SR": 1,
                "VR": 1
            }
        },
        "ge7j": {
            "3t": {
                "CR": 0.7599615881639176,
                "CR2": 0.9896298142603944,
                "SR": 0.6675505705123556,
                "VR": 0.7934750034583317
            },
            "4t": {
                "CR": 0.48308162092178997,
                "CR2": 0.6619029980863329,
                "SR": 0.6997783244786662,
                "VR": 1.5361727317477594
            }
        },
        "ge8j": {
            "3t": {
                "CR": -1,
                "CR2": -1,
                "SR": -1,
                "VR": -1
            },
            "4t": {
                "CR": -1,
                "CR2": -1,
                "SR": -1,
                "VR": -1
            }
        }
    },
    "zz": {
        "7j": {
            "3t": {
                "CR": 0.6419311767862214,
                "CR2": 1.1135037380684845,
                "SR": 0.8518530508168599,
                "VR": 1.0669730226338057
            },
            "4t": {
                "CR": 1.12382790692216,
                "CR2": 1.5927932472708315,
                "SR": 0.9252652139499946,
                "VR": 1.3993629642024419
            }
        },
        "8j": {
            "3t": {
                "CR": 0.438260990837492,
                "CR2": 1.2397946181565414,
                "SR": 0.7101795477903154,
                "VR": 0.7780047389328986
            },
            "4t": {
                "CR": 0.5006199034853394,
                "CR2": 1.38077972446989,
                "SR": 1,
                "VR": 1
            }
        },
        "9j": {
            "3t": {
                "CR": 0.6047967179733962,
                "CR2": 1,
                "SR": 1,
                "VR": 1.4012888717864431
            },
            "4t": {
                "CR": 1.3711649462362683,
                "CR2": 1,
                "SR": 1.288604921846981,
                "VR": 0.4384112353372019
            }
        },
        "ge7j": {
            "3t": {
                "CR": 0.5737458282591139,
                "CR2": 1.1445634220928598,
                "SR": 0.7806226749462708,
                "VR": 1.0254148064617947
            },
            "4t": {
                "CR": 0.758341355409779,
                "CR2": 1.5001366170414652,
                "SR": 1.0236661374179918,
                "VR": 0.9263413871804304
            }
        },
        "ge8j": {
            "3t": {
                "CR": -1,
                "CR2": -1,
                "SR": -1,
                "VR": -1
            },
            "4t": {
                "CR": -1,
                "CR2": -1,
                "SR": -1,
                "VR": -1
            }
        }
    }
}